100  

  0 21 95 82 56 41  6 25 10  4 63  6 44 40 75 79  0 89 35  9  1 85 84 12  0 26 91 11 35 82 26 69 56 86 45 91 59 18 76 39 18 57 36 61 36 21 71 11 29 82 82  6 71  8 77 74 30 89 76 76 40 93 56  1 50  4 36 27 85  2  1 15 11 35 11 20 21 61 80 58 21 76 72 44 85 94 90 51  3 48 29 90 66 41 15 83 96 74 45 65
 21  0 40 54 83 14 71 77 36 53 37 26 87 76 91 13 29 11 77 32 87 67 94 79  2 10 99 56 70 99 60  4 56  2 60 72 74 46 13 20 86  4 77 15 89 48 14 89 44 59 22 57 63  6  0 62 41 62 46 25 75 76 40 66 58 30 68 78 91 13 59 49 85 84  8 38 41 56 39 53 77 50 30 58 55 19 85 52 34 53 40 69 12 85 72  7 49 46 87 58
 95 40  0 17 68 27 21  6 67 26 82 44 35  3 62  8 51  1 91 39 87 72 45 96  7 87 68 33  3 21 90 45 47 25 30 43 97 33 35 61 42 36 43  7 84  6  0  0 48 62 59 29 94 82 29  3  3 51 67 39 15 66 42 23 62 62 28 76 66 82 98 35 15 17 77 44 26 76 86 60 62 62 83 91 57 62 36  2  2 43 65 37 49 61  5 34 53 96 82 48
 82 54 17  0 28 31 75  1 95  7 92 69 62 32 97  5 39 50 82 93 71 35 14 20 74 49 50 37 79 19 51 70 42 26 79 98 60 35  9 96 70 21 37 37 67 93 93 39  2 52 26 90 26  1 68 93  7 94 19 54 37  0 20 12 11 66 84 80  1 55  9 21 12 65  7 17 51 84 87  2 27 82 71 71 40 93 27 93 92 34 39 31 26  1 87 72 59 97 46 62
 56 83 68 28  0 12 91 63 70  1 22 49 24 58 62 49 94 92 63 13 45 22 69 70 18  1 44 32  3 72 99 34 45 18 96 82 79 75 83 43 26 81 39 66 22 71 58 42 91 56 27 56 28 64 98 69 69 93 35 41 67 12 33  1 71 72 26 86 67 67 24 10 46 56 56 69 53 48 74 43 94 29 64 97 38 12 99 51 87 76 71 47 47  9 71 20 81 99 45 56
 41 14 27 31 12  0 15 99 64 57 84 83 61 25 41  8 46 52 22 33 68 52 28 75 99  6 85 65 47 90 24 79 70 28 19 87 80  4 21 34 12 20 67 24 94 10 64 52 92 49 68 65 66 28 81 17 58 99 90 70 17 57 37  2 37  3 43 20 68 35 60 23 48 40 10 42 83 82 27 49 15 34 50 42 26 33 23 16 69 97 13 35 80 40 55 30 22 76 55 56
  6 71 21 75 91 15  0 91 74 82 96  2 13  4  4 35 48 29 42 56  3 30 60 81 37 42  3 17 25 37 26 88 95 55 53 62 22 44 86 43 43 40 36 53 34 59 43 50 58 62 43  9 22 64 46 68 53  8 30 30 92  6 13 95 76 81 91 37 78 90 64 49 46 19 60 93 35 47 69 54 87 12 39 33 54 12 10  4 88 54 46 82 84  8 29 10 92 62 62 74
 25 77  6  1 63 99 91  0 48 22 85 23  3 30 12 98 69 29 61 34 53 98 94 33 77 31 54 71 78  8 78 50 76 56 80 72 26 20 57 39 68 55 71 19 32 87 41 94 21 21 20 61 13  5 46 97 61  8 92 33 73  0 16 73 74 44 55 96 67 94 83 28 22 78 55 89 11 99 84 56 30 90 87 80 20 66 59 93 79 80 28 68 99 54 69 99  1 49 63 23
 10 36 67 95 70 64 74 48  0 33 99 40 29 60 95 28 44 30 88 66  9 41  3  4 63 61 87 34 28 55 63 10 78 17 90  0 66 62 30 76  0 91 62 73 38 49 85 86 88 13 71 46 75 98 53 52 10 84 70 44  8 52 59 48 85 29 94 79  4 85 31 54 95 75 81 11 56 38 95 37 67 54 88 93 53 44 68 58 98 55 84 76 19 46 89 89  5 23 63 19
  4 53 26  7  1 57 82 22 33  0 53 20 47 17 66 60 86 14 52 27 77  5 37 27 53 88 84 63  1 26 18 85 59 24 64 81 12 72 32 64 18 79 23 56 63  2 78  3 32  3  2 18 89 50 69 66 20 97 52 81 42 28 71 71 53 87 31 36 99 98 38 97 26 31 60 83 43 16 91 96 52 48 12 17 13 35  7 96 17 59 26 30 43 53 26 37 93 35 49 33
 63 37 82 92 22 84 96 85 99 53  0 87 55 48 63 81 55 12 28 79 62 63 11 56  0 10 34  1 75 62 33 68 51 53 80 84 40  3 32 27 32 61 27 92 25  2 15  9 30  0 97 24 14 10 84 56 83  0 16 67  2  5 98 73 47 81 88 39 46 13  9 89 96 30 66 37  2  0  1  8 84 99  7 62 58 49 93 47 53 34 39  8 86 18 52  4 95  3 80  9
  6 26 44 69 49 83  2 23 40 20 87  0  3  5 26 36 92  8 94 75  8 64 73 47 68 78  8 40  6 31 85 47 96  5 98 44 86  0 93 53 16 87 94 23 61 80 35 17 45 51 26 54 59 57 25 99 87 34 79 24 41 29  7 26 71 36 18 57 16 28  1 24 68 56 81  1 54 22 67 44  6 46 30  0 86 73 15 81 68 36 12 65 18 59 93 34 92 82 69  3
 44 87 35 62 24 61 13  3 29 47 55  3  0 24 94 53 66 98  6 98 30 31 41 74 23 56 15 63 91 67 10 63  5 20 27 20 15 75 56 89 93 60 37 44 41 76 25  6 62 60 51 57 79 34 41 82 95 15 94 12 90 49 82 56 75 39 48 84 15 45 93 74 87 39 10 81 54 80 88 13 62 11 65 72 18 81 55 82 20 33 20 77 99  5 70 31 33 52 47 55
 40 76  3 32 58 25  4 30 60 17 48  5 24  0 29 74  7 30 64 45 13  7 96 98 47  0 60 94 53  6 97 20 94 42  4 30 25 64 12 44 74 96 54 44 32 74  5 84  4 44 64 68 38 35 29 11 39 69 85 79 60 83 12  5 55  9 49 88 61 92 23 54 81 58 29 27 80 10 78 55 72 49 31 63 37 68 36  5 74 74 57 65 82 51 27 28 85  5 73 48
 75 91 62 97 62 41  4 12 95 66 63 26 94 29  0 23 44  0 39 53 80 33 43 99 80 98 61 46 15  4 33 66  6 77 84 82 33 12 24 91 45 83 85 44 45 51 78 88 31  3 42 34 46 71 12 80 15 81 21 54  1 72 84  9 35 21 64  8 66 94 50 37 42 40  6 30 12 34 27 29 33 82 54 75 75 54 19 67 42 63 79 10 79 93 87 13 21 48 40 63
 79 13  8  5 49  8 35 98 28 60 81 36 53 74 23  0 97 32 73 94 16  2 30 89  9 89  0 90  9  2 79 37 54 71 49 19  9 29 53 17 79 33 12  6  9 18 80 29 45  9 81  2 97 39 92 76 21 69  1 24 22 28 47 80 22 18 89 97 52 13 99 66 27 67 89 64 80 50 34 46 18 52 31 52 22 28 21 91  9 49 75 37 35 47 47 61 80 34 75 98
  0 29 51 39 94 46 48 69 44 86 55 92 66  7 44 97  0 11 10 49  1 47 85 13 41 22 65 61 42 33 77 91 12 91 56 35 45 31 45 25 58  7 86 58 24  6 37 69 57  6 50 87 63 85 35 20 72 91 86 11 22 84 57 73  6  1 19 72 79 70 22 19  5 94  2 72 38 95 93 24 17 85 89 99 17 85 78 14 63 11 97  6 94 61 32  9 39 56 76 48
 89 11  1 50 92 52 29 29 30 14 12  8 98 30  0 32 11  0  9 93 47 40 55  3 55 81 58 29 44 33 30 48  3 80 43 88 43 17 27 56  4 86 32 76  6 41 55 32 41 20 61 75 46 60 10 38 99 62 70 30 49  3 22 17 26  2 29 62 69 28 61 33 21 55 27 73 89 88 42 26  1 22 41 66  1 88 78 68 30  9 60 44 24 42 35 90  0 13 71 61
 35 77 91 82 63 22 42 61 88 52 28 94  6 64 39 73 10  9  0 67 68 65 78 33 92 21 34 27  9 26 79 33  1 22  2 10 27 38 25 59 44 28 72 91 32 30 55 30  3 57  9 34 94 18  7 17 85 28 38 40 29 91 81 85 74 18 19 69 69 43 64 29 32 33 25 70 76 31 89 56 49 29  2 26 84 34 64 67 33 59 89 45 63 45 75 76 52 40 44 32
  9 32 39 93 13 33 56 34 66 27 79 75 98 45 53 94 49 93 67  0 10  6 35 25 75 56 78 92  4 92 98 29  9 79 98 86 40 18 53 12 48 71 15 87 79 94  1 97 40 31 87 97 57 26 41 21 51 38 82 68 68 12 48  2 66 17 49 90 31 39 61 73  6 19 45 13 21 32 56 26 79 71  7 70 35 96 47 30 32 23 35 39 56 80 28 78 62 81 80 13
  1 87 87 71 45 68  3 53  9 77 62  8 30 13 80 16  1 47 68 10  0 85 26  5 62  3 26 46 91 49 27 73 21 58  3 21 27 57 83 30 60 94 44 97 94 66  5 36 21 99 83 28  2 26 60 34 76 64 87 53 98 76 40 70 43 41 79 88 14 49 72 89 52 55 12  7 31 31 98 45 59 22 87  6 36 26 85  6 33 35 48 59 88 25 58 76 98 28 46 79
 85 67 72 35 22 52 30 98 41  5 63 64 31  7 33  2 47 40 65  6 85  0 25 18 48 95 78 77 90 23  9 85 55 54 66 11 57 69 81 99 83 16 40 23 10 67 58 30  4  4 39 58 31 92 11 53 97 56 53 64 77 51 36 52 18 53 86 40 55 78 74 23  2  8  7 88 72 27 21 50  1 48 81 93 96 43 12 60 10 36 91 83 66  3 17 24 27 95 51 84
 84 94 45 14 69 28 60 94  3 37 11 73 41 96 43 30 85 55 78 35 26 25  0 18  5 90 69 61 57  4 75  3 37 27  3 80 24 14 91 48 55  9 62 70 76 99 57 83 84 64 74 13 17 47 96 86 14 84  7 30 95 79  8 91 76 25 42 66 70 91 67  2 98  3 71 61 74 87 12 10 40 42 93 69 79 12 23 72 37 81 82 87 25  5 89 67 70 30 89 29
 12 79 96 20 70 75 81 33  4 27 56 47 74 98 99 89 13  3 33 25  5 18 18  0 68 20 78 45 99  9 16 22 83 46 86 17 66 45  3 13  3 19 88 49 84 57 93 76 49 29 25 36 24 95 48 11 58 17 45 19 52 44 92 75 95 32  9 44  1 62 62 82 28 28 94 19 41 80 94 35  7 41 65  3 70 29 13 31 50 30 26 98 38 84 65 11 58 44 48 15
  0  2  7 74 18 99 37 77 63 53  0 68 23 47 80  9 41 55 92 75 62 48  5 68  0 48  3 92 92 71 44  4 98 93 16 78 10 15 88 81 92 45 61 38 28 94 86 22  0 55 91 67 91  3 60 38 24 90 93 12 65 25 33 46 98 91 10 46 49 77  4 13 46 80 45 25 67  3 14 93 54 20 19  5 17 75 24 15 77 27 23 15 77 36 15 31 46 21 81 27
 26 10 87 49  1  6 42 31 61 88 10 78 56  0 98 89 22 81 21 56  3 95 90 20 48  0 70 89 54 96 62 46 60 18 97 12  6 43  6 73 14 66 69 97 32 97 63 72 27  3 86 77 94  8 56 28 79 54 73 65 85 25 38 76 24 38  4 91 28 21 27 38 30 45 17 93 57 85 57 97  9 78 93  1 87 16 17  9 50  7 25 13 20 14  9 85 46 41 17 35
 91 99 68 50 44 85  3 54 87 84 34  8 15 60 61  0 65 58 34 78 26 78 69 78  3 70  0  1 44 89  5  2  0 42 81 57 75 58 10  1 35 29 88  9 87 21 30  8 42 91 26  2 74 99 63 83 70 84 83 12 84 45 19 32 74 41 32 70 32 48 41 99  6 53  8 73 29 75 84 58 26 79 73 91 85 21 26 17 90 13 62 54 87 28 70 81 95 11 98 56
 11 56 33 37 32 65 17 71 34 63  1 40 63 94 46 90 61 29 27 92 46 77 61 45 92 89  1  0 46 69 17 47 96 14 18 57 44 25 29 97 27 86 68 22 74 21 30 66 48 73 17 45 13 91 81 66  7 89 55 71 60 33 89 31 46 60 17 15 84 98 12 67 56 23 24 70 46 65 28 63 80 81 29 10 58 92 20  5 26 19 69 22 90  1 67 80 75 20 32 30
 35 70  3 79  3 47 25 78 28  1 75  6 91 53 15  9 42 44  9  4 91 90 57 99 92 54 44 46  0 21 46 25 89 22 98 78 50 90 81 17 39 58 49 51 26 96 28 22 54 83 93 21 79 44 22 62 95 39 50 99 19 82 84 85 76 85 31 44 48  1 30 40 91 44 40 14 17 48 62 95 69  2 80 40 20 64 99 47 64  4 91 55 80 59 47 25 60 37 17  5
 82 99 21 19 72 90 37  8 55 26 62 31 67  6  4  2 33 33 26 92 49 23  4  9 71 96 89 69 21  0 21 31 21 21  3 87 72 25 15 35 56 91 15 69 54 72 69 21  2 91 43 24 35 98  4 96 54 67 79 51 53 36 27 75 81 97 44 21 31 50 91 13 69 80 16 74 72 84 18 85 11 97 74 85 76 25 23 77 18 32 32 81 75 23 24 51 63 12 39 61
 26 60 90 51 99 24 26 78 63 18 33 85 10 97 33 79 77 30 79 98 27  9 75 16 44 62  5 17 46 21  0 98  0 16 73 18  1  2 69 18 91 92 63 53 52 23 79 97  5 66 86  3 86 99 13  1 30 69 75 87 67 62 59 29 65 12 57 76 77  5 55 59 92 13 72 71 28 72  4 75 41 68 96  1 89  0 78 21 21 87 38 21 50 28 19 14 31 80  9  5
 69  4 45 70 34 79 88 50 10 85 68 47 63 20 66 37 91 48 33 29 73 85  3 22  4 46  2 47 25 31 98  0 90 58 90 24 96 62 71 12 52 30 29 69 90 69 48 10 94 57  3 20 87 17 37 69 96 57 76 64 60 99 97 88 29 73 81 72 19 22  0 44 48  8 63 38 46 51 77 53 44 73 51 24 56 56 57 63 87 58 66 71 10 73 18 92 86 77 23 62
 56 56 47 42 45 70 95 76 78 59 51 96  5 94  6 54 12  3  1  9 21 55 37 83 98 60  0 96 89 21  0 90  0 41 26 94 68 79 52 96 15 84 18 81 45 78 84 93 25 31 95 71 70 47 27 17 40 71 10 82 88 87 65 96 68 54 24 15 26 42 29 23 36 92 47 61 89 63  2  6 26 32 26 48 17 28 67 15 59 62 96 50 53 84 41 24 32 64  8 43
 86  2 25 26 18 28 55 56 17 24 53  5 20 42 77 71 91 80 22 79 58 54 27 46 93 18 42 14 22 21 16 58 41  0 46  2 10 46 50 25 36 22 12 22 92 92 66 51 51 57 55 39 16 79 77 64 57 33 90 78 66 84 70 81 23 86 70 88 52 27 19 71 69 49 46 11 92 13 32 51 54 44 77 84 78 78 56 49 77 72 92 99 93 81 67 94 44 32 37 31
 45 60 30 79 96 19 53 80 90 64 80 98 27  4 84 49 56 43  2 98  3 66  3 86 16 97 81 18 98  3 73 90 26 46  0 72 98 80  3 37 50 35 31 37 42 49 15 20 41 35 74 26 89  5 67 17 17 67  8 84 80 91 58  4 47 82 23 87 90 31 71 80 22 33 54 75 61 72 73 52 88 49 37 37 62 74 10 36 42 89 88 48  4 47 15 35  5 37  8 60
 91 72 43 98 82 87 62 72  0 81 84 44 20 30 82 19 35 88 10 86 21 11 80 17 78 12 57 57 78 87 18 24 94  2 72  0 65 63 96 64 76 85 30 23 64 96 23 49 74 73 35 75 14 16 31  8 16 80 74 42 92 54 64 15 16 42 45 54 25 27 38  0 28 48 23 47 84 58 11 54 17 87  2 53  6 92  1 32 79 90  0 79 59 88 50 13 30 90 70  4
 59 74 97 60 79 80 22 26 66 12 40 86 15 25 33  9 45 43 27 40 27 57 24 66 10  6 75 44 50 72  1 96 68 10 98 65  0 25 76 39 89 52 52  3  0 28 51 66  1 61 36 13 54 73 42  9 54 82 27 73  9 85 51  3 84 48  5 99 29 69 18 73 61 84 14 92 65 23 83 37 19  0 80 38 87 96 55 99  9 53 48 68 11 92 31 90 94 58 94 78
 18 46 33 35 75  4 44 20 62 72  3  0 75 64 12 29 31 17 38 18 57 69 14 45 15 43 58 25 90 25  2 62 79 46 80 63 25  0 72 58  3 70 25 94  3 17 49  9 64 19 87 97 16 63  4 16 18 78 57 36 82 57 73 35 56  7 27 54 86 49  2 10 89 11 91 36 74 54  3 33 45 93 45 17 43  8 26 30 63 23 62 14 11 11 67 19 60 91  7 91
 76 13 35  9 83 21 86 57 30 32 32 93 56 12 24 53 45 27 25 53 83 81 91  3 88  6 10 29 81 15 69 71 52 50  3 96 76 72  0 29 34 40 40 97 25 23 22 13 13 47 31 85 96 26 57 77 77 46 22 13 54 99 22 54 64 51 44 45 42 87 81 50 10 96 89 52 28 85 32 62 74 21 18 10 50 60 22 45  3 33 26 27 57 20 81 55 63 21 26 17
 39 20 61 96 43 34 43 39 76 64 27 53 89 44 91 17 25 56 59 12 30 99 48 13 81 73  1 97 17 35 18 12 96 25 37 64 39 58 29  0 67 90 85 76 20 19 39 36 17 85 22 20 80 15 55 32 32 20 23 75  8  3  5 41 71 50  1 55 99 83  8 41 30 16 20 85 12 66 43 82 64 51  3 95 13 54 71 64  7 62 20 49 22 20 24 83 86 92 58  8
 18 86 42 70 26 12 43 68  0 18 32 16 93 74 45 79 58  4 44 48 60 83 55  3 92 14 35 27 39 56 91 52 15 36 50 76 89  3 34 67  0  9 66 95 83 42 26 88 93 65 85 87 87 75 33 40 80 93 53 74 37  1 27 55 32 49 15  6 88 38 10 71 99 23 89  0  6 16 75 81 46 15 84 17 71 49 15 14 58  8 30  8 14 90 64  2 48 66 87 45
 57  4 36 21 81 20 40 55 91 79 61 87 60 96 83 33  7 86 28 71 94 16  9 19 45 66 29 86 58 91 92 30 84 22 35 85 52 70 40 90  9  0 28 89  7 20  5 43  0 63 46 19 72 45 33 36 14  2 82 55 77  1 24 61 71 91 87 31 70 19 11 88 56 47 86 88 35 60 21 18 96 57 75 31 19 19  3 53 10  4 51 77 21 70  2 26 37 17 41 28
 36 77 43 37 39 67 36 71 62 23 27 94 37 54 85 12 86 32 72 15 44 40 62 88 61 69 88 68 49 15 63 29 18 12 31 30 52 25 40 85 66 28  0 44 20 26 11 82 43 76 85 64 54 18 72 84 26 28  3 65 21 69 21 50 56 28 70 51 47 18 54 88 94 37 18 83 64 21  2 35 58 83 22 89  3 10 81  0 61 25 91  9 60 56 13 40  5 49 69 79
 61 15  7 37 66 24 53 19 73 56 92 23 44 44 44  6 58 76 91 87 97 23 70 49 38 97  9 22 51 69 53 69 81 22 37 23  3 94 97 76 95 89 44  0 19 45 87 94 77 16 71 19 22 85 24 71  5 75 17 95  6 41 49 72 91 36 87 67 39 20  0 95 50 48 79 69  7 48 86 94  9 96  7  4 84 70 44 51 58 94 92 70 26 98 23 23 23 26 15 54
 36 89 84 67 22 94 34 32 38 63 25 61 41 32 45  9 24  6 32 79 94 10 76 84 28 32 87 74 26 54 52 90 45 92 42 64  0  3 25 20 83  7 20 19  0 50 77 81  1 39 57 94 21 20 93 71 36 27 55 88 36 21 77 68  4 51 98 16 73 94 65 45 14 95 17 74 57  7 30 48 12 36 92 78 70 25 22 29 18 35 26 79 30 60 71 75 68 94 34 67
 21 48  6 93 71 10 59 87 49  2  2 80 76 74 51 18  6 41 30 94 66 67 99 57 94 97 21 21 96 72 23 69 78 92 49 96 28 17 23 19 42 20 26 45 50  0 47 85 77 72 62 93 37 74 40 14 56 86 51 54 83 50 36 21 55 95  6 71 12 88 16  3 22 85 88 64 18 52  1 54 20  1 40 95 43 16 12  1 34 69 66 15 67 50 58 25 61 59 36 61
 71 14  0 93 58 64 43 41 85 78 15 35 25  5 78 80 37 55 55  1  5 58 57 93 86 63 30 30 28 69 79 48 84 66 15 23 51 49 22 39 26  5 11 87 77 47  0  7 25 96  2 66 12 68 45 42 70 19 64  2 56 77 83 10 96 73 78  3 39 56 45 30 44 65  4  5 96  8 96 10 51 16 57 67 35 78 47 56 56 63 61  5 86 97 55 51 36 94  3 14
 11 89  0 39 42 52 50 94 86  3  9 17  6 84 88 29 69 32 30 97 36 30 83 76 22 72  8 66 22 21 97 10 93 51 20 49 66  9 13 36 88 43 82 94 81 85  7  0 83 33 96 76 64 93 19 29 56 20  0 56 18 14  4 72 33 22 82 52  3 23 78 51 26 80 57 85 84 76  4 59 74  6 57 71 23 81 45 70 64 79 86 23 91 33 79 66 97 83 94 92
 29 44 48  2 91 92 58 21 88 32 30 45 62  4 31 45 57 41  3 40 21  4 84 49  0 27 42 48 54  2  5 94 25 51 41 74  1 64 13 17 93  0 43 77  1 77 25 83  0 89  3 47 12 49 27 19 47 91 46 47 96 82 97 69 99 84 30 12 13 63 87 40 72 89 52  8 18 81 24 83 40 65  2 47 32 29 24 98 90 34 66 66 69 96 78 25 45 55 52  5
 82 59 62 52 56 49 62 21 13  3  0 51 60 44  3  9  6 20 57 31 99  4 64 29 55  3 91 73 83 91 66 57 31 57 35 73 61 19 47 85 65 63 76 16 39 72 96 33 89  0 69 31 96  4 73 59 59 53 46 43 63 26  8 80 65 62 82 95 56 59 94 82  2 88 43 95 24 71 10 60 17 77 52 74 58 63 47 17 97 10 13 98 11  8 56  0 47 41 29  4
 82 22 59 26 27 68 43 20 71  2 97 26 51 64 42 81 50 61  9 87 83 39 74 25 91 86 26 17 93 43 86  3 95 55 74 35 36 87 31 22 85 46 85 71 57 62  2 96  3 69  0 49 94 16 97 59 24 40 78 31  2 56 83 54 97 33  7 28 26 60 11 28 46 54 48 86 91 37 63 14 13 27 57 31 49 49 74 81 27 74 51 23 48 85 66 57 23 23 81  6
  6 57 29 90 56 65  9 61 46 18 24 54 57 68 34  2 87 75 34 97 28 58 13 36 67 77  2 45 21 24  3 20 71 39 26 75 13 97 85 20 87 19 64 19 94 93 66 76 47 31 49  0 17 71 36 51 60  0 48 64 18 18 30 52 92 28 35 49 42 23 39 44 91 72 27 36 27 98  9 97 44 20 22 17 50 55 30 47 94 35 93 37 65 78 76 98 91 43 44 99
 71 63 94 26 28 66 22 13 75 89 14 59 79 38 46 97 63 46 94 57  2 31 17 24 91 94 74 13 79 35 86 87 70 16 89 14 54 16 96 80 87 72 54 22 21 37 12 64 12 96 94 17  0  8 36 68 21 77 32  7 58 79 82 63 78 12 25 43 51 99 41 47 17 91 42 25 84 29  9 49 93 10 28 93 14 80 42 26 91 43 84 89 92 96 30 45 21 57  8 28
  8  6 82  1 64 28 64  5 98 50 10 57 34 35 71 39 85 60 18 26 26 92 47 95  3  8 99 91 44 98 99 17 47 79  5 16 73 63 26 15 75 45 18 85 20 74 68 93 49  4 16 71  8  0 30 31 80 10 60 26 54 96 97 56 53 86 85  0 84 72 94 61 26 88 11 66 44 34 90 12 76 74 92 15 54 93 42 64  7 74 76 43 68 44  0 18 86 85 91 20
 77  0 29 68 98 81 46 46 53 69 84 25 41 29 12 92 35 10  7 41 60 11 96 48 60 56 63 81 22  4 13 37 27 77 67 31 42  4 57 55 33 33 72 24 93 40 45 19 27 73 97 36 36 30  0 21 44 78  4 61 98 63 48 99 54 41 55 72 56 41  3 31 57 75 72 35 83 83 53 85 88 49 45 21 43 63 17 98 49 50  7 47 44 15 57 59 98  9 83 24
 74 62  3 93 69 17 68 97 52 66 56 99 82 11 80 76 20 38 17 21 34 53 86 11 38 28 83 66 62 96  1 69 17 64 17  8  9 16 77 32 40 36 84 71 71 14 42 29 19 59 59 51 68 31 21  0 23 47 30 16 28 71 11 70 93 37  9 27 93 62 54 45 29 41 73 82 32 18 38 20 52 89 26 42 55 14 58 68 71 73 64 79 97  1 60 71 52 95 41 75
 30 41  3  7 69 58 53 61 10 20 83 87 95 39 15 21 72 99 85 51 76 97 14 58 24 79 70  7 95 54 30 96 40 57 17 16 54 18 77 32 80 14 26  5 36 56 70 56 47 59 24 60 21 80 44 23  0 44 57 88 53 84 61 91 13 95 89  3 94  1 97 68 20 33 51 98  7 85 86 72  3 39 98 11 58 44 45  1 41 27 83 28 20 80 70  3 59 34 55 53
 89 62 51 94 93 99  8  8 84 97  0 34 15 69 81 69 91 62 28 38 64 56 84 17 90 54 84 89 39 67 69 57 71 33 67 80 82 78 46 20 93  2 28 75 27 86 19 20 91 53 40  0 77 10 78 47 44  0 96 36 36 63 99 69 70 53 20  9 30 80 18  4 17 17 71 90 93 14 48 52  6 78 56 40 74 98 93 32 75 68 32 60 82 24 99  3 97 23 49 54
 76 46 67 19 35 90 30 92 70 52 16 79 94 85 21  1 86 70 38 82 87 53  7 45 93 73 83 55 50 79 75 76 10 90  8 74 27 57 22 23 53 82  3 17 55 51 64  0 46 46 78 48 32 60  4 30 57 96  0 91 46 57 17 46 82  6 14 91 73 41 82 20 79 95 46 22 39 95 87 37 23 23 65 62 18 67 65  5 65 58  1 67 82 90 29 62  4 92 53 85
 76 25 39 54 41 70 30 33 44 81 67 24 12 79 54 24 11 30 40 68 53 64 30 19 12 65 12 71 99 51 87 64 82 78 84 42 73 36 13 75 74 55 65 95 88 54  2 56 47 43 31 64  7 26 61 16 88 36 91  0 81 73 34 74 12 77 34 19 15 48 11 10 80  8 23 75 31 34 66 48 15 25 46 66 76 31 36  7 37 20  2 76 67  4 46 71 66 56 95 49
 40 75 15 37 67 17 92 73  8 42  2 41 90 60  1 22 22 49 29 68 98 77 95 52 65 85 84 60 19 53 67 60 88 66 80 92  9 82 54  8 37 77 21  6 36 83 56 18 96 63  2 18 58 54 98 28 53 36 46 81  0 47 26 81 55 76 66 35 53 26 51 28 35 68 20 71 60 70 68 27 85 27 40 86 54 16 61 96 58 52 92 63 55 59 35 21 58 78 24 29
 93 76 66  0 12 57  6  0 52 28  5 29 49 83 72 28 84  3 91 12 76 51 79 44 25 25 45 33 82 36 62 99 87 84 91 54 85 57 99  3  1  1 69 41 21 50 77 14 82 26 56 18 79 96 63 71 84 63 57 73 47  0 38 78 78 57 44 37 76 70 72 85  7  9 84 41 67 19 24 74 22 32 60 20 75 83 25 92 28 39 14 73 65 86  9 26  7  7 97 83
 56 40 42 20 33 37 13 16 59 71 98  7 82 12 84 47 57 22 81 48 40 36  8 92 33 38 19 89 84 27 59 97 65 70 58 64 51 73 22  5 27 24 21 49 77 36 83  4 97  8 83 30 82 97 48 11 61 99 17 34 26 38  0 56 61  8 94 34 89 61 47 66 76 14 17 53 23 55 96  9 11 96 52 91 77  5 91 13 41 29 85 16 22 60 76 39 85  9 64 14
  1 66 23 12  1  2 95 73 48 71 73 26 56  5  9 80 73 17 85  2 70 52 91 75 46 76 32 31 85 75 29 88 96 81  4 15  3 35 54 41 55 61 50 72 68 21 10 72 69 80 54 52 63 56 99 70 91 69 46 74 81 78 56  0 55 40 27 93 88 26 77 81 19 75 55 66 64  7 17 55 79 20 93 31  7 44 37 78 25 98 17 25 21 27 67 23 61 89 60 64
 50 58 62 11 71 37 76 74 85 53 47 71 75 55 35 22  6 26 74 66 43 18 76 95 98 24 74 46 76 81 65 29 68 23 47 16 84 56 64 71 32 71 56 91  4 55 96 33 99 65 97 92 78 53 54 93 13 70 82 12 55 78 61 55  0 38 90 87  0 99 34  8 21 73 14 13 84 75 37 32 28 31 89 11 47 18 97  6 11 43 89 13 33 55 56 21  5 24 54 47
  4 30 62 66 72  3 81 44 29 87 81 36 39  9 21 18  1  2 18 17 41 53 25 32 91 38 41 60 85 97 12 73 54 86 82 42 48  7 51 50 49 91 28 36 51 95 73 22 84 62 33 28 12 86 41 37 95 53  6 77 76 57  8 40 38  0 57 78  4 50 83 70 20 71 57 35 49 31 86 28 30 92 49 83 89 44 37 62 45 22 85 38 98 56 67 84 77 67 53 46
 36 68 28 84 26 43 91 55 94 31 88 18 48 49 64 89 19 29 19 49 79 86 42  9 10  4 32 17 31 44 57 81 24 70 23 45  5 27 44  1 15 87 70 87 98  6 78 82 30 82  7 35 25 85 55  9 89 20 14 34 66 44 94 27 90 57  0 24 51 96  1 87 32 26 48 78 82 65 80 12 63 77 16 77 82  3 72 93 67 24 66 80 42 92 20 32 13 29 58 83
 27 78 76 80 86 20 37 96 79 36 39 57 84 88  8 97 72 62 69 90 88 40 66 44 46 91 70 15 44 21 76 72 15 88 87 54 99 54 45 55  6 31 51 67 16 71  3 52 12 95 28 49 43  0 72 27  3  9 91 19 35 37 34 93 87 78 24  0 85 85 70 34  1 76 45 72 69 46  2 56 70 77 33 48 59 81 59 70 76  9 65 18 76 86 20 75 96  2 49 57
 85 91 66  1 67 68 78 67  4 99 46 16 15 61 66 52 79 69 69 31 14 55 70  1 49 28 32 84 48 31 77 19 26 52 90 25 29 86 42 99 88 70 47 39 73 12 39  3 13 56 26 42 51 84 56 93 94 30 73 15 53 76 89 88  0  4 51 85  0 66 84 98 55 70 31 30 63 10  8 31 58 98 95 24  3 44 60 87 30  0 96 21 95 72 77 29 88 13 22 93
  2 13 82 55 67 35 90 94 85 98 13 28 45 92 94 13 70 28 43 39 49 78 91 62 77 21 48 98  1 50  5 22 42 27 31 27 69 49 87 83 38 19 18 20 94 88 56 23 63 59 60 23 99 72 41 62  1 80 41 48 26 70 61 26 99 50 96 85 66  0 48  9  6 14 91  4 42 29 79 39 33 76 81 10 10 53 18 99 61 88 93 33 71 42 64 39 79  8 25 71
  1 59 98  9 24 60 64 83 31 38  9  1 93 23 50 99 22 61 64 61 72 74 67 62  4 27 41 12 30 91 55  0 29 19 71 38 18  2 81  8 10 11 54  0 65 16 45 78 87 94 11 39 41 94  3 54 97 18 82 11 51 72 47 77 34 83  1 70 84 48  0 29 35 47 57 95 93 79 88 77 94 38 73 46 16 29 62 77 43 98 47 13 44 24 98 29 90 92 34 12
 15 49 35 21 10 23 49 28 54 97 89 24 74 54 37 66 19 33 29 73 89 23  2 82 13 38 99 67 40 13 59 44 23 71 80  0 73 10 50 41 71 88 88 95 45  3 30 51 40 82 28 44 47 61 31 45 68  4 20 10 28 85 66 81  8 70 87 34 98  9 29  0 75 54 80 67  2 92 54 67 24 76 37 98 96 20 14 35 65 97 27 24 60 23 97 60 75 92 73 20
 11 85 15 12 46 48 46 22 95 26 96 68 87 81 42 27  5 21 32  6 52  2 98 28 46 30  6 56 91 69 92 48 36 69 22 28 61 89 10 30 99 56 94 50 14 22 44 26 72  2 46 91 17 26 57 29 20 17 79 80 35  7 76 19 21 20 32  1 55  6 35 75  0 28  2 96 51 25 44 55 30 64 37 44 46 66 30 48 26 81 50 90 63 85 35 69 66 81 17 81
 35 84 17 65 56 40 19 78 75 31 30 56 39 58 40 67 94 55 33 19 55  8  3 28 80 45 53 23 44 80 13  8 92 49 33 48 84 11 96 16 23 47 37 48 95 85 65 80 89 88 54 72 91 88 75 41 33 17 95  8 68  9 14 75 73 71 26 76 70 14 47 54 28  0 72 71 90 59 82 21 88 34 48 78 69 76  1 13  2 21 25 44  0  3 15 54 42 87 35 76
 11  8 77  7 56 10 60 55 81 60 66 81 10 29  6 89  2 27 25 45 12  7 71 94 45 17  8 24 40 16 72 63 47 46 54 23 14 91 89 20 89 86 18 79 17 88  4 57 52 43 48 27 42 11 72 73 51 71 46 23 20 84 17 55 14 57 48 45 31 91 57 80  2 72  0 98 78 81 48 25 81 27 83 59 98 13 32 95 30 12 67 18 57 65 12 63 26 95 53 94
 20 38 44 17 69 42 93 89 11 83 37  1 81 27 30 64 72 73 70 13  7 88 61 19 25 93 73 70 14 74 71 38 61 11 75 47 92 36 52 85  0 88 83 69 74 64  5 85  8 95 86 36 25 66 35 82 98 90 22 75 71 41 53 66 13 35 78 72 30  4 95 67 96 71 98  0 26 93 48 63 64 33  9 56 50 97 52 46 15 50 96 85 60 76 29 90 42 87 36 42
 21 41 26 51 53 83 35 11 56 43  2 54 54 80 12 80 38 89 76 21 31 72 74 41 67 57 29 46 17 72 28 46 89 92 61 84 65 74 28 12  6 35 64  7 57 18 96 84 18 24 91 27 84 44 83 32  7 93 39 31 60 67 23 64 84 49 82 69 63 42 93  2 51 90 78 26  0 88 91 13 63 65 74 71  7 38 95 81 17 38 69 17 23 65 75 51 59  3 73 55
 61 56 76 84 48 82 47 99 38 16  0 22 80 10 34 50 95 88 31 32 31 27 87 80  3 85 75 65 48 84 72 51 63 13 72 58 23 54 85 66 16 60 21 48  7 52  8 76 81 71 37 98 29 34 83 18 85 14 95 34 70 19 55  7 75 31 65 46 10 29 79 92 25 59 81 93 88  0 18 39 50 94 52 54 22 83 54  1 80 83 66 24 16 79 90 50 28 28 90 83
 80 39 86 87 74 27 69 84 95 91  1 67 88 78 27 34 93 42 89 56 98 21 12 94 14 57 84 28 62 18  4 77  2 32 73 11 83  3 32 43 75 21  2 86 30  1 96  4 24 10 63  9  9 90 53 38 86 48 87 66 68 24 96 17 37 86 80  2  8 79 88 54 44 82 48 48 91 18  0 83 18 95 86 11 33 22 43 29 82 83 42 56 89 37 96  9  2 53 97 10
 58 53 60  2 43 49 54 56 37 96  8 44 13 55 29 46 24 26 56 26 45 50 10 35 93 97 58 63 95 85 75 53  6 51 52 54 37 33 62 82 81 18 35 94 48 54 10 59 83 60 14 97 49 12 85 20 72 52 37 48 27 74  9 55 32 28 12 56 31 39 77 67 55 21 25 63 13 39 83  0 65 47 75 22 16 13 10 68 91 53  2 80 78 31 53 43 85 18 47 49
 21 77 62 27 94 15 87 30 67 52 84  6 62 72 33 18 17  1 49 79 59  1 40  7 54  9 26 80 69 11 41 44 26 54 88 17 19 45 74 64 46 96 58  9 12 20 51 74 40 17 13 44 93 76 88 52  3  6 23 15 85 22 11 79 28 30 63 70 58 33 94 24 30 88 81 64 63 50 18 65  0 65 21 37 51 82 58 88 77 18 32 52  8 96 22 64 21 36  2 52
 76 50 62 82 29 34 12 90 54 48 99 46 11 49 82 52 85 22 29 71 22 48 42 41 20 78 79 81  2 97 68 73 32 44 49 87  0 93 21 51 15 57 83 96 36  1 16  6 65 77 27 20 10 74 49 89 39 78 23 25 27 32 96 20 31 92 77 77 98 76 38 76 64 34 27 33 65 94 95 47 65  0 44 10 20 85  5 39 67 29 35 58 31 10 11  5 59 64 65 22
 72 30 83 71 64 50 39 87 88 12  7 30 65 31 54 31 89 41  2  7 87 81 93 65 19 93 73 29 80 74 96 51 26 77 37  2 80 45 18  3 84 75 22  7 92 40 57 57  2 52 57 22 28 92 45 26 98 56 65 46 40 60 52 93 89 49 16 33 95 81 73 37 37 48 83  9 74 52 86 75 21 44  0 80 74 63 92 62 10 83 87 66 98 42 22 45 51  5  2 64
 44 58 91 71 97 42 33 80 93 17 62  0 72 63 75 52 99 66 26 70  6 93 69  3  5  1 91 10 40 85  1 24 48 84 37 53 38 17 10 95 17 31 89  4 78 95 67 71 47 74 31 17 93 15 21 42 11 40 62 66 86 20 91 31 11 83 77 48 24 10 46 98 44 78 59 56 71 54 11 22 37 10 80  0 55 97 83 41 81 92 68 45 56 88 49 12 23 12 49 17
 85 55 57 40 38 26 54 20 53 13 58 86 18 37 75 22 17  1 84 35 36 96 79 70 17 87 85 58 20 76 89 56 17 78 62  6 87 43 50 13 71 19  3 84 70 43 35 23 32 58 49 50 14 54 43 55 58 74 18 76 54 75 77  7 47 89 82 59  3 10 16 96 46 69 98 50  7 22 33 16 51 20 74 55  0 49 94 71 64 31 20  1 63 58 35 64 52  7 94 51
 94 19 62 93 12 33 12 66 44 35 49 73 81 68 54 28 85 88 34 96 26 43 12 29 75 16 21 92 64 25  0 56 28 78 74 92 96  8 60 54 49 19 10 70 25 16 78 81 29 63 49 55 80 93 63 14 44 98 67 31 16 83  5 44 18 44  3 81 44 53 29 20 66 76 13 97 38 83 22 13 82 85 63 97 49  0 35 82 29 16 20 80 38 54 34 85 43 47 66 18
 90 85 36 27 99 23 10 59 68  7 93 15 55 36 19 21 78 78 64 47 85 12 23 13 24 17 26 20 99 23 78 57 67 56 10  1 55 26 22 71 15  3 81 44 22 12 47 45 24 47 74 30 42 42 17 58 45 93 65 36 61 25 91 37 97 37 72 59 60 18 62 14 30  1 32 52 95 54 43 10 58  5 92 83 94 35  0 66 60 60 98 82 78 70 27 74 26 32 12  8
 51 52  2 93 51 16  4 93 58 96 47 81 82  5 67 91 14 68 67 30  6 60 72 31 15  9 17  5 47 77 21 63 15 49 36 32 99 30 45 64 14 53  0 51 29  1 56 70 98 17 81 47 26 64 98 68  1 32  5  7 96 92 13 78  6 62 93 70 87 99 77 35 48 13 95 46 81  1 29 68 88 39 62 41 71 82 66  0 11 50 15 48 83 48 13 78 96 77 67 88
  3 34  2 92 87 69 88 79 98 17 53 68 20 74 42  9 63 30 33 32 33 10 37 50 77 50 90 26 64 18 21 87 59 77 42 79  9 63  3  7 58 10 61 58 18 34 56 64 90 97 27 94 91  7 49 71 41 75 65 37 58 28 41 25 11 45 67 76 30 61 43 65 26  2 30 15 17 80 82 91 77 67 10 81 64 29 60 11  0 76 76 73 92 72 86 66 98 39 31 74
 48 53 43 34 76 97 54 80 55 59 34 36 33 74 63 49 11  9 59 23 35 36 81 30 27  7 13 19  4 32 87 58 62 72 89 90 53 23 33 62  8  4 25 94 35 69 63 79 34 10 74 35 43 74 50 73 27 68 58 20 52 39 29 98 43 22 24  9  0 88 98 97 81 21 12 50 38 83 83 53 18 29 83 92 31 16 60 50 76  0 45 98 90  3 23 60 86 15 41 13
 29 40 65 39 71 13 46 28 84 26 39 12 20 57 79 75 97 60 89 35 48 91 82 26 23 25 62 69 91 32 38 66 96 92 88  0 48 62 26 20 30 51 91 92 26 66 61 86 66 13 51 93 84 76  7 64 83 32  1  2 92 14 85 17 89 85 66 65 96 93 47 27 50 25 67 96 69 66 42  2 32 35 87 68 20 20 98 15 76 45  0 92 67 77 46 40 78  2 72 95
 90 69 37 31 47 35 82 68 76 30  8 65 77 65 10 37  6 44 45 39 59 83 87 98 15 13 54 22 55 81 21 71 50 99 48 79 68 14 27 49  8 77  9 70 79 15  5 23 66 98 23 37 89 43 47 79 28 60 67 76 63 73 16 25 13 38 80 18 21 33 13 24 90 44 18 85 17 24 56 80 52 58 66 45  1 80 82 48 73 98 92  0 53 58 34 66 41 63 26 92
 66 12 49 26 47 80 84 99 19 43 86 18 99 82 79 35 94 24 63 56 88 66 25 38 77 20 87 90 80 75 50 10 53 93  4 59 11 11 57 22 14 21 60 26 30 67 86 91 69 11 48 65 92 68 44 97 20 82 82 67 55 65 22 21 33 98 42 76 95 71 44 60 63  0 57 60 23 16 89 78  8 31 98 56 63 38 78 83 92 90 67 53  0  7 64 34  5 42 39  1
 41 85 61  1  9 40  8 54 46 53 18 59  5 51 93 47 61 42 45 80 25  3  5 84 36 14 28  1 59 23 28 73 84 81 47 88 92 11 20 20 90 70 56 98 60 50 97 33 96  8 85 78 96 44 15  1 80 24 90  4 59 86 60 27 55 56 92 86 72 42 24 23 85  3 65 76 65 79 37 31 96 10 42 88 58 54 70 48 72  3 77 58  7  0  6 85 32 13 74 58
 15 72  5 87 71 55 29 69 89 26 52 93 70 27 87 47 32 35 75 28 58 17 89 65 15  9 70 67 47 24 19 18 41 67 15 50 31 67 81 24 64  2 13 23 71 58 55 79 78 56 66 76 30  0 57 60 70 99 29 46 35  9 76 67 56 67 20 20 77 64 98 97 35 15 12 29 75 90 96 53 22 11 22 49 35 34 27 13 86 23 46 34 64  6  0 95 48 36 59  3
 83  7 34 72 20 30 10 99 89 37  4 34 31 28 13 61  9 90 76 78 76 24 67 11 31 85 81 80 25 51 14 92 24 94 35 13 90 19 55 83  2 26 40 23 75 25 51 66 25  0 57 98 45 18 59 71  3  3 62 71 21 26 39 23 21 84 32 75 29 39 29 60 69 54 63 90 51 50  9 43 64  5 45 12 64 85 74 78 66 60 40 66 34 85 95  0 41 93 32 29
 96 49 53 59 81 22 92  1  5 93 95 92 33 85 21 80 39  0 52 62 98 27 70 58 46 46 95 75 60 63 31 86 32 44  5 30 94 60 63 86 48 37  5 23 68 61 36 97 45 47 23 91 21 86 98 52 59 97  4 66 58  7 85 61  5 77 13 96 88 79 90 75 66 42 26 42 59 28  2 85 21 59 51 23 52 43 26 96 98 86 78 41  5 32 48 41  0 15 95 57
 74 46 96 97 99 76 62 49 23 35  3 82 52  5 48 34 56 13 40 81 28 95 30 44 21 41 11 20 37 12 80 77 64 32 37 90 58 91 21 92 66 17 49 26 94 59 94 83 55 41 23 43 57 85  9 95 34 23 92 56 78  7  9 89 24 67 29  2 13  8 92 92 81 87 95 87  3 28 53 18 36 64  5 12  7 47 32 77 39 15  2 63 42 13 36 93 15  0 11 95
 45 87 82 46 45 55 62 63 63 49 80 69 47 73 40 75 76 71 44 80 46 51 89 48 81 17 98 32 17 39  9 23  8 37  8 70 94  7 26 58 87 41 69 15 34 36  3 94 52 29 81 44  8 91 83 41 55 49 53 95 24 97 64 60 54 53 58 49 22 25 34 73 17 35 53 36 73 90 97 47  2 65  2 49 94 66 12 67 31 41 72 26 39 74 59 32 95 11  0 20
 65 58 48 62 56 56 74 23 19 33  9  3 55 48 63 98 48 61 32 13 79 84 29 15 27 35 56 30  5 61  5 62 43 31 60  4 78 91 17  8 45 28 79 54 67 61 14 92  5  4  6 99 28 20 24 75 53 54 85 49 29 83 14 64 47 46 83 57 93 71 12 20 81 76 94 42 55 83 10 49 52 22 64 17 51 18  8 88 74 13 95 92  1 58  3 29 57 95 20  0

  0 74 37  4 31 61 38 97 56  8 53 12 47  5 70 18 97 40  0 56 60 61 13 90 76 11 89 37 34 91 69 54 48 56 84 21 51 42 50 61 61  9 87 99 39 91 63 62 52 32 15 57 39 80 75  8 56 84 87 42 53 28 74 23 83 64 74 39 86 56 52 95 88 41 59 87 85 58 39 48 40 34 54 62 89 93 11 19 85 26  0 18 60 86 39 90 28 50 53 43
 74  0  7 74 86 79 24 79 62 79 91 98 30 39 93  3 21 11 89  8 82 28 31  1  0 13 55 46 31 25 59 79 44  0 11 75 78 98 42 53 66 23 35  7 50 86 92 99  7 56 97 28 93  5  7 86 79 62 80 27 94  4 63 25 41 28 83 40 44 18  0  2 24 49  0 25 14 85 46 15 23 98 22 32 94 28 79 70 19 54 96 79 67 92 19 40 27  3 42  4
 37  7  0 61 27  7 27 37 46 85 22 19 56 40  1 13 97 37 57 23 39 62  0 27 17 94 66 86 23 58 13 64 66  8 75 28 61 59 91 85 33 86 13 73 42  0  6 12 94 80 52 20 22 55 68 22 49 90 38 33 66 81 27 47 46 67 48 92 78 84 93 38 42  0 65 87 77 55  8 42 84 73 66 38 83 57 97 52 77 12 11  1 65 93 39  0 35 42  9 18
  4 74 61  0 54 47 85 70 82 38 91 82 84 16  5 54 87 85  3 71 85 87 60 98  3 99 52 20 33 53 63 17 45 28 43 41 80  4 30 18  8 92 98 43 50  7 30 14 47 30 80 83 19 83 69 48 93 38 12 88 74 63 96 95 21 41 25 33 68  8 81 27 60 69 37 57 35 79 96 74 46 94  5 19 19 51 85 92 43 75 70 69 35 30 76 63 89 45 24 88
 31 86 27 54  0 73  2 56 72 80 82 35 98 90 46 10 46 65 83 75 46 60 27 59 21 71 49 35 87  7 24 75 73 80  5  5 33 79  9 92 65 25 72 41 18  6 40 33 64  4 24 89 95 57 83 27 34 74  4  5  8  2  1 35 40 48 49 14 17 64 54  0 79  9 36 77 80 78 83 93 20 85 64 46 34  2 52 59  6 65 57 23 54 25 39 89 94 51 74 53
 61 79  7 47 73  0 85 21 83 18 43 60 88 14 26 10 15 55 59 80 53 92 22 55 78 12 89  1 16 97 41 11 47 46 16 43 15 91 94 73 88 11 57 25 23 55  0 67  2  0 71 75 19 59 87 26 47 72 88 48 58 73 86 48 94 14 95 40 94 15 71 30 60 46 31 33 69 31  0  0 80 18 57 98 37 30 51 66 38 62 72 69 77 40  9 46 94 25 65 17
 38 24 27 85  2 85  0 41 59 79  6 75 62 96  6  9 47 38 19 78 37 26 63 62 10 37 67 37 74  8 65 15 37 84 49 61 39 97 88 29 33 32 20  7 94  9 73 85 81 61 99 67 61 10  3 69 30 48  8 41 21 33 83 54  2  7 75 29 56 65 89 60 90 84 74 16  1 18 70 26 55 90 10 17 41 64 73 95 21 52 32  4 94 12 41 85 75 37 12 10
 97 79 37 70 56 21 41  0 73 42 26 32 56 42 70  2 10 49  7  2 46 57 22 79 99 22 61 25 51 72 89 74 59 27 94 95 17 73 39 60 68 75 36 13 64  6 20  7  4  7 58 59 85 35 84 97 93 59 99 28 94 40 50 86 97 11 91 12  6 95 19 69 44 43 28 31 94 84 60 48 48 65 84 52  8 57  1 22  5 77 97 13 71 28 95 30 32 52 70 11
 56 62 46 82 72 83 59 73  0 66 14 76 11 44 36 91 48 15 41 78 33 17  3 86 76 40 74 92 93 49  3 12 24 62 20 45 16 16 29 32 67 23 54 57 14 89 49 52 62 54 48 98 88 49 92 64 96 92  4 70 30 26 10 77 56  3 73 96 73 66 52 38 77 98 23 62 28 28  1 29 86 27  9 55 51  3 88 76 76 47 15  2 37 90 73 17 57 37 32 14
  8 79 85 38 80 18 79 42 66  0 60 66 71 99 79 29 42 62 85 10 43  6 14 53  0 84 31 52 50  6 54  9 43 58 49 92 25 25 70 35 13 30 38 35 52 66 40 30 68 56 59 51 17 57 36 91 21 21 81 91 28 69 17  3 50 18 31 21 34 92 14 37 51 58 38 61 92 62 56 14 48 91 65 59 90 38  2 51 54 60 79 63 68 51 51  5 43 99 92 27
 53 91 22 91 82 43  6 26 14 60  0 38 81 94 12 91 96 54 61 54 85 21 47 92  4 21 26 23 58 92 69 26 33 78 26 75 18 60 82 14 18  4 16 71 39  5 79 23 16 99 25  0 99 96 86  9 92 93 54 57 51 31 74 75 27 86  3 24  7 41 58 93 79 65 64 10  5 99 63 73 60 96 74 66 76 18 36 50 58 74 45 40 74 39 43 65 60  3  0 40
 12 98 19 82 35 60 75 32 76 66 38  0 17  7 48 27 77 97 77 14 44 15 89  7 18 71 21  9 26 69 78 90 22  5 22 27 98 56 96 85 60 34 42 73 30 10 59 57 88 38 42 29 77 84 57 58 44 71 86 83  2 13 91 26 16 12 20 82 91 10 88 99  7  5 71 53  1  1 91  8 32 97 26 16 97 96  0 29  4 78 58 19 42 96 96 75 89 66  8 58
 47 30 56 84 98 88 62 56 11 71 81 17  0 84 93 83 58 92 82 11 89 81 20  3 93 12 75 35 58 69  8 79 28 45 26 71 89 20 78  3 16 97 49 16 53 52 73 43  7 75 18 90 94 77 80 19 47 89 30  4 19 45 71  9 97 44 85 40 68 61 76 60 65 91 63 67 25 56 21 66 70 29 56 66 29 63 77 27 73 63 19 67 71 49 11 53 68 34 26 80
  5 39 40 16 90 14 96 42 44 99 94  7 84  0 12 16  9 74 63 16 10 15 29 91 89 93 61 15 49 72 57 68 14 92 31 15 56 41 31 84  1 39 39 79 85 34 29  9 42 77 69 47 83  7 26 11 73 28 12 71 19 64 56 43 79 25 42 43 27 70 63 57 53 84 44  5 77 39 94 72 93 80 34 31 59 30 85 52  6 99 19 95 20 62 72 97 49 77 83 73
 70 93  1  5 46 26  6 70 36 79 12 48 93 12  0 94 35 89  8 29 81 78 16 52 84  0 90  5 17  9  3 40 20 32 82 28 30  6 34 83 69 52  0 81 25 45 61 70 63 28  2 38  2 30 96 47 12 99 42 55 49 40 80 74 17  9 33 67 64 51  6 88 67 21 98 99 82 58 79 30 65 95 37 19 82 38 18 73  3 53 33 90 28 75 74 59 64 66 70 90
 18  3 13 54 10 10  9  2 91 29 91 27 83 16 94  0 62  0 33 23 60  2 19 77 36 67 31 28 42 69 74  8 23 14 40 65 40 36 27 25 97 34  9 93 88 67 19 17 15 98 24 98 82 34  8 23  8 75 41 45 53 21 97 52 87 88 97 79 65 92 50 76 13 78 34 82 21 79 59 69 50 66 21  8 40 23 24 67 58 68 24 61 55 24 42 41 28 53 97 55
 97 21 97 87 46 15 47 10 48 42 96 77 58  9 35 62  0 69 73  9 72 36 38  8 27 21 26 23 69 91 18 33 18 58 53 94 80 85 38 59 35 74 35 83 50 26 44 60 74 73 50 52 19 21 33 88  7  3 45 11  3 12 75 72 65  3 77  5 17 75 66 57 17 25 65 47 34  6 13 10 80 28 43 76 33 67 83 62 28 86 73  6 34 17 22 10  2 77 95  2
 40 11 37 85 65 55 38 49 15 62 54 97 92 74 89  0 69  0 81 84 63 14 64 63 48  9 91 26 33 41  2 10 54 26 30  8 14 88 55 49 56 28  4 42 93  0 81 77 69 51 27 27 76 41 53 45 48 15 42 65 41 77 35 56 15 80 82 98 97 12 35 84 70 26 36 59 41 57 15 10 33  0 58 95 48 90 78  2 69 99 41 73 27 99 12 58 47  7 92 87
  0 89 57  3 83 59 19  7 41 85 61 77 82 63  8 33 73 81  0 62 44 72 58 62 53 98 38 74 32  7 85 41 41 21 43 33 80 15 37 94 33 19 57 46 61 39 74 94  8 62 86 12 78 45 82 51 12 69 39 60  4 47 80 43 33  1 87 68 28 83 30 34 41 39 85 33 36  8 96 83 86 35  4 93 74 11 39 95 80  5 92 13 83 48 36 37 43 89 94 32
 56  8 23 71 75 80 78  2 78 10 54 14 11 16 29 23  9 84 62  0 28 38 55 21 25 88 58 39 90 17 32  9 58 92 14 77 30 85 85 99  7 91 44 54 75 17 59 86 44 89 10 53 37 41 64 98 83 35 61 18 35 86 70 53 30 62 92 71 81 20 83 51 85 93 75 73 60 14 87 28 61 77 10 40 62 92 20  6 71 61 81 64 65 98 90 23 85 29 50 92
 60 82 39 85 46 53 37 46 33 43 85 44 89 10 81 60 72 63 44 28  0 64 71 32 49  6 60 36 56 60 89 40 36  2  8 75 80 95 58 98 20  4 32 12 15 42  7 83 54 37 51  5 73  6 21 55 87 81 92 22 63 82 96 91 89 60  6 81 60 94 38 48 71 92 57 48 81 46  1 91 12 94 43  5 46 45 51 73 49 30 58 18 35 54 75  6  4 82 19 30
 61 28 62 87 60 92 26 57 17  6 21 15 81 15 78  2 36 14 72 38 64  0 31  3 17 42 41 83 61 26 75 51 58 17  0 61 67 55 72 16 11 87 20 38 23 27 31 86 18 85 90 77  3 85 81  8 52 67 77 45  6 20 25  0 92 83 43  2  2 51  4 38 37 43 66 30  7 78 41 85 92 88 28 63 96 49 11 14 11 32  6  3 58 26  6  6 54 30 94 24
 13 31  0 60 27 22 63 22  3 14 47 89 20 29 16 19 38 64 58 55 71 31  0  8 60 50 86 35 18 71  7 77  7  5 39 39 23 82 69 82 38 52 85 47 21 56 44 24 85 86 73 58 95 12 49 38 24 54 58 79 42 98 44 15 12 74 19 82 11 70  5 64  2  3 28 43 40 77 88 74 12 12 17 44  1 21 54 46 68 14 55 74 41 40 88 68 67 67  7 12
 90  1 27 98 59 55 62 79 86 53 92  7  3 91 52 77  8 63 62 21 32  3  8  0 74 46  2 95 36 46 67 66 66 32  7 29 92 40 12 79 19 28 26 17 41 86 30 40 26 50 98 79 43 90 21 71 83 42 46 71 98 12 13  5 70  0 41 59 51 82 30 62 87 79 44 53 11 15  2 89 84 23  3 32 59 69 19 43  1 52 20 17 98 58 16 28 42 18 16 48
 76  0 17  3 21 78 10 99 76  0  4 18 93 89 84 36 27 48 53 25 49 17 60 74  0 70 24 21 84 49 45 59 31 63 53 62 19 70 11  0 74 72 78 48 77 16 60 46 67 45 67 34 54 25 31 75 55 87 52 77 77 93 65 20 35  0 14 51 94  9 60  7 78 39 28 19 50 36 67 23 63 14  9 20 14 18 92 62 68 14 94 94 54 45 51 57 27 26 51 41
 11 13 94 99 71 12 37 22 40 84 21 71 12 93  0 67 21  9 98 88  6 42 50 46 70  0 95 94 34 25 42 31 25 13 75  5 85 31 92 70 62 72 10 38 53 78 39 55 59 24 54 78 77 52 38 50 64 67 14 24 73 71 17 93 74 29 86 50 11  6 80 96  9 95 17 98 28 12 64 55 81 37  3 40 98 21  7 30 41 24 91 95 83 38 93 62 87 26 32 58
 89 55 66 52 49 89 67 61 74 31 26 21 75 61 90 31 26 91 38 58 60 41 86  2 24 95  0 26 42 33 38  9 94 74 11 14  3 82 73 61 36 86 20 24 97 19 57 44 67 87 94 32 25 11 32 68 79 91 93 25 34 30  4 82 24 62 60 48 27 67 46 36 53 66 16 44  1  2 41 85  4  9 20 52  9 62 10 76 25 28  1 22  8 46 45 57 28 81 90  7
 37 46 86 20 35  1 37 25 92 52 23  9 35 15  5 28 23 26 74 39 36 83 35 95 21 94 26  0 12 10 35 29 59 19  6  5 85 71 79 11  4 61  8 38 14 77 80 78 49  3 96 57 76 25 31 28 41 90 48 27 38 21  4 88 52 57 17 41 44  3 66 19 73 64 35 28  8 45 69 93 19 96 75 83  1 64 26 51 49 29 74 84 53 82 51 43 50  5 46  4
 34 31 23 33 87 16 74 51 93 50 58 26 58 49 17 42 69 33 32 90 56 61 18 36 84 34 42 12  0 33 43 25  6 60 77 40 84  3 75 82 11 11  2 24 33 21 40 58 30 26 83 99 11  3 10 90 17 93 20 19 90 50 56 24 67 95 42 82 75 46 76 22 40 18 60 54 35 71  6 82  3 42 30 62 11 81 87 90 59 89 88 87 10 95 14 73 51 80 39 85
 91 25 58 53  7 97  8 72 49  6 92 69 69 72  9 69 91 41  7 17 60 26 71 46 49 25 33 10 33  0 45 37 35 76 15 68 49 89 55 56 37 83 69 93 96  7 72 64 54 18 72 92 15 96 18 58 17 28  1 56 57  7 27 49 48  7 45 90 37 32 91 81 73  1 24 56 81 67 28 35 42  0 59 61 39 85 37 43  0 75  5 61 53 43 45  2 39 39 45 92
 69 59 13 63 24 41 65 89  3 54 69 78  8 57  3 74 18  2 85 32 89 75  7 67 45 42 38 35 43 45  0 57 76 39 44 72 81 89 96 35 23 42  0 54 64 54 38  9 83 60 94 78 81 32 57 96  0 17 91 40 96 45 94 68 98 40 76  8 22 13 52  3 11 37  5  5 32 63 59 41 89 91 63 18  8 20 24 42 33 29 51 59 21 67 88 28 45  0 77 64
 54 79 64 17 75 11 15 74 12  9 26 90 79 68 40  8 33 10 41  9 40 51 77 66 59 31  9 29 25 37 57  0 84 60  6 10 72 92 18 50  7 21 59 58 17 22  9 60 30 54 86 75 26 53 73 78 17 35 94 28 27 37 11 67 51  9 64  8 37 16 33 55 40  7 32 60 13 77 69  5 28 28 72 14  4 88 62 92 49  3 89 88 69 65 41 74 71 34 30 50
 48 44 66 45 73 47 37 59 24 43 33 22 28 14 20 23 18 54 41 58 36 58  7 66 31 25 94 59  6 35 76 84  0 52 73 81 88 91 57 30 79 65 95 76 16 71  3 26 66 44 24  5 86 45 53 76 31 93 32 43 27 37 65 39 99 20 29 85 50 53 13 52  0 62 63 95 44  0 95 32 11 37 38 67 58 24  1 54 90 43 28 93 93 89 15 68 28 66 99 11
 56  0  8 28 80 46 84 27 62 58 78  5 45 92 32 14 58 26 21 92  2 17  5 32 63 13 74 19 60 76 39 60 52  0 44 81 24 39 14 28 35 71 30 69 39 82  4 11 60 65 79 38 20  7 65 37  0 94 32 93 96 80 61 47 12 76 39 24 10  4 17 32 64 64 86 41  3 79 90 20 20 99 53 76 67 84 74 95 69 73 62 89 50 56 63 25 40 71 26 44
 84 11 75 43  5 16 49 94 20 49 26 22 26 31 82 40 53 30 43 14  8  0 39  7 53 75 11  6 77 15 44  6 73 44  0 64 83 23 66 71 57  0  1 79 82 69 14 81 14  6 55 24 90 42 34 84 26 84 97 97 47 99  6 16 76 33 61 33 63 98 79 12 25 18 70 94 72 26 99 89  8 43 11 70 58 96 79  6 94 57  3 32 55  4  5 55 64 70 14 93
 21 75 28 41  5 43 61 95 45 92 75 27 71 15 28 65 94  8 33 77 75 61 39 29 62  5 14  5 40 68 72 10 81 81 64  0 85 51  7 89  7 41 53 45  0 14 13 44 35 27  4 93  1 99 62 76 29 14 93 45 99 71 72 53 37 84 31 92 60  3 55 16 39 30 76  7 29 89 44 33 10 15 68 65 22  0 88 16 80 29 36 55 99 74 36 90 18 54 95  2
 51 78 61 80 33 15 39 17 16 25 18 98 89 56 30 40 80 14 80 30 80 67 23 92 19 85  3 85 84 49 81 72 88 24 83 85  0 45 88 11 81 84 42 86 42 50 79 32 74 61 31 19 26 36 36  0  3 63 73 32 67 72  7 78 63 98 60 89 48  1 78 79 52 59 15 90  2 76 74 21 29 89 60 38 14 69 57  8 12 71  1 34 48 65 94 96 47 34 34 84
 42 98 59  4 79 91 97 73 16 25 60 56 20 41  6 36 85 88 15 85 95 55 82 40 70 31 82 71  3 89 89 92 91 39 23 51 45  0  2 60 34 69 57  7 74 12 37 87 71 89 56 70  2 43 13 25 83 25 65 47 94 75 29  0 71 46 87 78 76 75 55 94 98 62 83 18 78 53 78 29  7 37 97 61  9 36 15 78 96  8 91 45 52 79 44 97 10 44 24 85
 50 42 91 30  9 94 88 39 29 70 82 96 78 31 34 27 38 55 37 85 58 72 69 12 11 92 73 79 75 55 96 18 57 14 66  7 88  2  0 75 65 48 95 60 18 46 84 12 10 18 98  1 85 44  7 73 18 68 11 73 85 22 52 16 88  7 25 41 58 62  6  1 43 37 23 75 85 61 32 90 61 87 50 24 72 93 28 90 94 58 64  1 15 34 52 39 81 26 85  3
 61 53 85 18 92 73 29 60 32 35 14 85  3 84 83 25 59 49 94 99 98 16 82 79  0 70 61 11 82 56 35 50 30 28 71 89 11 60 75  0  3  9 63 96 55 71 65 94  6 14 10 99 36 49 55 68 21 56 66 63 96 73  3 41 39 29 93 35 24 87  2  0 57 85 32 71 57 55 64 42 47 69 96 35 82 53 64 10 61 35 53 87 88  9 31 38 24 24 90  6
 61 66 33  8 65 88 33 68 67 13 18 60 16  1 69 97 35 56 33  7 20 11 38 19 74 62 36  4 11 37 23  7 79 35 57  7 81 34 65  3  0 10 48  1 75 17 31 38  8 83 68 67 27 88 23 91 71  2 25 40 96 51 23 20 56 69 51 50 50 20 18 63 91 10  5 30 63 35 38 57 46 55 64 58  3  9 11 62 42 48 53 87 28  1 17 75 38 77 68 14
  9 23 86 92 25 11 32 75 23 30  4 34 97 39 52 34 74 28 19 91  4 87 52 28 72 72 86 61 11 83 42 21 65 71  0 41 84 69 48  9 10  0 78 68 36 21 40 92 66 23 87 91 30 36 15 42 47 94 13 94 33 71 35 87 51 40 70 94 99 10 97 44 76 69 91 38 24 87  6 65 54 86 49  2 48 44 93 36 82 30 58 77 32 35  2 58 10 98  5 43
 87 35 13 98 72 57 20 36 54 38 16 42 49 39  0  9 35  4 57 44 32 20 85 26 78 10 20  8  2 69  0 59 95 30  1 53 42 57 95 63 48 78  0 62 24 94 79 93 68 75 36 43 33 38 76 61 74 27 78 42 98 83 91 26  5 82 60 44 42 76 99 66 11 34 52  7 40 62 24 23 29  0 73 26 16 91 32 10 99  1 59 90 35 62 14  2 83 87 37 37
 99  7 73 43 41 25  7 13 57 35 71 73 16 79 81 93 83 42 46 54 12 38 47 17 48 38 24 38 24 93 54 58 76 69 79 45 86  7 60 96  1 68 62  0 86 67 23 19 97 77 65 67  6 23 67  7 77 70 85 29 49  2 94 76 95 47  3 36 81 56 61  5 97  4 26 94 46 92 45 51  7 10  6 53 71 56 85 22 87 65 22 28 99 25 98 55 79 82 32 68
 39 50 42 50 18 23 94 64 14 52 39 30 53 85 25 88 50 93 61 75 15 23 21 41 77 53 97 14 33 96 64 17 16 39 82  0 42 74 18 55 75 36 24 86  0 46 74 25 61 95 55 10 41 71 13  7 98 90 35 75 69 25 23 54 98 86 29 92 93 66 46  2 40 41 47 89 28 38 80 47 57 74 38 59  4 26 92 75 94 17 40 37 58 56 19  1 39 91 81 33
 91 86  0  7  6 55  9  6 89 66  5 10 52 34 45 67 26  0 39 17 42 27 56 86 16 78 19 77 21  7 54 22 71 82 69 14 50 12 46 71 17 21 94 67 46  0 14 88 22 36 64 79 23 65  4 14 51  1 81 11 39 59 31 15 86 78 41 42 94  0 93 21 93 61 52 29 33 27 29 53 77 23 47 38 65 40 45 23 22 68 49 93 22 64 81 94 97 53 82 10
 63 92  6 30 40  0 73 20 49 40 79 59 73 29 61 19 44 81 74 59  7 31 44 30 60 39 57 80 40 72 38  9  3  4 14 13 79 37 84 65 31 40 79 23 74 14  0 91 23 32 26 22 11 22 33 87 58  1 38 84 61  9 10 93 57 81  9 39 62 49 90 34 11 81 50 21 38 26 11 72 17 84 42 76 12 82 35 33 76 18 94 93 63 82 60  7 66 55 40 10
 62 99 12 14 33 67 85  7 52 30 23 57 43  9 70 17 60 77 94 86 83 86 24 40 46 55 44 78 58 64  9 60 26 11 81 44 32 87 12 94 38 92 93 19 25 88 91  0 11 19 61 71 51 62 85 66 67 68 17  9  0 92 66 22 95 59 79 24 42 50 69 26 33 76 11 19 12 63  6 60 75 75 63 87 93 72  4 17 75 20 30 99 18 70 55 10 78 65 92 56
 52  7 94 47 64  2 81  4 62 68 16 88  7 42 63 15 74 69  8 44 54 18 85 26 67 59 67 49 30 54 83 30 66 60 14 35 74 71 10  6  8 66 68 97 61 22 23 11  0 91 56  0 16 60 50  2 72 72 20  1 35 41 58 11 31 72 38 99  8 67 26 21 60 28 65 82 51 72 81 61 35  9 61 10 45 41 31 39 43 95  9 96 54 66 85 75 58  9 64  8
 32 56 80 30  4  0 61  7 54 56 99 38 75 77 28 98 73 51 62 89 37 85 86 50 45 24 87  3 26 18 60 54 44 65  6 27 61 89 18 14 83 23 75 77 95 36 32 19 91  0 22 55 34 98 82 64 67 48 98 35 50 18 68 23 35  7  8 69 73 49 29 36  9  8  0 19 77 62 27 77 33 96 88 19 25  3 30 40 17 36 98 23 69 66 14 96 28 73 39 15
 15 97 52 80 24 71 99 58 48 59 25 42 18 69  2 24 50 27 86 10 51 90 73 98 67 54 94 96 83 72 94 86 24 79 55  4 31 56 98 10 68 87 36 65 55 64 26 61 56 22  0 72 92  8  9 44 31  9 46 83 63 58 77 26 88 78 79 37 12 38 75 60 58  1 70  8 91 32  4 51 29 19 25 53 91 39 52 54  8 32 31 16 77 30 37 78 67 31 16  6
 57 28 20 83 89 75 67 59 98 51  0 29 90 47 38 98 52 27 12 53  5 77 58 79 34 78 32 57 99 92 78 75  5 38 24 93 19 70  1 99 67 91 43 67 10 79 22 71  0 55 72  0 18 18 61  2 99 94 62 23  1 99  6 93  0 26 19 97 80 22 75 15 20 46 68 40 54 58 24 60 58 51 80 32 63 13 66  2 31 78 55 26 79 92 57 90 67 72 56 55
 39 93 22 19 95 19 61 85 88 17 99 77 94 83  2 82 19 76 78 37 73  3 95 43 54 77 25 76 11 15 81 26 86 20 90  1 26  2 85 36 27 30 33  6 41 23 11 51 16 34 92 18  0 18 46 86 25 96 45  3 16  8 60 23 54 41 29 78 43 80 43  6 27 23 54 65 89 63 37 65 82 46 76 47 56  1 77 45 69 18 70 97 60 61 14 16 81 44 16 36
 80  5 55 83 57 59 10 35 49 57 96 84 77  7 30 34 21 41 45 41  6 85 12 90 25 52 11 25  3 96 32 53 45  7 42 99 36 43 44 49 88 36 38 23 71 65 22 62 60 98  8 18 18  0 50 22 66 33 45 41 22 55 58 80 17 17 67 22 41 98 47 85 28 80 42 93 27 98 72  4  5 88 35 19 23 77 20  7 35 49 86 50 60 25  6 10 75 32 74 68
 75  7 68 69 83 87  3 84 92 36 86 57 80 26 96  8 33 53 82 64 21 81 49 21 31 38 32 31 10 18 57 73 53 65 34 62 36 13  7 55 23 15 76 67 13  4 33 85 50 82  9 61 46 50  0  9  1 53 58 81 13  8  9 48 90 89  2 19 23 66 90 18 72 58 94 84 58 42 81 37 62 85 85 84 71 30 39 40 40 40  5 63 56 62 75 56 21 89 28 32
  8 86 22 48 27 26 69 97 64 91  9 58 19 11 47 23 88 45 51 98 55  8 38 71 75 50 68 28 90 58 96 78 76 37 84 76  0 25 73 68 91 42 61  7  7 14 87 66  2 64 44  2 86 22  9  0 45 96 51 43 59 87 45 85 84 54 74 18 82 18 57  5 84 81  1 16 75 52 13  0 43 85 72 78 91 51  0 45  2 26 14 21 18  7 19 31  5 10 27 71
 56 79 49 93 34 47 30 93 96 21 92 44 47 73 12  8  7 48 12 83 87 52 24 83 55 64 79 41 17 17  0 17 31  0 26 29  3 83 18 21 71 47 74 77 98 51 58 67 72 67 31 99 25 66  1 45  0  3 72 15 63 85 92 57 90 48 75 15 64 44  9 77 79 92 18 70 21 21 78  5 86 93 45 56 80 96 94  4 28 49 52 49 30 65 29 10 13 44 31 30
 84 62 90 38 74 72 48 59 92 21 93 71 89 28 99 75  3 15 69 35 81 67 54 42 87 67 91 90 93 28 17 35 93 94 84 14 63 25 68 56  2 94 27 70 90  1  1 68 72 48  9 94 96 33 53 96  3  0  5 95 95 21 22 54 62 54 86 67 91 43 65 61 79 87 11 97 60 14  3 69 81 63 27 93 86 81  8 80 82 16 29 51 74 54 91 16  9 83 15 60
 87 80 38 12  4 88  8 99  4 81 54 86 30 12 42 41 45 42 39 61 92 77 58 46 52 14 93 48 20  1 91 94 32 32 97 93 73 65 11 66 25 13 78 85 35 81 38 17 20 98 46 62 45 45 58 51 72  5  0 65 28  6 31 86 46 55 65 79 49 76 18 56 74 71 24 64 62 72 91 91 42 91  6 63 71 30 30 70 80 45 84 38 30 60 71  5 15 22 20 64
 42 27 33 88  5 48 41 28 70 91 57 83  4 71 55 45 11 65 60 18 22 45 79 71 77 24 25 27 19 56 40 28 43 93 97 45 32 47 73 63 40 94 42 29 75 11 84  9  1 35 83 23  3 41 81 43 15 95 65  0 34 61 23 85 62  8 49 85 94 56 95 24 72 78 19 66 59 66 97 19 70 51  3 41 93 73 97 67 81 47 20 12 22 20 92 12  3 30 11 91
 53 94 66 74  8 58 21 94 30 28 51  2 19 19 49 53  3 41  4 35 63  6 42 98 77 73 34 38 90 57 96 27 27 96 47 99 67 94 85 96 96 33 98 49 69 39 61  0 35 50 63  1 16 22 13 59 63 95 28 34  0 33 34  0 18  1  8  7 75 27  1 53 36 95 45 82 19 37 38 23 73 24 52 55 35 40 27 85 64 62 62 21 26 47 51 17 12 16 56 90
 28  4 81 63  2 73 33 40 26 69 31 13 45 64 40 21 12 77 47 86 82 20 98 12 93 71 30 21 50  7 45 37 37 80 99 71 72 75 22 73 51 71 83  2 25 59  9 92 41 18 58 99  8 55  8 87 85 21  6 61 33  0 97 35 29 16 76 63 81  7 15 57  4 12 92 75 32 44 32 70 78 47 67 74 11 54 87 31 80 68 98 64 62 64 47 68 27 89 37 68
 74 63 27 96  1 86 83 50 10 17 74 91 71 56 80 97 75 35 80 70 96 25 44 13 65 17  4  4 56 27 94 11 65 61  6 72  7 29 52  3 23 35 91 94 23 31 10 66 58 68 77  6 60 58  9 45 92 22 31 23 34 97  0 58 56 30 40 62 80 84 21 14 57 96 80 64  4 46  6 83 67 82 37 51  9 53 80 26  8 72 32 54 52 31 48 45 94 18 84 49
 23 25 47 95 35 48 54 86 77  3 75 26  9 43 74 52 72 56 43 53 91  0 15  5 20 93 82 88 24 49 68 67 39 47 16 53 78  0 16 41 20 87 26 76 54 15 93 22 11 23 26 93 23 80 48 85 57 54 86 85  0 35 58  0 32  3 84  6 87 39 43  7 21 20 52 34  9 61 40 16 58 16 61 92 46 97 31 20 63 70 28  1 28 90  2 55 65 29 91 20
 83 41 46 21 40 94  2 97 56 50 27 16 97 79 17 87 65 15 33 30 89 92 12 70 35 74 24 52 67 48 98 51 99 12 76 37 63 71 88 39 56 51  5 95 98 86 57 95 31 35 88  0 54 17 90 84 90 62 46 62 18 29 56 32  0  1 10 89  6 27 17 28 66 42 23  4 45 64 87 13 40 51 83 23 87 99 86 88  8 64 49 56 86 43 33 26  2 14  9  9
 64 28 67 41 48 14  7 11  3 18 86 12 44 25  9 88  3 80  1 62 60 83 74  0  0 29 62 57 95  7 40  9 20 76 33 84 98 46  7 29 69 40 82 47 86 78 81 59 72  7 78 26 41 17 89 54 48 54 55  8  1 16 30  3  1  0 51 41 68 67 11 18 96 14 27 23 22 30 53 15 98 13 79 61 73 32 58  8 41 44  8 26  2 90 47 87 87 80 48  2
 74 83 48 25 49 95 75 91 73 31  3 20 85 42 33 97 77 82 87 92  6 43 19 41 14 86 60 17 42 45 76 64 29 39 61 31 60 87 25 93 51 70 60  3 29 41  9 79 38  8 79 19 29 67  2 74 75 86 65 49  8 76 40 84 10 51  0  1 90  5 16 59 38 52 28 62 76 44 16 60 74 60 36 52  2 71 14 70 54 54 51 34 78 58 51 34 62 31 82 59
 39 40 92 33 14 40 29 12 96 21 24 82 40 43 67 79  5 98 68 71 81  2 82 59 51 50 48 41 82 90  8  8 85 24 33 92 89 78 41 35 50 94 44 36 92 42 39 24 99 69 37 97 78 22 19 18 15 67 79 85  7 63 62  6 89 41  1  0 10 17 50  5  9 11 59 29 98 78 69 64 58 59 27 81 93 34 54 81 12 32 44 52  6 57 80 60 87 10 20 37
 86 44 78 68 17 94 56  6 73 34  7 91 68 27 64 65 17 97 28 81 60  2 11 51 94 11 27 44 75 37 22 37 50 10 63 60 48 76 58 24 50 99 42 81 93 94 62 42  8 73 12 80 43 41 23 82 64 91 49 94 75 81 80 87  6 68 90 10  0 87 77 58 68 56  1 18 21 98 92 46 36 89 84 29 64 36 45 74 53 36 41 91 10  0 59 86 19 97 72 44
 56 18 84  8 64 15 65 95 66 92 41 10 61 70 51 92 75 12 83 20 94 51 70 82  9  6 67  3 46 32 13 16 53  4 98  3  1 75 62 87 20 10 76 56 66  0 49 50 67 49 38 22 80 98 66 18 44 43 76 56 27  7 84 39 27 67  5 17 87  0 11 91 48 94 11 27 13 65 13 94 15 56 43 77 43 27 17 25 29 28 84 54 25 57 11 42 81 99 22 35
 52  0 93 81 54 71 89 19 52 14 58 88 76 63  6 50 66 35 30 83 38  4  5 30 60 80 46 66 76 91 52 33 13 17 79 55 78 55  6  2 18 97 99 61 46 93 90 69 26 29 75 75 43 47 90 57  9 65 18 95  1 15 21 43 17 11 16 50 77 11  0 94 35 81 84 41 48 67 53 77 11 38 84 79 16 62 51 44 77 89 23 49 68 91 17 20 88 61 67 34
 95  2 38 27  0 30 60 69 38 37 93 99 60 57 88 76 57 84 34 51 48 38 64 62  7 96 36 19 22 81  3 55 52 32 12 16 79 94  1  0 63 44 66  5  2 21 34 26 21 36 60 15  6 85 18  5 77 61 56 24 53 57 14  7 28 18 59  5 58 91 94  0 26 57 94 60  4  9 48  9 77 21 45 49 44 60 66 26 79 47  1 13 10 90 97 86  3 51 74 99
 88 24 42 60 79 60 90 44 77 51 79  7 65 53 67 13 17 70 41 85 71 37  2 87 78  9 53 73 40 73 11 40  0 64 25 39 52 98 43 57 91 76 11 97 40 93 11 33 60  9 58 20 27 28 72 84 79 79 74 72 36  4 57 21 66 96 38  9 68 48 35 26  0 49 67 68 70 62 32 25 90 85 44 48 52  9 43 44 69 29 51 74 47  1 84 17 60 10 43 59
 41 49  0 69  9 46 84 43 98 58 65  5 91 84 21 78 25 26 39 93 92 43  3 79 39 95 66 64 18  1 37  7 62 64 18 30 59 62 37 85 10 69 34  4 41 61 81 76 28  8  1 46 23 80 58 81 92 87 71 78 95 12 96 20 42 14 52 11 56 94 81 57 49  0 67 27 59 34 55 32 18 17  2 92  9 94 88 43 63 15 76 10 11 46 81 13 62  1 79 58
 59  0 65 37 36 31 74 28 23 38 64 71 63 44 98 34 65 36 85 75 57 66 28 44 28 17 16 35 60 24  5 32 63 86 70 76 15 83 23 32  5 91 52 26 47 52 50 11 65  0 70 68 54 42 94  1 18 11 24 19 45 92 80 52 23 27 28 59  1 11 84 94 67 67  0 20 96 19 32 46 28 91 46 14 22 36 16 23 88 27 37 27 56 83 88 91 28 28  0 42
 87 25 87 57 77 33 16 31 62 61 10 53 67  5 99 82 47 59 33 73 48 30 43 53 19 98 44 28 54 56  5 60 95 41 94  7 90 18 75 71 30 38  7 94 89 29 21 19 82 19  8 40 65 93 84 16 70 97 64 66 82 75 64 34  4 23 62 29 18 27 41 60 68 27 20  0 74 14 51  3 36 61 65 24 54 70 17 81 21  2 48 73 82 18 84 83 60 61  8 59
 85 14 77 35 80 69  1 94 28 92  5  1 25 77 82 21 34 41 36 60 81  7 40 11 50 28  1  8 35 81 32 13 44  3 72 29  2 78 85 57 63 24 40 46 28 33 38 12 51 77 91 54 89 27 58 75 21 60 62 59 19 32  4  9 45 22 76 98 21 13 48  4 70 59 96 74  0 27 61 80 53 86 77 19 67 51 16 80 10 91 61 54  1 98 79 23 25 57 37 80
 58 85 55 79 78 31 18 84 28 62 99  1 56 39 58 79  6 57  8 14 46 78 77 15 36 12  2 45 71 67 63 77  0 79 26 89 76 53 61 55 35 87 62 92 38 27 26 63 72 62 32 58 63 98 42 52 21 14 72 66 37 44 46 61 64 30 44 78 98 65 67  9 62 34 19 14 27  0 49 49 19 13 59 36  4 45 62 98  3 38 90 54 41  6 98 75 23 57 31 55
 39 46  8 96 83  0 70 60  1 56 63 91 21 94 79 59 13 15 96 87  1 41 88  2 67 64 41 69  6 28 59 69 95 90 99 44 74 78 32 64 38  6 24 45 80 29 11  6 81 27  4 24 37 72 81 13 78  3 91 97 38 32  6 40 87 53 16 69 92 13 53 48 32 55 32 51 61 49  0  7 52 63 97 95 55 18 91 62 28 56 84 65 90 43 61 38 82 95 94 58
 48 15 42 74 93  0 26 48 29 14 73  8 66 72 30 69 10 10 83 28 91 85 74 89 23 55 85 93 82 35 41  5 32 20 89 33 21 29 90 42 57 65 23 51 47 53 72 60 61 77 51 60 65  4 37  0  5 69 91 19 23 70 83 16 13 15 60 64 46 94 77  9 25 32 46  3 80 49  7  0 64 40 35 25 98 38  4 87 87 30 30 73 51 29 28 24 43 64 85 92
 40 23 84 46 20 80 55 48 86 48 60 32 70 93 65 50 80 33 86 61 12 92 12 84 63 81  4 19  3 42 89 28 11 20  8 10 29  7 61 47 46 54 29  7 57 77 17 75 35 33 29 58 82  5 62 43 86 81 42 70 73 78 67 58 40 98 74 58 36 15 11 77 90 18 28 36 53 19 52 64  0 22 25  1 36 94 52 72 79 58 91 13 31 42 29 92 63 71 16 37
 34 98 73 94 85 18 90 65 27 91 96 97 29 80 95 66 28  0 35 77 94 88 12 23 14 37  9 96 42  0 91 28 37 99 43 15 89 37 87 69 55 86  0 10 74 23 84 75  9 96 19 51 46 88 85 85 93 63 91 51 24 47 82 16 51 13 60 59 89 56 38 21 85 17 91 61 86 13 63 40 22  0 91 61  9  9 72 29 27 63 61 42 80 92 38 99 46 19 84 31
 54 22 66  5 64 57 10 84  9 65 74 26 56 34 37 21 43 58  4 10 43 28 17  3  9  3 20 75 30 59 63 72 38 53 11 68 60 97 50 96 64 49 73  6 38 47 42 63 61 88 25 80 76 35 85 72 45 27  6  3 52 67 37 61 83 79 36 27 84 43 84 45 44  2 46 65 77 59 97 35 25 91  0 66 85 79 83  2 43 34 79 50 28 39 63 40 27 70 26  3
 62 32 38 19 46 98 17 52 55 59 66 16 66 31 19  8 76 95 93 40  5 63 44 32 20 40 52 83 62 61 18 14 67 76 70 65 38 61 24 35 58  2 26 53 59 38 76 87 10 19 53 32 47 19 84 78 56 93 63 41 55 74 51 92 23 61 52 81 29 77 79 49 48 92 14 24 19 36 95 25  1 61 66  0 60 55 92 54 48 81 19  7 36 32 79 83 51 61 92 30
 89 94 83 19 34 37 41  8 51 90 76 97 29 59 82 40 33 48 74 62 46 96  1 59 14 98  9  1 11 39  8  4 58 67 58 22 14  9 72 82  3 48 16 71  4 65 12 93 45 25 91 63 56 23 71 91 80 86 71 93 35 11  9 46 87 73  2 93 64 43 16 44 52  9 22 54 67  4 55 98 36  9 85 60  0 50  5 75 80 34 33 21 62 90 65  7 56 13 18 28
 93 28 57 51  2 30 64 57  3 38 18 96 63 30 38 23 67 90 11 92 45 49 21 69 18 21 62 64 81 85 20 88 24 84 96  0 69 36 93 53  9 44 91 56 26 40 82 72 41  3 39 13  1 77 30 51 96 81 30 73 40 54 53 97 99 32 71 34 36 27 62 60  9 94 36 70 51 45 18 38 94  9 79 55 50  0 17  5 49 78 76 64 96 12  8 16 18 51  0 53
 11 79 97 85 52 51 73  1 88  2 36  0 77 85 18 24 83 78 39 20 51 11 54 19 92  7 10 26 87 37 24 62  1 74 79 88 57 15 28 64 11 93 32 85 92 45 35  4 31 30 52 66 77 20 39  0 94  8 30 97 27 87 80 31 86 58 14 54 45 17 51 66 43 88 16 17 16 62 91  4 52 72 83 92  5 17  0 86 90 25 15 38 50  3 17 34 65  4 47  5
 19 70 52 92 59 66 95 22 76 51 50 29 27 52 73 67 62  2 95  6 73 14 46 43 62 30 76 51 90 43 42 92 54 95  6 16  8 78 90 10 62 36 10 22 75 23 33 17 39 40 54  2 45  7 40 45  4 80 70 67 85 31 26 20 88  8 70 81 74 25 44 26 44 43 23 81 80 98 62 87 72 29  2 54 75  5 86  0 33 21 11 77 87 23 87  9 45 15 10 73
 85 19 77 43  6 38 21  5 76 54 58  4 73  6  3 58 28 69 80 71 49 11 68  1 68 41 25 49 59  0 33 49 90 69 94 80 12 96 94 61 42 82 99 87 94 22 76 75 43 17  8 31 69 35 40  2 28 82 80 81 64 80  8 63  8 41 54 12 53 29 77 79 69 63 88 21 10  3 28 87 79 27 43 48 80 49 90 33  0 24 16 68 13 92 93 30 94 52 48 31
 26 54 12 75 65 62 52 77 47 60 74 78 63 99 53 68 86 99  5 61 30 32 14 52 14 24 28 29 89 75 29  3 43 73 57 29 71  8 58 35 48 30  1 65 17 68 18 20 95 36 32 78 18 49 40 26 49 16 45 47 62 68 72 70 64 44 54 32 36 28 89 47 29 15 27  2 91 38 56 30 58 63 34 81 34 78 25 21 24  0 60 29  5 33 32 41 87 55 12 38
  0 96 11 70 57 72 32 97 15 79 45 58 19 19 33 24 73 41 92 81 58  6 55 20 94 91  1 74 88  5 51 89 28 62  3 36  1 91 64 53 53 58 59 22 40 49 94 30  9 98 31 55 70 86  5 14 52 29 84 20 62 98 32 28 49  8 51 44 41 84 23  1 51 76 37 48 61 90 84 30 91 61 79 19 33 76 15 11 16 60  0 19  8 57 83  1 84 23 83 15
 18 79  1 69 23 69  4 13  2 63 40 19 67 95 90 61  6 73 13 64 18  3 74 17 94 95 22 84 87 61 59 88 93 89 32 55 34 45  1 87 87 77 90 28 37 93 93 99 96 23 16 26 97 50 63 21 49 51 38 12 21 64 54  1 56 26 34 52 91 54 49 13 74 10 27 73 54 54 65 73 13 42 50  7 21 64 38 77 68 29 19  0 87 21 51 26 87 87 33 99
 60 67 65 35 54 77 94 71 37 68 74 42 71 20 28 55 34 27 83 65 35 58 41 98 54 83  8 53 10 53 21 69 93 50 55 99 48 52 15 88 28 32 35 99 58 22 63 18 54 69 77 79 60 60 56 18 30 74 30 22 26 62 52 28 86  2 78  6 10 25 68 10 47 11 56 82  1 41 90 51 31 80 28 36 62 96 50 87 13  5  8 87  0 37 13 59 12 17 33 31
 86 92 93 30 25 40 12 28 90 51 39 96 49 62 75 24 17 99 48 98 54 26 40 58 45 38 46 82 95 43 67 65 89 56  4 74 65 79 34  9  1 35 62 25 56 64 82 70 66 66 30 92 61 25 62  7 65 54 60 20 47 64 31 90 43 90 58 57  0 57 91 90  1 46 83 18 98  6 43 29 42 92 39 32 90 12  3 23 92 33 57 21 37  0 17  8  0 65 57 90
 39 19 39 76 39  9 41 95 73 51 43 96 11 72 74 42 22 12 36 90 75  6 88 16 51 93 45 51 14 45 88 41 15 63  5 36 94 44 52 31 17  2 14 98 19 81 60 55 85 14 37 57 14  6 75 19 29 91 71 92 51 47 48  2 33 47 51 80 59 11 17 97 84 81 88 84 79 98 61 28 29 38 63 79 65  8 17 87 93 32 83 51 13 17  0 61 90 60 39 38
 90 40  0 63 89 46 85 30 17  5 65 75 53 97 59 41 10 58 37 23  6  6 68 28 57 62 57 43 73  2 28 74 68 25 55 90 96 97 39 38 75 58  2 55  1 94  7 10 75 96 78 90 16 10 56 31 10 16  5 12 17 68 45 55 26 87 34 60 86 42 20 86 17 13 91 83 23 75 38 24 92 99 40 83  7 16 34  9 30 41  1 26 59  8 61  0 25 15 89  4
 28 27 35 89 94 94 75 32 57 43 60 89 68 49 64 28  2 47 43 85  4 54 67 42 27 87 28 50 51 39 45 71 28 40 64 18 47 10 81 24 38 10 83 79 39 97 66 78 58 28 67 67 81 75 21  5 13  9 15  3 12 27 94 65  2 87 62 87 19 81 88  3 60 62 28 60 25 23 82 43 63 46 27 51 56 18 65 45 94 87 84 87 12  0 90 25  0 80 15 28
 50  3 42 45 51 25 37 52 37 99  3 66 34 77 66 53 77  7 89 29 82 30 67 18 26 26 81  5 80 39  0 34 66 71 70 54 34 44 26 24 77 98 87 82 91 53 55 65  9 73 31 72 44 32 89 10 44 83 22 30 16 89 18 29 14 80 31 10 97 99 61 51 10  1 28 61 57 57 95 64 71 19 70 61 13 51  4 15 52 55 23 87 17 65 60 15 80  0 57 98
 53 42  9 24 74 65 12 70 32 92  0  8 26 83 70 97 95 92 94 50 19 94  7 16 51 32 90 46 39 45 77 30 99 26 14 95 34 24 85 90 68  5 37 32 81 82 40 92 64 39 16 56 16 74 28 27 31 15 20 11 56 37 84 91  9 48 82 20 72 22 67 74 43 79  0  8 37 31 94 85 16 84 26 92 18  0 47 10 48 12 83 33 33 57 39 89 15 57  0 90
 43  4 18 88 53 17 10 11 14 27 40 58 80 73 90 55  2 87 32 92 30 24 12 48 41 58  7  4 85 92 64 50 11 44 93  2 84 85  3  6 14 43 37 68 33 10 10 56  8 15  6 55 36 68 32 71 30 60 64 91 90 68 49 20  9  2 59 37 44 35 34 99 59 58 42 59 80 55 58 92 37 31  3 30 28 53  5 73 31 38 15 99 31 90 38  4 28 98 90  0
