GENERACION: 1
Mejor Solucion:  107 53 148 11 43 72 136 93 129 13 22 91 67 15 19 118 95 12 81 30 1 23 125 55 59 77 71 60 133 94 47 113 6 5 135 8 79 132 110 16 29 46 39 40 21 115 124 96 98 64 65 119 44 88 62 130 100 50 35 138 48 137 10 45 36 102 56 32 38 3 7 111 33 145 26 134 139 106 85 90 86 14 20 84 18 140 127 73 126 82 123 78 37 128 49 61 27 41 54 117 74 109 69 4 34 83 52 114 116 28 42 51 99 89 131 87 146 2 105 144 58 75 68 108 63 103 122 31 112 66 0 104 143 149 121 101 141 80 142 92 147 9 120 25 24 97 57 76 17 70
Coste: 9715542

GENERACION: 2
Mejor Solucion:  107 53 148 11 43 72 136 93 129 13 22 91 67 15 19 118 95 12 81 30 1 23 125 55 59 77 71 60 133 94 47 113 6 5 135 8 79 132 110 16 29 46 39 40 21 115 124 96 98 64 65 119 44 88 62 130 100 50 35 138 48 137 10 45 36 102 56 32 38 3 7 111 33 145 26 134 139 106 85 90 86 14 20 84 18 140 127 73 126 82 123 78 37 128 49 61 27 41 54 117 74 109 69 4 34 83 52 114 116 28 42 51 99 89 131 87 146 2 105 144 58 75 68 108 63 103 122 31 112 66 0 104 143 149 121 101 141 80 142 92 147 9 120 25 24 97 57 76 17 70
Coste: 9715542

GENERACION: 3
Mejor Solucion:  107 53 148 11 43 72 136 93 129 13 22 91 67 15 19 118 95 12 81 30 1 23 125 55 59 77 71 60 133 94 47 113 6 5 135 8 79 132 110 16 29 46 39 40 21 115 124 96 98 64 65 119 44 88 62 130 100 50 35 138 48 137 10 45 36 102 56 32 38 3 7 111 33 145 26 134 139 106 85 90 86 14 20 84 18 140 127 73 126 82 123 78 37 128 49 61 27 41 54 117 74 109 69 4 34 83 52 114 116 28 42 51 99 89 131 87 146 2 105 144 58 75 68 108 63 103 122 31 112 66 0 104 143 149 121 101 141 80 142 92 147 9 120 25 24 97 57 76 17 70
Coste: 9715542

GENERACION: 4
Mejor Solucion:  107 53 148 11 43 72 136 93 129 13 22 91 67 15 19 118 95 12 81 30 1 23 125 55 59 77 71 60 133 94 47 113 6 5 135 8 79 132 110 16 29 46 39 40 21 115 124 96 98 64 65 119 44 88 62 130 100 50 35 138 48 137 10 45 36 102 56 32 38 3 7 111 33 145 26 134 139 106 85 90 86 14 20 84 18 140 127 73 126 82 123 78 37 128 49 61 27 41 54 117 74 109 69 4 34 83 52 114 116 28 42 51 99 89 131 87 146 2 105 144 58 75 68 108 63 103 122 31 112 66 0 104 143 149 121 101 141 80 142 92 147 9 120 25 24 97 57 76 17 70
Coste: 9715542

GENERACION: 5
Mejor Solucion:  107 53 148 11 43 72 136 93 129 13 22 91 67 15 19 118 95 12 81 30 1 23 125 55 59 77 71 60 133 94 47 113 6 5 135 8 79 132 110 16 29 46 39 40 21 115 124 96 98 64 65 119 44 88 62 130 100 50 35 138 48 137 10 45 36 102 56 32 38 3 7 111 33 145 26 134 139 106 85 90 86 14 20 84 18 140 127 73 126 82 123 78 37 128 49 61 27 41 54 117 74 109 69 4 34 83 52 114 116 28 42 51 99 89 131 87 146 2 105 144 58 75 68 108 63 103 122 31 112 66 0 104 143 149 121 101 141 80 142 92 147 9 120 25 24 97 57 76 17 70
Coste: 9715542

GENERACION: 6
Mejor Solucion:  107 53 148 11 43 72 136 93 129 13 22 91 67 15 19 118 95 12 81 30 1 23 125 55 59 77 71 60 133 94 47 113 6 5 135 8 79 132 110 16 29 46 39 40 21 115 124 96 98 64 65 119 44 88 62 130 100 50 35 138 48 137 10 45 36 102 56 32 38 3 7 111 33 145 26 134 139 106 85 90 86 14 20 84 18 140 127 73 126 82 123 78 37 128 49 61 27 41 54 117 74 109 69 4 34 83 52 114 116 28 42 51 99 89 131 87 146 2 105 144 58 75 68 108 63 103 122 31 112 66 0 104 143 149 121 101 141 80 142 92 147 9 120 25 24 97 57 76 17 70
Coste: 9715542

GENERACION: 7
Mejor Solucion:  107 53 148 11 43 72 136 93 129 13 22 91 67 15 19 118 95 12 81 30 1 23 125 55 59 77 71 60 133 94 47 113 6 5 135 8 79 132 110 16 29 46 39 40 21 115 124 96 98 64 65 119 44 88 62 130 100 50 35 138 48 137 10 45 36 102 56 32 38 3 7 111 33 145 26 134 139 106 85 90 86 14 20 84 18 140 127 73 126 82 123 78 37 128 49 61 27 41 54 117 74 109 69 4 34 83 52 114 116 28 42 51 99 89 131 87 146 2 105 144 58 75 68 108 63 103 122 31 112 66 0 104 143 149 121 101 141 80 142 92 147 9 120 25 24 97 57 76 17 70
Coste: 9715542

GENERACION: 8
Mejor Solucion:  107 53 148 11 43 72 136 93 129 13 22 91 67 15 19 118 95 12 81 30 1 23 125 55 59 77 71 60 133 94 47 113 6 5 135 8 79 132 110 16 29 46 39 40 21 115 124 96 98 64 65 119 44 88 62 130 100 50 35 138 48 137 10 45 36 102 56 32 38 3 7 111 33 145 26 134 139 106 85 90 86 14 20 84 18 140 127 73 126 82 123 78 37 128 49 61 27 41 54 117 74 109 69 4 34 83 52 114 116 28 42 51 99 89 131 87 146 2 105 144 58 75 68 108 63 103 122 31 112 66 0 104 143 149 121 101 141 80 142 92 147 9 120 25 24 97 57 76 17 70
Coste: 9715542

GENERACION: 9
Mejor Solucion:  107 53 148 11 43 72 136 93 129 13 22 91 67 15 19 118 95 12 81 30 1 23 125 55 59 77 71 60 133 94 47 113 6 5 135 8 79 132 110 16 29 46 39 40 21 115 124 96 98 64 65 119 44 88 62 130 100 50 35 138 48 137 10 45 36 102 56 32 38 3 7 111 33 145 26 134 139 106 85 90 86 14 20 84 18 140 127 73 126 82 123 78 37 128 49 61 27 41 54 117 74 109 69 4 34 83 52 114 116 28 42 51 99 89 131 87 146 2 105 144 58 75 68 108 63 103 122 31 112 66 0 104 143 149 121 101 141 80 142 92 147 9 120 25 24 97 57 76 17 70
Coste: 9715542

GENERACION: 10
Mejor Solucion:  107 53 148 11 43 72 136 93 129 13 22 91 67 15 19 118 95 12 81 30 1 23 125 55 59 77 71 60 133 94 47 113 6 5 135 8 79 132 110 16 29 46 39 40 21 115 124 96 98 64 65 119 44 88 62 130 100 50 35 138 48 137 10 45 36 102 56 32 38 3 7 111 33 145 26 134 139 106 85 90 86 14 20 84 18 140 127 73 126 82 123 78 37 128 49 61 27 41 54 117 74 109 69 4 34 83 52 114 116 28 42 51 99 89 131 87 146 2 105 144 58 75 68 108 63 103 122 31 112 66 0 104 143 149 121 101 141 80 142 92 147 9 120 25 24 97 57 76 17 70
Coste: 9715542

GENERACION: 11
Mejor Solucion:  107 53 148 11 43 72 136 93 129 13 22 91 67 15 19 118 95 12 81 30 1 23 125 55 59 77 71 60 133 94 47 113 6 5 135 8 79 132 110 16 29 46 39 40 21 115 124 96 98 64 65 119 44 88 62 130 100 50 35 138 48 137 10 45 36 102 56 32 38 3 7 111 33 145 26 134 139 106 85 90 86 14 20 84 18 140 127 73 126 82 123 78 37 128 49 61 27 41 54 117 74 109 69 4 34 83 52 114 116 28 42 51 99 89 131 87 146 2 105 144 58 75 68 108 63 103 122 31 112 66 0 104 143 149 121 101 141 80 142 92 147 9 120 25 24 97 57 76 17 70
Coste: 9715542

GENERACION: 12
Mejor Solucion:  107 53 148 11 43 72 136 93 129 13 22 91 67 15 19 118 95 12 81 30 1 23 125 55 59 77 71 60 133 94 47 113 6 5 135 8 79 132 110 16 29 46 39 40 21 115 124 96 98 64 65 119 44 88 62 130 100 50 35 138 48 137 10 45 36 102 56 32 38 3 7 111 33 145 26 134 139 106 85 90 86 14 20 84 18 140 127 73 126 82 123 78 37 128 49 61 27 41 54 117 74 109 69 4 34 83 52 114 116 28 42 51 99 89 131 87 146 2 105 144 58 75 68 108 63 103 122 31 112 66 0 104 143 149 121 101 141 80 142 92 147 9 120 25 24 97 57 76 17 70
Coste: 9715542

GENERACION: 13
Mejor Solucion:  69 9 34 83 79 66 99 102 51 101 145 23 21 104 72 49 22 15 136 56 63 107 132 41 119 45 77 109 62 6 17 88 12 54 47 25 65 134 106 27 24 133 38 100 82 146 92 20 32 135 84 110 55 118 97 98 64 86 115 50 116 95 144 76 53 4 39 52 58 37 5 147 113 81 117 108 1 26 60 44 31 18 59 85 29 61 57 114 138 10 75 96 46 105 33 11 70 13 131 28 148 123 93 143 130 40 68 90 87 103 124 0 122 140 128 141 80 127 120 111 121 142 71 129 112 19 89 30 125 36 139 7 67 78 126 137 43 48 74 3 94 8 42 35 149 73 16 91 14 2
Coste: 9672786

GENERACION: 14
Mejor Solucion:  69 9 34 83 79 66 99 102 51 101 145 23 21 104 72 49 22 15 136 56 63 107 132 41 119 45 77 109 62 6 17 88 12 54 47 25 65 134 106 27 24 133 38 100 82 146 92 20 32 135 84 110 55 118 97 98 64 86 115 50 116 95 144 76 53 4 39 52 58 37 5 147 113 81 117 108 1 26 60 44 31 18 59 85 29 61 57 114 138 10 75 96 46 105 33 11 70 13 131 28 148 123 93 143 130 40 68 90 87 103 124 0 122 140 128 141 80 127 120 111 121 142 71 129 112 19 89 30 125 36 139 7 67 78 126 137 43 48 74 3 94 8 42 35 149 73 16 91 14 2
Coste: 9672786

GENERACION: 15
Mejor Solucion:  69 9 34 83 79 66 99 102 51 101 145 23 21 104 72 49 22 15 136 56 63 107 132 41 119 45 77 109 62 6 17 88 12 54 47 25 65 134 106 27 24 133 38 100 82 146 92 20 32 135 84 110 55 118 97 98 64 86 115 50 116 95 144 76 53 4 39 52 58 37 5 147 113 81 117 108 1 26 60 44 31 18 59 85 29 61 57 114 138 10 75 96 46 105 33 11 70 13 131 28 148 123 93 143 130 40 68 90 87 103 124 0 122 140 128 141 80 127 120 111 121 142 71 129 112 19 89 30 125 36 139 7 67 78 126 137 43 48 74 3 94 8 42 35 149 73 16 91 14 2
Coste: 9672786

GENERACION: 16
Mejor Solucion:  69 9 34 83 79 66 99 102 51 101 145 23 21 104 72 49 22 15 136 56 63 107 132 41 119 45 77 109 62 6 17 88 12 54 47 25 65 134 106 27 24 133 38 100 82 146 92 20 32 135 84 110 55 118 97 98 64 86 115 50 116 95 144 76 53 4 39 52 58 37 5 147 113 81 117 108 1 26 60 44 31 18 59 85 29 61 57 114 138 10 75 96 46 105 33 11 70 13 131 28 148 123 93 143 130 40 68 90 87 103 124 0 122 140 128 141 80 127 120 111 121 142 71 129 112 19 89 30 125 36 139 7 67 78 126 137 43 48 74 3 94 8 42 35 149 73 16 91 14 2
Coste: 9672786

GENERACION: 17
Mejor Solucion:  69 9 34 83 79 66 99 102 51 101 145 23 21 104 72 49 22 15 136 56 63 107 132 41 119 45 77 109 62 6 17 88 12 54 47 25 65 134 106 27 24 133 38 100 82 146 92 20 32 135 84 110 55 118 97 98 64 86 115 50 116 95 144 76 53 4 39 52 58 37 5 147 113 81 117 108 1 26 60 44 31 18 59 85 29 61 57 114 138 10 75 96 46 105 33 11 70 13 131 28 148 123 93 143 130 40 68 90 87 103 124 0 122 140 128 141 80 127 120 111 121 142 71 129 112 19 89 30 125 36 139 7 67 78 126 137 43 48 74 3 94 8 42 35 149 73 16 91 14 2
Coste: 9672786

GENERACION: 18
Mejor Solucion:  69 9 34 83 79 66 99 102 51 101 145 23 21 104 72 49 22 15 136 56 63 107 132 41 119 45 77 109 62 6 17 88 12 54 47 25 65 134 106 27 24 133 38 100 82 146 92 20 32 135 84 110 55 118 97 98 64 86 115 50 116 95 144 76 53 4 39 52 58 37 5 147 113 81 117 108 1 26 60 44 31 18 59 85 29 61 57 114 138 10 75 96 46 105 33 11 70 13 131 28 148 123 93 143 130 40 68 90 87 103 124 0 122 140 128 141 80 127 120 111 121 142 71 129 112 19 89 30 125 36 139 7 67 78 126 137 43 48 74 3 94 8 42 35 149 73 16 91 14 2
Coste: 9672786

GENERACION: 19
Mejor Solucion:  69 9 34 83 79 66 99 102 51 101 145 23 21 104 72 49 22 15 136 56 63 107 132 41 119 45 77 109 62 6 17 88 12 54 47 25 65 134 106 27 24 133 38 100 82 146 92 20 32 135 84 110 55 118 97 98 64 86 115 50 116 95 144 76 53 4 39 52 58 37 5 147 113 81 117 108 1 26 60 44 31 18 59 85 29 61 57 114 138 10 75 96 46 105 33 11 70 13 131 28 148 123 93 143 130 40 68 90 87 103 124 0 122 140 128 141 80 127 120 111 121 142 71 129 112 19 89 30 125 36 139 7 67 78 126 137 43 48 74 3 94 8 42 35 149 73 16 91 14 2
Coste: 9672786

GENERACION: 20
Mejor Solucion:  69 9 34 83 79 66 99 102 51 101 145 23 21 104 72 49 22 15 136 56 63 107 132 41 119 45 77 109 62 6 17 88 12 54 47 25 65 134 106 27 24 133 38 100 82 146 92 20 32 135 84 110 55 118 97 98 64 86 115 50 116 95 144 76 53 4 39 52 58 37 5 147 113 81 117 108 1 26 60 44 31 18 59 85 29 61 57 114 138 10 75 96 46 105 33 11 70 13 131 28 148 123 93 143 130 40 68 90 87 103 124 0 122 140 128 141 80 127 120 111 121 142 71 129 112 19 89 30 125 36 139 7 67 78 126 137 43 48 74 3 94 8 42 35 149 73 16 91 14 2
Coste: 9672786

GENERACION: 21
Mejor Solucion:  69 9 34 83 79 66 99 102 51 101 145 23 21 104 72 49 22 15 136 56 63 107 132 41 119 45 77 109 62 6 17 88 12 54 47 25 65 134 106 27 24 133 38 100 82 146 92 20 32 135 84 110 55 118 97 98 64 86 115 50 116 95 144 76 53 4 39 52 58 37 5 147 113 81 117 108 1 26 60 44 31 18 59 85 29 61 57 114 138 10 75 96 46 105 33 11 70 13 131 28 148 123 93 143 130 40 68 90 87 103 124 0 122 140 128 141 80 127 120 111 121 142 71 129 112 19 89 30 125 36 139 7 67 78 126 137 43 48 74 3 94 8 42 35 149 73 16 91 14 2
Coste: 9672786

GENERACION: 22
Mejor Solucion:  69 9 34 83 79 66 99 102 51 101 145 23 21 104 72 49 22 15 136 56 63 107 132 41 119 45 77 109 62 6 17 88 12 54 47 25 65 134 106 27 24 133 38 100 82 146 92 20 32 135 84 110 55 118 97 98 64 86 115 50 116 95 144 76 53 4 39 52 58 37 5 147 113 81 117 108 1 26 60 44 31 18 59 85 29 61 57 114 138 10 75 96 46 105 33 11 70 13 131 28 148 123 93 143 130 40 68 90 87 103 124 0 122 140 128 141 80 127 120 111 121 142 71 129 112 19 89 30 125 36 139 7 67 78 126 137 43 48 74 3 94 8 42 35 149 73 16 91 14 2
Coste: 9672786

GENERACION: 23
Mejor Solucion:  69 9 34 83 79 66 99 102 51 101 145 23 21 104 72 49 22 15 136 56 63 107 132 41 119 45 77 109 62 6 17 88 12 54 47 25 65 134 106 27 24 133 38 100 82 146 92 20 32 135 84 110 55 118 97 98 64 86 115 50 116 95 144 76 53 4 39 52 58 37 5 147 113 81 117 108 1 26 60 44 31 18 59 85 29 61 57 114 138 10 75 96 46 105 33 11 70 13 131 28 148 123 93 143 130 40 68 90 87 103 124 0 122 140 128 141 80 127 120 111 121 142 71 129 112 19 89 30 125 36 139 7 67 78 126 137 43 48 74 3 94 8 42 35 149 73 16 91 14 2
Coste: 9672786

GENERACION: 24
Mejor Solucion:  69 9 34 83 79 66 99 102 51 101 145 23 21 104 72 49 22 15 136 56 63 107 132 41 119 45 77 109 62 6 17 88 12 54 47 25 65 134 106 27 24 133 38 100 82 146 92 20 32 135 84 110 55 118 97 98 64 86 115 50 116 95 144 76 53 4 39 52 58 37 5 147 113 81 117 108 1 26 60 44 31 18 59 85 29 61 57 114 138 10 75 96 46 105 33 11 70 13 131 28 148 123 93 143 130 40 68 90 87 103 124 0 122 140 128 141 80 127 120 111 121 142 71 129 112 19 89 30 125 36 139 7 67 78 126 137 43 48 74 3 94 8 42 35 149 73 16 91 14 2
Coste: 9672786

GENERACION: 25
Mejor Solucion:  69 9 34 83 79 66 99 102 51 101 145 23 21 104 72 49 22 15 136 56 63 107 132 41 119 45 77 109 62 6 17 88 12 54 47 25 65 134 106 27 24 133 38 100 82 146 92 20 32 135 84 110 55 118 97 98 64 86 115 50 116 95 144 76 53 4 39 52 58 37 5 147 113 81 117 108 1 26 60 44 31 18 59 85 29 61 57 114 138 10 75 96 46 105 33 11 70 13 131 28 148 123 93 143 130 40 68 90 87 103 124 0 122 140 128 141 80 127 120 111 121 142 71 129 112 19 89 30 125 36 139 7 67 78 126 137 43 48 74 3 94 8 42 35 149 73 16 91 14 2
Coste: 9672786

GENERACION: 26
Mejor Solucion:  34 83 119 66 99 102 51 101 145 23 21 104 72 49 22 9 136 56 63 107 132 41 79 45 77 109 62 60 25 6 17 88 115 54 47 90 134 106 27 24 19 55 100 82 146 92 20 32 135 84 110 147 118 97 98 64 86 12 65 116 95 144 76 53 140 39 52 142 37 5 38 14 81 117 108 93 26 16 44 31 18 59 85 29 61 57 114 138 10 75 96 70 105 33 11 46 13 36 28 148 123 1 43 130 73 68 50 87 103 124 0 122 4 30 141 80 127 120 111 121 58 71 129 112 133 89 128 125 131 139 7 67 78 126 137 143 48 74 3 94 8 42 35 149 40 91 113 2 69 15
Coste: 9650593

GENERACION: 27
Mejor Solucion:  34 83 119 66 99 102 51 101 145 23 21 104 72 49 22 9 136 56 63 107 132 41 79 45 77 109 62 60 25 6 17 88 115 54 47 90 134 106 27 24 19 55 100 82 146 92 20 32 135 84 110 147 118 97 98 64 86 12 65 116 95 144 76 53 140 39 52 142 37 5 38 14 81 117 108 93 26 16 44 31 18 59 85 29 61 57 114 138 10 75 96 70 105 33 11 46 13 36 28 148 123 1 43 130 73 68 50 87 103 124 0 122 4 30 141 80 127 120 111 121 58 71 129 112 133 89 128 125 131 139 7 67 78 126 137 143 48 74 3 94 8 42 35 149 40 91 113 2 69 15
Coste: 9650593

GENERACION: 28
Mejor Solucion:  34 83 119 66 99 102 51 101 145 23 21 104 72 49 22 9 136 56 63 107 132 41 79 45 77 109 62 60 25 6 17 88 115 54 47 90 134 106 27 24 19 55 100 82 146 92 20 32 135 84 110 147 118 97 98 64 86 12 65 116 95 144 76 53 140 39 52 142 37 5 38 14 81 117 108 93 26 16 44 31 18 59 85 29 61 57 114 138 10 75 96 70 105 33 11 46 13 36 28 148 123 1 43 130 73 68 50 87 103 124 0 122 4 30 141 80 127 120 111 121 58 71 129 112 133 89 128 125 131 139 7 67 78 126 137 143 48 74 3 94 8 42 35 149 40 91 113 2 69 15
Coste: 9650593

GENERACION: 29
Mejor Solucion:  34 83 119 66 99 102 51 101 145 23 21 104 72 49 22 9 136 56 63 107 132 41 79 45 77 109 62 60 25 6 17 88 115 54 47 90 134 106 27 24 19 55 100 82 146 92 20 32 135 84 110 147 118 97 98 64 86 12 65 116 95 144 76 53 140 39 52 142 37 5 38 14 81 117 108 93 26 16 44 31 18 59 85 29 61 57 114 138 10 75 96 70 105 33 11 46 13 36 28 148 123 1 43 130 73 68 50 87 103 124 0 122 4 30 141 80 127 120 111 121 58 71 129 112 133 89 128 125 131 139 7 67 78 126 137 143 48 74 3 94 8 42 35 149 40 91 113 2 69 15
Coste: 9650593

GENERACION: 30
Mejor Solucion:  34 83 119 66 99 102 51 101 145 23 21 104 72 49 22 9 136 56 63 107 132 41 79 45 77 109 62 60 25 6 17 88 115 54 47 90 134 106 27 24 19 55 100 82 146 92 20 32 135 84 110 147 118 97 98 64 86 12 65 116 95 144 76 53 140 39 52 142 37 5 38 14 81 117 108 93 26 16 44 31 18 59 85 29 61 57 114 138 10 75 96 70 105 33 11 46 13 36 28 148 123 1 43 130 73 68 50 87 103 124 0 122 4 30 141 80 127 120 111 121 58 71 129 112 133 89 128 125 131 139 7 67 78 126 137 143 48 74 3 94 8 42 35 149 40 91 113 2 69 15
Coste: 9650593

GENERACION: 31
Mejor Solucion:  34 83 119 66 99 102 51 101 145 23 21 104 72 49 22 9 136 56 63 107 132 41 79 45 77 109 62 60 25 6 17 88 115 54 47 90 134 106 27 24 19 55 100 82 146 92 20 32 135 84 110 147 118 97 98 64 86 12 65 116 95 144 76 53 140 39 52 142 37 5 38 14 81 117 108 93 26 16 44 31 18 59 85 29 61 57 114 138 10 75 96 70 105 33 11 46 13 36 28 148 123 1 43 130 73 68 50 87 103 124 0 122 4 30 141 80 127 120 111 121 58 71 129 112 133 89 128 125 131 139 7 67 78 126 137 143 48 74 3 94 8 42 35 149 40 91 113 2 69 15
Coste: 9650593

GENERACION: 32
Mejor Solucion:  34 83 119 66 99 102 51 101 145 23 21 104 72 49 22 9 136 56 63 107 132 41 79 45 77 109 62 60 25 6 17 88 115 54 47 90 134 106 27 24 19 55 100 82 146 92 20 32 135 84 110 147 118 97 98 64 86 12 65 116 95 144 76 53 140 39 52 142 37 5 38 14 81 117 108 93 26 16 44 31 18 59 85 29 61 57 114 138 10 75 96 70 105 33 11 46 13 36 28 148 123 1 43 130 73 68 50 87 103 124 0 122 4 30 141 80 127 120 111 121 58 71 129 112 133 89 128 125 131 139 7 67 78 126 137 143 48 74 3 94 8 42 35 149 40 91 113 2 69 15
Coste: 9650593

GENERACION: 33
Mejor Solucion:  34 83 119 66 99 102 51 101 145 23 21 104 72 49 22 9 136 56 63 107 132 41 79 45 77 109 62 60 25 6 17 88 115 54 47 90 134 106 27 24 19 55 100 82 146 92 20 32 135 84 110 147 118 97 98 64 86 12 65 116 95 144 76 53 140 39 52 142 37 5 38 14 81 117 108 93 26 16 44 31 18 59 85 29 61 57 114 138 10 75 96 70 105 33 11 46 13 36 28 148 123 1 43 130 73 68 50 87 103 124 0 122 4 30 141 80 127 120 111 121 58 71 129 112 133 89 128 125 131 139 7 67 78 126 137 143 48 74 3 94 8 42 35 149 40 91 113 2 69 15
Coste: 9650593

GENERACION: 34
Mejor Solucion:  0 101 104 49 87 56 63 107 143 79 45 77 109 62 60 28 17 88 115 54 47 90 134 39 27 24 19 55 100 82 92 41 42 135 84 110 137 97 13 64 86 5 65 116 144 33 53 140 106 52 142 37 122 38 81 117 108 93 30 16 31 18 59 85 29 146 118 114 138 10 75 96 105 76 11 148 50 103 125 26 80 58 112 133 7 61 48 94 74 149 91 6 35 98 34 102 25 9 1 43 130 68 126 136 124 12 73 4 123 141 127 120 69 121 20 129 14 70 89 128 46 131 78 72 57 147 67 8 3 95 21 15 71 111 113 32 83 119 132 99 51 145 44 23 139 22 2 40 36 66
Coste: 9649445

GENERACION: 35
Mejor Solucion:  0 101 104 49 87 56 63 107 143 79 45 77 109 62 60 28 17 88 115 54 47 90 134 39 27 24 19 55 100 82 92 41 42 135 84 110 137 97 13 64 86 5 65 116 144 33 53 140 106 52 142 37 122 38 81 117 108 93 30 16 31 18 59 85 29 146 118 114 138 10 75 96 105 76 11 148 50 103 125 26 80 58 112 133 7 61 48 94 74 149 91 6 35 98 34 102 25 9 1 43 130 68 126 136 124 12 73 4 123 141 127 120 69 121 20 129 14 70 89 128 46 131 78 72 57 147 67 8 3 95 21 15 71 111 113 32 83 119 132 99 51 145 44 23 139 22 2 40 36 66
Coste: 9649445

GENERACION: 36
Mejor Solucion:  0 101 104 49 87 56 63 107 143 79 45 77 109 62 60 28 17 88 115 54 47 90 134 39 27 24 19 55 100 82 92 41 42 135 84 110 137 97 13 64 86 5 65 116 144 33 53 140 106 52 142 37 122 38 81 117 108 93 30 16 31 18 59 85 29 146 118 114 138 10 75 96 105 76 11 148 50 103 125 26 80 58 112 133 7 61 48 94 74 149 91 6 35 98 34 102 25 9 1 43 130 68 126 136 124 12 73 4 123 141 127 120 69 121 20 129 14 70 89 128 46 131 78 72 57 147 67 8 3 95 21 15 71 111 113 32 83 119 132 99 51 145 44 23 139 22 2 40 36 66
Coste: 9649445

GENERACION: 37
Mejor Solucion:  0 101 104 49 87 56 63 107 143 79 45 77 109 62 60 28 17 88 115 54 47 90 134 39 27 24 19 55 100 82 92 41 42 135 84 110 137 97 13 64 86 5 65 116 144 33 53 140 106 52 142 37 122 38 81 117 108 93 30 16 31 18 59 85 29 146 118 114 138 10 75 96 105 76 11 148 50 103 125 26 80 58 112 133 7 61 48 94 74 149 91 6 35 98 34 102 25 9 1 43 130 68 126 136 124 12 73 4 123 141 127 120 69 121 20 129 14 70 89 128 46 131 78 72 57 147 67 8 3 95 21 15 71 111 113 32 83 119 132 99 51 145 44 23 139 22 2 40 36 66
Coste: 9649445

GENERACION: 38
Mejor Solucion:  0 101 104 49 87 56 63 107 143 79 45 77 109 62 60 28 17 88 115 54 47 90 134 39 27 24 19 55 100 82 92 41 42 135 84 110 137 97 13 64 86 5 65 116 144 33 53 140 106 52 142 37 122 38 81 117 108 93 30 16 31 18 59 85 29 146 118 114 138 10 75 96 105 76 11 148 50 103 125 26 80 58 112 133 7 61 48 94 74 149 91 6 35 98 34 102 25 9 1 43 130 68 126 136 124 12 73 4 123 141 127 120 69 121 20 129 14 70 89 128 46 131 78 72 57 147 67 8 3 95 21 15 71 111 113 32 83 119 132 99 51 145 44 23 139 22 2 40 36 66
Coste: 9649445

GENERACION: 39
Mejor Solucion:  0 101 104 49 87 56 63 107 143 79 45 77 109 62 60 28 17 88 115 54 47 90 134 39 27 24 19 55 100 82 92 41 42 135 84 110 137 97 13 64 86 5 65 116 144 33 53 140 106 52 142 37 122 38 81 117 108 93 30 16 31 18 59 85 29 146 118 114 138 10 75 96 105 76 11 148 50 103 125 26 80 58 112 133 7 61 48 94 74 149 91 6 35 98 34 102 25 9 1 43 130 68 126 136 124 12 73 4 123 141 127 120 69 121 20 129 14 70 89 128 46 131 78 72 57 147 67 8 3 95 21 15 71 111 113 32 83 119 132 99 51 145 44 23 139 22 2 40 36 66
Coste: 9649445

GENERACION: 40
Mejor Solucion:  0 101 104 49 87 56 63 107 143 79 45 77 109 62 60 28 17 88 115 54 47 90 134 39 27 24 19 55 100 82 92 41 42 135 84 110 137 97 13 64 86 5 65 116 144 33 53 140 106 52 142 37 122 38 81 117 108 93 30 16 31 18 59 85 29 146 118 114 138 10 75 96 105 76 11 148 50 103 125 26 80 58 112 133 7 61 48 94 74 149 91 6 35 98 34 102 25 9 1 43 130 68 126 136 124 12 73 4 123 141 127 120 69 121 20 129 14 70 89 128 46 131 78 72 57 147 67 8 3 95 21 15 71 111 113 32 83 119 132 99 51 145 44 23 139 22 2 40 36 66
Coste: 9649445

GENERACION: 41
Mejor Solucion:  0 101 104 49 87 56 63 107 143 79 45 77 109 62 60 28 17 88 115 54 47 90 134 39 27 24 19 55 100 82 92 41 42 135 84 110 137 97 13 64 86 5 65 116 144 33 53 140 106 52 142 37 122 38 81 117 108 93 30 16 31 18 59 85 29 146 118 114 138 10 75 96 105 76 11 148 50 103 125 26 80 58 112 133 7 61 48 94 74 149 91 6 35 98 34 102 25 9 1 43 130 68 126 136 124 12 73 4 123 141 127 120 69 121 20 129 14 70 89 128 46 131 78 72 57 147 67 8 3 95 21 15 71 111 113 32 83 119 132 99 51 145 44 23 139 22 2 40 36 66
Coste: 9649445

GENERACION: 42
Mejor Solucion:  0 101 104 49 87 56 63 107 143 79 45 77 109 62 60 28 17 88 115 54 47 90 134 39 27 24 19 55 100 82 92 41 42 135 84 110 137 97 13 64 86 5 65 116 144 33 53 140 106 52 142 37 122 38 81 117 108 93 30 16 31 18 59 85 29 146 118 114 138 10 75 96 105 76 11 148 50 103 125 26 80 58 112 133 7 61 48 94 74 149 91 6 35 98 34 102 25 9 1 43 130 68 126 136 124 12 73 4 123 141 127 120 69 121 20 129 14 70 89 128 46 131 78 72 57 147 67 8 3 95 21 15 71 111 113 32 83 119 132 99 51 145 44 23 139 22 2 40 36 66
Coste: 9649445

GENERACION: 43
Mejor Solucion:  0 101 104 49 87 56 63 107 143 79 45 77 109 62 60 28 17 88 115 54 47 90 134 39 27 24 19 55 100 82 92 41 42 135 84 110 137 97 13 64 86 5 65 116 144 33 53 140 106 52 142 37 122 38 81 117 108 93 30 16 31 18 59 85 29 146 118 114 138 10 75 96 105 76 11 148 50 103 125 26 80 58 112 133 7 61 48 94 74 149 91 6 35 98 34 102 25 9 1 43 130 68 126 136 124 12 73 4 123 141 127 120 69 121 20 129 14 70 89 128 46 131 78 72 57 147 67 8 3 95 21 15 71 111 113 32 83 119 132 99 51 145 44 23 139 22 2 40 36 66
Coste: 9649445

GENERACION: 44
Mejor Solucion:  0 101 104 49 87 56 63 107 143 79 45 77 109 62 60 28 17 88 115 54 47 90 134 39 27 24 19 55 100 82 92 41 42 135 84 110 137 97 13 64 86 5 65 116 144 33 53 140 106 52 142 37 122 38 81 117 108 93 30 16 31 18 59 85 29 146 118 114 138 10 75 96 105 76 11 148 50 103 125 26 80 58 112 133 7 61 48 94 74 149 91 6 35 98 34 102 25 9 1 43 130 68 126 136 124 12 73 4 123 141 127 120 69 121 20 129 14 70 89 128 46 131 78 72 57 147 67 8 3 95 21 15 71 111 113 32 83 119 132 99 51 145 44 23 139 22 2 40 36 66
Coste: 9649445

GENERACION: 45
Mejor Solucion:  0 101 104 49 87 56 63 107 143 79 45 77 109 62 60 28 17 88 115 54 47 90 134 39 27 24 19 55 100 82 92 41 42 135 84 110 137 97 13 64 86 5 65 116 144 33 53 140 106 52 142 37 122 38 81 117 108 93 30 16 31 18 59 85 29 146 118 114 138 10 75 96 105 76 11 148 50 103 125 26 80 58 112 133 7 61 48 94 74 149 91 6 35 98 34 102 25 9 1 43 130 68 126 136 124 12 73 4 123 141 127 120 69 121 20 129 14 70 89 128 46 131 78 72 57 147 67 8 3 95 21 15 71 111 113 32 83 119 132 99 51 145 44 23 139 22 2 40 36 66
Coste: 9649445

GENERACION: 46
Mejor Solucion:  0 101 104 49 87 56 63 107 143 79 45 77 109 62 60 28 17 88 115 54 47 90 134 39 27 24 19 55 100 82 92 41 42 135 84 110 137 97 13 64 86 5 65 116 144 33 53 140 106 52 142 37 122 38 81 117 108 93 30 16 31 18 59 85 29 146 118 114 138 10 75 96 105 76 11 148 50 103 125 26 80 58 112 133 7 61 48 94 74 149 91 6 35 98 34 102 25 9 1 43 130 68 126 136 124 12 73 4 123 141 127 120 69 121 20 129 14 70 89 128 46 131 78 72 57 147 67 8 3 95 21 15 71 111 113 32 83 119 132 99 51 145 44 23 139 22 2 40 36 66
Coste: 9649445

GENERACION: 47
Mejor Solucion:  0 101 104 49 87 56 63 107 143 79 45 77 109 62 60 28 17 88 115 54 47 90 134 39 27 24 19 55 100 82 92 41 42 135 84 110 137 97 13 64 86 5 65 116 144 33 53 140 106 52 142 37 122 38 81 117 108 93 30 16 31 18 59 85 29 146 118 114 138 10 75 96 105 76 11 148 50 103 125 26 80 58 112 133 7 61 48 94 74 149 91 6 35 98 34 102 25 9 1 43 130 68 126 136 124 12 73 4 123 141 127 120 69 121 20 129 14 70 89 128 46 131 78 72 57 147 67 8 3 95 21 15 71 111 113 32 83 119 132 99 51 145 44 23 139 22 2 40 36 66
Coste: 9649445

GENERACION: 48
Mejor Solucion:  0 101 104 49 87 56 63 107 143 79 45 77 109 62 60 28 17 88 115 54 47 90 134 39 27 24 19 55 100 82 92 41 42 135 84 110 137 97 13 64 86 5 65 116 144 33 53 140 106 52 142 37 122 38 81 117 108 93 30 16 31 18 59 85 29 146 118 114 138 10 75 96 105 76 11 148 50 103 125 26 80 58 112 133 7 61 48 94 74 149 91 6 35 98 34 102 25 9 1 43 130 68 126 136 124 12 73 4 123 141 127 120 69 121 20 129 14 70 89 128 46 131 78 72 57 147 67 8 3 95 21 15 71 111 113 32 83 119 132 99 51 145 44 23 139 22 2 40 36 66
Coste: 9649445

GENERACION: 49
Mejor Solucion:  0 101 104 49 87 56 63 107 143 79 45 77 109 62 60 28 17 88 115 54 47 90 134 39 27 24 19 55 100 82 92 41 42 135 84 110 137 97 13 64 86 5 65 116 144 33 53 140 106 52 142 37 122 38 81 117 108 93 30 16 31 18 59 85 29 146 118 114 138 10 75 96 105 76 11 148 50 103 125 26 80 58 112 133 7 61 48 94 74 149 91 6 35 98 34 102 25 9 1 43 130 68 126 136 124 12 73 4 123 141 127 120 69 121 20 129 14 70 89 128 46 131 78 72 57 147 67 8 3 95 21 15 71 111 113 32 83 119 132 99 51 145 44 23 139 22 2 40 36 66
Coste: 9649445

GENERACION: 50
Mejor Solucion:  0 101 104 49 87 56 63 107 143 79 45 77 109 62 60 28 17 88 115 54 47 90 134 39 27 24 19 55 100 82 92 41 42 135 84 110 137 97 13 64 86 5 65 116 144 33 53 140 106 52 142 37 122 38 81 117 108 93 30 16 31 18 59 85 29 146 118 114 138 10 75 96 105 76 11 148 50 103 125 26 80 58 112 133 7 61 48 94 74 149 91 6 35 98 34 102 25 9 1 43 130 68 126 136 124 12 73 4 123 141 127 120 69 121 20 129 14 70 89 128 46 131 78 72 57 147 67 8 3 95 21 15 71 111 113 32 83 119 132 99 51 145 44 23 139 22 2 40 36 66
Coste: 9649445

GENERACION: 51
Mejor Solucion:  0 101 104 49 87 56 63 107 143 79 45 77 109 62 60 28 17 88 115 54 47 90 134 39 27 24 19 55 100 82 92 41 42 135 84 110 137 97 13 64 86 5 65 116 144 33 53 140 106 52 142 37 122 38 81 117 108 93 30 16 31 18 59 85 29 146 118 114 138 10 75 96 105 76 11 148 50 103 125 26 80 58 112 133 7 61 48 94 74 149 91 6 35 98 34 102 25 9 1 43 130 68 126 136 124 12 73 4 123 141 127 120 69 121 20 129 14 70 89 128 46 131 78 72 57 147 67 8 3 95 21 15 71 111 113 32 83 119 132 99 51 145 44 23 139 22 2 40 36 66
Coste: 9649445

GENERACION: 52
Mejor Solucion:  0 101 104 49 87 56 63 107 143 79 45 77 109 62 60 28 17 88 115 54 47 90 134 39 27 24 19 55 100 82 92 41 42 135 84 110 137 97 13 64 86 5 65 116 144 33 53 140 106 52 142 37 122 38 81 117 108 93 30 16 31 18 59 85 29 146 118 114 138 10 75 96 105 76 11 148 50 103 125 26 80 58 112 133 7 61 48 94 74 149 91 6 35 98 34 102 25 9 1 43 130 68 126 136 124 12 73 4 123 141 127 120 69 121 20 129 14 70 89 128 46 131 78 72 57 147 67 8 3 95 21 15 71 111 113 32 83 119 132 99 51 145 44 23 139 22 2 40 36 66
Coste: 9649445

GENERACION: 53
Mejor Solucion:  0 101 104 49 87 56 63 107 143 79 45 77 109 62 60 28 17 88 115 54 47 90 134 39 27 24 19 55 100 82 92 41 42 135 84 110 137 97 13 64 86 5 65 116 144 33 53 140 106 52 142 37 122 38 81 117 108 93 30 16 31 18 59 85 29 146 118 114 138 10 75 96 105 76 11 148 50 103 125 26 80 58 112 133 7 61 48 94 74 149 91 6 35 98 34 102 25 9 1 43 130 68 126 136 124 12 73 4 123 141 127 120 69 121 20 129 14 70 89 128 46 131 78 72 57 147 67 8 3 95 21 15 71 111 113 32 83 119 132 99 51 145 44 23 139 22 2 40 36 66
Coste: 9649445

GENERACION: 54
Mejor Solucion:  0 101 104 49 87 56 63 107 143 79 45 77 109 62 60 28 17 88 115 54 47 90 134 39 27 24 19 55 100 82 92 41 42 135 84 110 137 97 13 64 86 5 65 116 144 33 53 140 106 52 142 37 122 38 81 117 108 93 30 16 31 18 59 85 29 146 118 114 138 10 75 96 105 76 11 148 50 103 125 26 80 58 112 133 7 61 48 94 74 149 91 6 35 98 34 102 25 9 1 43 130 68 126 136 124 12 73 4 123 141 127 120 69 121 20 129 14 70 89 128 46 131 78 72 57 147 67 8 3 95 21 15 71 111 113 32 83 119 132 99 51 145 44 23 139 22 2 40 36 66
Coste: 9649445

GENERACION: 55
Mejor Solucion:  0 101 104 49 87 56 63 107 143 79 45 77 109 62 60 28 17 88 115 54 47 90 134 39 27 24 19 55 100 82 92 41 42 135 84 110 137 97 13 64 86 5 65 116 144 33 53 140 106 52 142 37 122 38 81 117 108 93 30 16 31 18 59 85 29 146 118 114 138 10 75 96 105 76 11 148 50 103 125 26 80 58 112 133 7 61 48 94 74 149 91 6 35 98 34 102 25 9 1 43 130 68 126 136 124 12 73 4 123 141 127 120 69 121 20 129 14 70 89 128 46 131 78 72 57 147 67 8 3 95 21 15 71 111 113 32 83 119 132 99 51 145 44 23 139 22 2 40 36 66
Coste: 9649445

GENERACION: 56
Mejor Solucion:  0 101 104 49 87 56 63 107 143 79 45 77 109 62 60 28 17 88 115 54 47 90 134 39 27 24 19 55 100 82 92 41 42 135 84 110 137 97 13 64 86 5 65 116 144 33 53 140 106 52 142 37 122 38 81 117 108 93 30 16 31 18 59 85 29 146 118 114 138 10 75 96 105 76 11 148 50 103 125 26 80 58 112 133 7 61 48 94 74 149 91 6 35 98 34 102 25 9 1 43 130 68 126 136 124 12 73 4 123 141 127 120 69 121 20 129 14 70 89 128 46 131 78 72 57 147 67 8 3 95 21 15 71 111 113 32 83 119 132 99 51 145 44 23 139 22 2 40 36 66
Coste: 9649445

GENERACION: 57
Mejor Solucion:  0 101 104 49 87 56 63 107 143 79 45 77 109 62 60 28 17 88 115 54 47 90 134 39 27 24 19 55 100 82 92 41 42 135 84 110 137 97 13 64 86 5 65 116 144 33 53 140 106 52 142 37 122 38 81 117 108 93 30 16 31 18 59 85 29 146 118 114 138 10 75 96 105 76 11 148 50 103 125 26 80 58 112 133 7 61 48 94 74 149 91 6 35 98 34 102 25 9 1 43 130 68 126 136 124 12 73 4 123 141 127 120 69 121 20 129 14 70 89 128 46 131 78 72 57 147 67 8 3 95 21 15 71 111 113 32 83 119 132 99 51 145 44 23 139 22 2 40 36 66
Coste: 9649445

GENERACION: 58
Mejor Solucion:  0 101 104 49 87 56 63 107 143 79 45 77 109 62 60 28 17 88 115 54 47 90 134 39 27 24 19 55 100 82 92 41 42 135 84 110 137 97 13 64 86 5 65 116 144 33 53 140 106 52 142 37 122 38 81 117 108 93 30 16 31 18 59 85 29 146 118 114 138 10 75 96 105 76 11 148 50 103 125 26 80 58 112 133 7 61 48 94 74 149 91 6 35 98 34 102 25 9 1 43 130 68 126 136 124 12 73 4 123 141 127 120 69 121 20 129 14 70 89 128 46 131 78 72 57 147 67 8 3 95 21 15 71 111 113 32 83 119 132 99 51 145 44 23 139 22 2 40 36 66
Coste: 9649445

GENERACION: 59
Mejor Solucion:  0 101 104 49 87 56 63 107 143 79 45 77 109 62 60 28 17 88 115 54 47 90 134 39 27 24 19 55 100 82 92 41 42 135 84 110 137 97 13 64 86 5 65 116 144 33 53 140 106 52 142 37 122 38 81 117 108 93 30 16 31 18 59 85 29 146 118 114 138 10 75 96 105 76 11 148 50 103 125 26 80 58 112 133 7 61 48 94 74 149 91 6 35 98 34 102 25 9 1 43 130 68 126 136 124 12 73 4 123 141 127 120 69 121 20 129 14 70 89 128 46 131 78 72 57 147 67 8 3 95 21 15 71 111 113 32 83 119 132 99 51 145 44 23 139 22 2 40 36 66
Coste: 9649445

GENERACION: 60
Mejor Solucion:  0 101 104 49 87 56 63 107 143 79 45 77 109 62 60 28 17 88 115 54 47 90 134 39 27 24 19 55 100 82 92 41 42 135 84 110 137 97 13 64 86 5 65 116 144 33 53 140 106 52 142 37 122 38 81 117 108 93 30 16 31 18 59 85 29 146 118 114 138 10 75 96 105 76 11 148 50 103 125 26 80 58 112 133 7 61 48 94 74 149 91 6 35 98 34 102 25 9 1 43 130 68 126 136 124 12 73 4 123 141 127 120 69 121 20 129 14 70 89 128 46 131 78 72 57 147 67 8 3 95 21 15 71 111 113 32 83 119 132 99 51 145 44 23 139 22 2 40 36 66
Coste: 9649445

GENERACION: 61
Mejor Solucion:  0 101 104 49 87 56 63 107 143 79 45 77 109 62 60 28 17 88 115 54 47 90 134 39 27 24 19 55 100 82 92 41 42 135 84 110 137 97 13 64 86 5 65 116 144 33 53 140 106 52 142 37 122 38 81 117 108 93 30 16 31 18 59 85 29 146 118 114 138 10 75 96 105 76 11 148 50 103 125 26 80 58 112 133 7 61 48 94 74 149 91 6 35 98 34 102 25 9 1 43 130 68 126 136 124 12 73 4 123 141 127 120 69 121 20 129 14 70 89 128 46 131 78 72 57 147 67 8 3 95 21 15 71 111 113 32 83 119 132 99 51 145 44 23 139 22 2 40 36 66
Coste: 9649445

