GENERACION: 1
Mejor Solucion:  1 3 0 2 20 15 19 17 16 12 7 6 14 21 9 13 18 5 8 4 11 10
Coste: 9790

GENERACION: 2
Mejor Solucion:  1 3 0 2 20 15 19 17 16 12 7 6 14 21 9 13 18 5 8 4 11 10
Coste: 9790

GENERACION: 3
Mejor Solucion:  1 3 0 2 20 15 19 17 16 12 7 6 14 21 9 13 18 5 8 4 11 10
Coste: 9790

GENERACION: 4
Mejor Solucion:  1 3 0 2 20 15 19 17 16 12 7 6 14 21 9 13 18 5 8 4 11 10
Coste: 9790

GENERACION: 5
Mejor Solucion:  1 3 0 2 20 15 19 17 16 12 7 6 14 21 9 13 18 5 8 4 11 10
Coste: 9790

GENERACION: 6
Mejor Solucion:  1 3 0 2 20 15 19 17 16 12 7 6 14 21 9 13 18 5 8 4 11 10
Coste: 9790

GENERACION: 7
Mejor Solucion:  1 3 0 2 20 15 19 17 16 12 7 6 14 21 9 13 18 5 8 4 11 10
Coste: 9790

GENERACION: 8
Mejor Solucion:  1 3 0 14 12 15 19 17 16 20 7 6 2 21 9 13 18 5 8 4 11 10
Coste: 9756

GENERACION: 9
Mejor Solucion:  1 3 0 14 12 15 19 17 16 20 7 6 2 21 9 13 18 5 8 4 11 10
Coste: 9630

GENERACION: 10
Mejor Solucion:  1 3 0 5 12 15 19 17 16 20 7 6 2 21 9 13 18 14 8 4 11 10
Coste: 9612

GENERACION: 11
Mejor Solucion:  1 3 0 5 12 15 19 17 16 20 7 6 2 21 9 13 18 14 8 4 11 10
Coste: 9594

GENERACION: 12
Mejor Solucion:  1 3 0 5 12 15 19 17 16 20 7 6 2 21 9 13 18 14 8 4 11 10
Coste: 9594

GENERACION: 13
Mejor Solucion:  1 3 0 5 12 15 19 17 16 4 7 6 2 21 9 13 18 14 8 20 11 10
Coste: 9526

GENERACION: 14
Mejor Solucion:  1 3 0 5 12 15 19 17 16 4 7 6 2 21 9 13 18 14 8 20 11 10
Coste: 9526

GENERACION: 15
Mejor Solucion:  1 3 0 5 12 15 19 17 16 4 7 6 2 21 9 13 18 14 8 20 11 10
Coste: 9526

GENERACION: 16
Mejor Solucion:  1 3 0 14 12 15 19 17 16 4 7 6 2 21 9 13 18 5 8 11 20 10
Coste: 9307

GENERACION: 17
Mejor Solucion:  1 3 0 14 12 15 19 17 16 4 7 6 2 21 9 13 18 5 8 11 20 10
Coste: 9052

GENERACION: 18
Mejor Solucion:  1 3 0 14 12 15 19 17 16 4 7 6 2 21 9 13 18 5 8 11 20 10
Coste: 9052

GENERACION: 19
Mejor Solucion:  1 3 0 14 12 15 19 17 16 4 7 6 2 21 9 13 18 5 8 11 20 10
Coste: 9052

GENERACION: 20
Mejor Solucion:  1 3 0 14 12 15 19 17 16 4 7 6 2 21 9 13 18 5 8 11 20 10
Coste: 9052

GENERACION: 21
Mejor Solucion:  1 3 12 14 0 15 19 17 16 4 7 6 2 21 9 13 18 5 8 11 20 10
Coste: 8935

GENERACION: 22
Mejor Solucion:  1 3 12 14 0 15 19 17 16 4 7 6 2 21 9 13 18 5 8 11 20 10
Coste: 8818

GENERACION: 23
Mejor Solucion:  1 3 12 14 0 15 19 17 16 4 7 6 2 21 9 13 18 5 8 11 20 10
Coste: 8818

GENERACION: 24
Mejor Solucion:  1 3 12 14 0 15 19 17 16 4 7 6 2 21 9 13 18 5 8 11 20 10
Coste: 8818

GENERACION: 25
Mejor Solucion:  1 3 12 14 0 15 19 17 16 4 7 6 2 21 9 13 18 5 8 11 20 10
Coste: 8818

GENERACION: 26
Mejor Solucion:  1 3 12 14 0 15 19 17 16 4 7 6 2 21 9 13 18 5 8 11 20 10
Coste: 8818

GENERACION: 27
Mejor Solucion:  1 3 12 14 0 15 19 17 16 4 7 6 2 21 9 13 18 5 8 11 20 10
Coste: 8818

GENERACION: 28
Mejor Solucion:  1 3 12 14 0 15 19 17 16 4 7 6 2 21 9 13 18 5 8 11 20 10
Coste: 8818

GENERACION: 29
Mejor Solucion:  1 3 12 14 0 15 19 17 16 4 7 6 2 21 9 13 18 5 8 11 20 10
Coste: 8818

GENERACION: 30
Mejor Solucion:  1 3 12 14 0 15 19 17 16 4 7 6 2 21 9 13 18 5 8 11 20 10
Coste: 8818

GENERACION: 31
Mejor Solucion:  1 3 12 14 0 15 19 17 16 4 7 6 2 21 9 13 18 5 8 11 20 10
Coste: 8818

GENERACION: 32
Mejor Solucion:  1 3 12 14 0 15 19 17 16 4 7 6 2 21 9 13 18 5 8 11 20 10
Coste: 8818

GENERACION: 33
Mejor Solucion:  1 3 12 14 0 15 19 17 16 4 7 6 2 21 9 13 18 5 8 11 20 10
Coste: 8818

GENERACION: 34
Mejor Solucion:  1 3 12 14 0 15 19 17 16 4 7 6 2 21 9 13 18 5 8 11 20 10
Coste: 8818

GENERACION: 35
Mejor Solucion:  1 3 12 14 0 15 19 17 16 4 7 6 2 21 9 13 18 5 8 11 20 10
Coste: 8818

GENERACION: 36
Mejor Solucion:  1 3 12 14 0 15 19 17 16 4 7 6 2 21 9 13 18 5 8 11 20 10
Coste: 8818

GENERACION: 37
Mejor Solucion:  1 3 12 14 0 15 19 17 16 4 7 6 2 21 9 13 18 5 8 11 20 10
Coste: 8818

GENERACION: 38
Mejor Solucion:  1 3 12 14 0 15 19 17 16 4 7 6 2 21 9 13 18 5 8 11 20 10
Coste: 8818

GENERACION: 39
Mejor Solucion:  1 3 12 14 0 15 19 17 16 4 7 6 2 21 9 13 18 5 8 11 20 10
Coste: 8818

GENERACION: 40
Mejor Solucion:  1 3 12 14 0 15 19 17 16 4 7 6 2 21 9 13 18 5 8 11 20 10
Coste: 8818

GENERACION: 41
Mejor Solucion:  1 3 12 14 0 15 19 17 16 4 7 6 2 21 9 13 18 5 8 11 20 10
Coste: 8818

GENERACION: 42
Mejor Solucion:  1 3 12 14 0 15 19 17 16 4 7 6 2 21 9 13 18 5 8 11 20 10
Coste: 8818

GENERACION: 43
Mejor Solucion:  1 3 12 14 0 15 19 17 16 4 7 6 2 21 9 13 18 5 8 11 20 10
Coste: 8818

GENERACION: 44
Mejor Solucion:  1 3 12 14 0 15 19 17 16 4 7 6 2 21 9 13 18 5 8 11 20 10
Coste: 8818

GENERACION: 45
Mejor Solucion:  1 3 12 14 0 15 19 17 16 4 7 6 2 21 9 13 18 5 8 11 20 10
Coste: 8818

GENERACION: 46
Mejor Solucion:  1 3 12 14 0 15 19 17 16 4 7 6 2 21 9 13 18 5 8 11 20 10
Coste: 8818

GENERACION: 47
Mejor Solucion:  1 3 12 14 0 15 19 17 16 4 7 6 2 21 9 13 18 5 8 11 20 10
Coste: 8818

GENERACION: 48
Mejor Solucion:  1 3 12 14 0 15 19 17 16 4 7 6 2 21 9 13 18 5 8 11 20 10
Coste: 8818

GENERACION: 49
Mejor Solucion:  1 3 12 14 0 15 19 17 16 4 7 6 2 21 9 13 18 5 8 11 20 10
Coste: 8818

GENERACION: 50
Mejor Solucion:  1 3 12 14 0 15 19 17 16 4 7 6 2 21 9 13 18 5 8 11 20 10
Coste: 8818

GENERACION: 51
Mejor Solucion:  1 3 12 14 0 15 19 17 16 4 7 6 2 21 9 13 18 5 8 11 20 10
Coste: 8818

GENERACION: 52
Mejor Solucion:  1 3 12 14 0 15 19 17 16 4 7 6 2 21 9 13 18 5 8 11 20 10
Coste: 8818

GENERACION: 53
Mejor Solucion:  1 3 12 14 0 15 19 17 16 4 7 6 2 21 9 13 18 5 8 11 20 10
Coste: 8818

GENERACION: 54
Mejor Solucion:  1 3 12 14 0 15 19 17 16 4 7 6 2 21 9 13 18 5 8 11 20 10
Coste: 8818

GENERACION: 55
Mejor Solucion:  1 3 12 14 0 15 19 17 16 4 7 6 2 21 9 13 18 5 8 11 20 10
Coste: 8818

GENERACION: 56
Mejor Solucion:  1 3 12 14 0 15 19 17 16 4 7 6 2 21 9 13 18 5 8 11 20 10
Coste: 8818

GENERACION: 57
Mejor Solucion:  1 3 12 14 0 15 19 17 16 4 7 6 2 21 9 13 18 5 8 11 20 10
Coste: 8818

GENERACION: 58
Mejor Solucion:  1 3 12 14 0 15 19 17 16 4 7 6 2 21 9 13 18 5 8 11 20 10
Coste: 8818

GENERACION: 59
Mejor Solucion:  1 3 12 14 0 15 19 17 16 4 7 6 2 21 9 13 18 5 8 11 20 10
Coste: 8818

GENERACION: 60
Mejor Solucion:  1 3 12 14 0 15 19 17 16 4 7 6 2 21 9 13 18 5 8 11 20 10
Coste: 8818

GENERACION: 61
Mejor Solucion:  1 3 12 14 0 15 19 17 16 4 7 6 2 21 9 13 18 5 8 11 20 10
Coste: 8818

GENERACION: 62
Mejor Solucion:  1 3 12 14 0 15 19 17 16 4 7 6 2 21 9 13 18 5 8 11 20 10
Coste: 8818

GENERACION: 63
Mejor Solucion:  1 3 12 14 0 15 19 17 16 4 7 6 2 21 9 13 18 5 8 11 20 10
Coste: 8818

GENERACION: 64
Mejor Solucion:  1 3 12 14 0 15 19 17 16 4 7 6 2 21 9 13 18 5 8 11 20 10
Coste: 8818

GENERACION: 65
Mejor Solucion:  1 3 12 14 0 15 19 17 16 4 7 6 2 21 9 13 18 5 8 11 20 10
Coste: 8818

GENERACION: 66
Mejor Solucion:  1 3 12 14 0 15 19 17 16 4 7 6 2 21 9 13 18 5 8 11 20 10
Coste: 8818

GENERACION: 67
Mejor Solucion:  1 3 2 14 0 15 19 17 16 4 7 6 12 21 9 13 18 5 8 11 20 10
Coste: 8700

GENERACION: 68
Mejor Solucion:  1 3 2 14 0 15 19 17 16 4 7 6 12 21 9 13 18 5 8 11 20 10
Coste: 8582

GENERACION: 69
Mejor Solucion:  1 3 2 14 0 15 19 17 16 4 7 6 12 21 9 13 18 5 8 11 20 10
Coste: 8582

GENERACION: 70
Mejor Solucion:  1 3 2 14 0 15 19 17 16 4 7 6 12 21 9 13 18 5 8 11 20 10
Coste: 8582

GENERACION: 71
Mejor Solucion:  1 3 2 14 0 15 19 17 16 4 7 6 12 21 9 13 18 5 8 11 20 10
Coste: 8582

GENERACION: 72
Mejor Solucion:  1 3 2 14 0 15 19 17 16 4 7 6 12 21 9 13 18 5 8 11 20 10
Coste: 8582

GENERACION: 73
Mejor Solucion:  1 3 2 14 0 15 19 17 16 4 7 6 12 21 9 13 18 5 8 11 20 10
Coste: 8582

GENERACION: 74
Mejor Solucion:  1 3 2 14 0 15 19 17 16 4 7 6 12 21 9 13 18 5 8 11 20 10
Coste: 8582

GENERACION: 75
Mejor Solucion:  1 3 2 14 0 15 19 17 16 4 7 6 12 21 9 13 18 5 8 11 20 10
Coste: 8582

GENERACION: 76
Mejor Solucion:  1 3 2 14 0 15 19 17 16 4 7 6 12 21 9 13 18 5 8 11 20 10
Coste: 8582

GENERACION: 77
Mejor Solucion:  1 3 2 14 0 15 19 17 16 4 7 6 12 21 9 13 18 5 8 11 20 10
Coste: 8582

GENERACION: 78
Mejor Solucion:  1 3 2 14 0 15 19 17 16 4 7 6 12 21 9 13 18 5 8 11 20 10
Coste: 8582

GENERACION: 79
Mejor Solucion:  1 3 2 14 0 15 19 17 16 4 7 6 12 21 9 13 18 5 8 11 20 10
Coste: 8582

GENERACION: 80
Mejor Solucion:  1 3 2 14 0 15 19 17 16 4 7 6 12 21 9 13 18 5 8 11 20 10
Coste: 8582

GENERACION: 81
Mejor Solucion:  1 3 2 14 0 15 19 17 16 4 7 6 12 21 9 13 18 5 8 11 20 10
Coste: 8582

GENERACION: 82
Mejor Solucion:  1 3 2 14 16 15 19 17 0 4 7 6 12 21 9 13 18 5 8 11 20 10
Coste: 8577

GENERACION: 83
Mejor Solucion:  1 3 2 14 16 15 19 17 0 4 7 6 12 21 9 13 18 5 8 11 20 10
Coste: 8577

GENERACION: 84
Mejor Solucion:  1 3 2 14 16 15 19 17 6 4 7 8 12 0 9 13 18 5 21 11 20 10
Coste: 8459

GENERACION: 85
Mejor Solucion:  1 3 2 14 16 15 19 17 6 4 7 8 12 0 9 13 18 5 21 11 20 10
Coste: 8459

GENERACION: 86
Mejor Solucion:  1 3 2 14 16 15 19 17 6 4 7 8 12 0 9 13 18 5 21 11 20 10
Coste: 8459

GENERACION: 87
Mejor Solucion:  1 3 2 14 16 15 19 17 6 4 7 8 12 0 9 13 18 5 21 11 20 10
Coste: 8459

GENERACION: 88
Mejor Solucion:  1 3 2 14 16 15 19 17 6 4 7 8 12 0 9 13 18 5 21 11 20 10
Coste: 8459

GENERACION: 89
Mejor Solucion:  1 3 2 14 16 15 19 17 6 4 7 8 12 0 9 13 18 5 21 11 20 10
Coste: 8459

GENERACION: 90
Mejor Solucion:  1 3 2 14 16 15 19 17 6 4 7 8 12 0 9 13 18 5 21 11 20 10
Coste: 8459

GENERACION: 91
Mejor Solucion:  1 3 2 14 16 15 19 17 6 4 7 8 12 0 9 13 18 5 21 11 20 10
Coste: 8459

GENERACION: 92
Mejor Solucion:  1 3 2 14 16 15 19 17 6 4 7 8 12 0 9 13 18 5 21 11 20 10
Coste: 8459

GENERACION: 93
Mejor Solucion:  1 3 20 14 16 15 19 17 6 4 7 8 12 0 9 13 18 5 21 11 2 10
Coste: 8393

GENERACION: 94
Mejor Solucion:  1 3 20 14 16 15 19 17 6 4 7 8 12 0 9 13 18 5 21 11 2 10
Coste: 8308

GENERACION: 95
Mejor Solucion:  1 3 20 14 16 15 19 17 6 4 7 8 12 0 9 13 18 5 21 11 2 10
Coste: 8308

GENERACION: 96
Mejor Solucion:  1 3 20 14 16 15 19 17 6 4 7 8 12 0 9 13 18 5 21 11 2 10
Coste: 8308

GENERACION: 97
Mejor Solucion:  1 3 20 14 16 15 19 17 6 4 7 8 12 0 9 13 18 5 21 11 2 10
Coste: 8308

GENERACION: 98
Mejor Solucion:  1 3 20 14 16 15 19 17 6 4 7 8 12 0 9 13 18 5 21 11 2 10
Coste: 8308

GENERACION: 99
Mejor Solucion:  1 3 20 14 16 15 19 17 6 4 7 8 12 0 9 13 18 5 21 11 2 10
Coste: 8308

GENERACION: 100
Mejor Solucion:  1 3 20 14 16 15 19 17 6 4 7 8 12 0 9 13 18 5 21 11 2 10
Coste: 8308

GENERACION: 101
Mejor Solucion:  1 3 20 14 16 15 19 17 6 4 7 8 12 0 9 13 18 5 21 11 2 10
Coste: 8308

GENERACION: 102
Mejor Solucion:  1 3 20 14 16 15 19 17 6 4 7 8 12 0 9 13 18 5 21 11 2 10
Coste: 8308

GENERACION: 103
Mejor Solucion:  1 3 20 14 16 15 19 17 6 4 7 8 12 0 9 13 18 5 21 11 2 10
Coste: 8308

GENERACION: 104
Mejor Solucion:  1 3 20 14 16 15 19 17 6 4 7 8 12 0 9 13 18 5 21 11 2 10
Coste: 8308

GENERACION: 105
Mejor Solucion:  1 3 20 14 16 15 19 17 6 4 7 8 12 0 9 13 18 5 21 11 2 10
Coste: 8308

GENERACION: 106
Mejor Solucion:  1 3 20 14 16 15 19 17 6 4 7 8 12 0 9 13 18 5 21 11 2 10
Coste: 8308

GENERACION: 107
Mejor Solucion:  1 3 20 14 16 15 19 17 6 4 7 8 12 0 9 13 18 5 21 11 2 10
Coste: 8308

GENERACION: 108
Mejor Solucion:  1 3 20 14 16 15 19 17 6 4 7 8 12 0 9 13 18 5 21 11 2 10
Coste: 8308

GENERACION: 109
Mejor Solucion:  1 3 20 14 16 15 19 17 6 4 7 8 12 0 9 13 18 5 21 11 2 10
Coste: 8308

GENERACION: 110
Mejor Solucion:  1 3 20 14 16 15 19 17 6 4 7 8 12 0 9 13 18 5 21 11 2 10
Coste: 8308

GENERACION: 111
Mejor Solucion:  1 3 20 14 16 15 19 17 6 4 7 8 12 0 9 13 18 21 5 11 2 10
Coste: 8296

GENERACION: 112
Mejor Solucion:  1 3 20 14 16 15 19 17 6 4 7 8 12 0 9 13 18 21 5 11 2 10
Coste: 8296

GENERACION: 113
Mejor Solucion:  1 3 20 14 16 15 19 17 6 4 7 8 12 0 9 13 18 21 5 11 2 10
Coste: 8296

GENERACION: 114
Mejor Solucion:  1 3 20 14 16 15 19 17 6 4 7 8 12 0 9 13 18 21 5 11 2 10
Coste: 8296

GENERACION: 115
Mejor Solucion:  1 3 20 14 16 15 19 17 6 4 7 8 12 0 9 13 18 21 5 11 2 10
Coste: 8284

GENERACION: 116
Mejor Solucion:  1 3 20 14 16 15 19 17 6 4 7 8 12 0 9 13 18 21 5 11 2 10
Coste: 8284

GENERACION: 117
Mejor Solucion:  1 3 20 14 16 15 19 17 6 4 7 8 12 0 9 13 18 21 5 11 2 10
Coste: 8284

GENERACION: 118
Mejor Solucion:  1 3 20 14 16 15 19 17 6 4 7 8 12 0 9 13 18 21 5 11 2 10
Coste: 8284

GENERACION: 119
Mejor Solucion:  1 3 20 14 16 15 19 17 6 4 7 8 12 0 9 13 18 21 5 11 2 10
Coste: 8284

GENERACION: 120
Mejor Solucion:  1 3 20 14 16 15 19 17 6 4 7 8 12 0 9 13 18 21 5 11 2 10
Coste: 8284

GENERACION: 121
Mejor Solucion:  1 3 20 14 16 15 19 17 6 4 7 8 12 0 9 13 18 21 5 11 2 10
Coste: 8284

GENERACION: 122
Mejor Solucion:  1 3 20 14 16 15 19 17 6 4 7 8 12 0 9 13 18 21 5 11 2 10
Coste: 8284

GENERACION: 123
Mejor Solucion:  1 3 20 14 16 15 19 17 6 4 7 8 12 0 9 13 18 21 5 11 2 10
Coste: 8284

GENERACION: 124
Mejor Solucion:  1 3 20 14 16 15 19 17 6 4 7 8 12 0 9 13 18 21 5 11 2 10
Coste: 8284

GENERACION: 125
Mejor Solucion:  1 3 20 14 16 15 19 17 6 4 7 8 12 0 9 13 18 21 5 11 2 10
Coste: 8284

GENERACION: 126
Mejor Solucion:  1 3 20 14 16 15 19 17 6 4 7 8 12 0 9 13 18 21 5 11 2 10
Coste: 8284

GENERACION: 127
Mejor Solucion:  1 3 20 14 16 15 19 17 6 4 7 8 12 0 9 13 18 21 5 11 2 10
Coste: 8284

GENERACION: 128
Mejor Solucion:  1 3 20 14 16 15 19 17 6 4 7 8 12 0 9 13 18 21 5 11 2 10
Coste: 8284

GENERACION: 129
Mejor Solucion:  1 3 20 14 16 15 19 17 6 4 7 8 12 0 9 13 18 21 5 11 2 10
Coste: 8284

GENERACION: 130
Mejor Solucion:  1 3 20 14 16 15 19 17 6 4 7 8 12 0 9 13 18 21 5 11 2 10
Coste: 8284

GENERACION: 131
Mejor Solucion:  1 3 20 14 16 15 19 17 6 4 7 8 12 0 9 13 18 21 5 11 2 10
Coste: 8284

GENERACION: 132
Mejor Solucion:  1 3 20 14 16 15 19 17 6 4 7 8 12 0 9 13 18 21 5 11 2 10
Coste: 8284

GENERACION: 133
Mejor Solucion:  1 3 20 14 16 15 19 17 6 4 7 8 12 0 9 13 18 21 5 11 2 10
Coste: 8284

GENERACION: 134
Mejor Solucion:  1 3 20 14 16 15 19 17 6 4 7 8 12 0 9 13 18 21 5 11 2 10
Coste: 8284

GENERACION: 135
Mejor Solucion:  1 3 20 14 16 15 19 17 6 4 7 8 12 0 9 13 18 21 5 11 2 10
Coste: 8284

GENERACION: 136
Mejor Solucion:  1 3 20 14 16 15 19 17 6 4 7 8 12 0 9 13 18 21 5 11 2 10
Coste: 8284

GENERACION: 137
Mejor Solucion:  1 3 20 14 16 15 19 17 6 4 7 8 12 0 9 13 18 21 5 11 2 10
Coste: 8284

GENERACION: 138
Mejor Solucion:  1 3 20 14 16 15 19 17 6 4 7 8 12 0 9 13 18 21 5 11 2 10
Coste: 8284

GENERACION: 139
Mejor Solucion:  1 3 20 14 16 15 19 17 6 4 7 8 12 0 9 13 18 21 5 11 2 10
Coste: 8284

GENERACION: 140
Mejor Solucion:  1 3 20 14 16 15 19 17 6 4 7 8 12 0 9 13 18 21 5 11 2 10
Coste: 8284

GENERACION: 141
Mejor Solucion:  1 3 20 14 16 15 19 17 6 4 7 8 12 0 9 13 18 21 5 11 2 10
Coste: 8284

GENERACION: 142
Mejor Solucion:  1 3 20 14 16 15 19 17 6 4 7 8 12 0 9 13 18 21 5 11 2 10
Coste: 8284

GENERACION: 143
Mejor Solucion:  1 3 20 14 16 15 19 17 6 4 7 8 12 0 9 13 18 21 5 11 2 10
Coste: 8284

GENERACION: 144
Mejor Solucion:  1 3 20 14 16 15 19 17 6 4 7 8 12 0 9 13 18 21 5 11 2 10
Coste: 8284

GENERACION: 145
Mejor Solucion:  1 3 20 14 16 15 19 17 6 4 7 8 12 0 9 13 18 21 5 11 2 10
Coste: 8284

GENERACION: 146
Mejor Solucion:  1 3 20 14 16 15 19 17 6 4 7 8 12 0 9 13 18 21 5 11 2 10
Coste: 8284

GENERACION: 147
Mejor Solucion:  1 3 20 14 16 15 19 17 6 4 7 8 12 0 9 13 18 21 5 11 2 10
Coste: 8284

GENERACION: 148
Mejor Solucion:  1 3 20 14 16 15 19 17 6 4 7 8 12 0 9 13 18 21 5 11 2 10
Coste: 8284

GENERACION: 149
Mejor Solucion:  1 3 20 14 16 15 19 17 6 4 7 8 12 0 9 13 18 21 5 11 2 10
Coste: 8284

GENERACION: 150
Mejor Solucion:  1 3 20 14 16 15 19 17 6 4 7 8 12 0 9 13 18 21 5 11 2 10
Coste: 8284

GENERACION: 151
Mejor Solucion:  1 3 20 14 16 15 19 17 6 4 7 8 12 0 9 13 18 21 5 11 2 10
Coste: 8284

GENERACION: 152
Mejor Solucion:  1 3 20 14 16 15 5 17 6 4 7 8 12 0 9 13 18 21 19 11 2 10
Coste: 8064

GENERACION: 153
Mejor Solucion:  1 3 20 14 16 15 5 17 6 4 7 8 12 0 9 13 18 21 19 11 2 10
Coste: 8064

GENERACION: 154
Mejor Solucion:  1 3 20 14 16 15 5 17 6 4 7 8 12 0 9 13 18 21 19 11 2 10
Coste: 8064

GENERACION: 155
Mejor Solucion:  1 3 20 14 16 15 5 17 6 4 7 8 12 0 9 13 18 21 19 11 2 10
Coste: 8064

GENERACION: 156
Mejor Solucion:  1 3 20 14 16 15 5 17 6 4 7 8 12 0 9 13 18 21 19 11 2 10
Coste: 8064

GENERACION: 157
Mejor Solucion:  1 3 20 14 16 15 5 17 6 4 7 8 12 0 9 13 18 21 19 11 2 10
Coste: 8064

GENERACION: 158
Mejor Solucion:  1 3 20 14 16 15 5 17 6 4 7 8 12 0 9 13 18 21 19 11 2 10
Coste: 8064

GENERACION: 159
Mejor Solucion:  1 3 20 14 16 15 5 17 6 4 7 8 12 0 9 13 18 21 19 11 2 10
Coste: 8064

GENERACION: 160
Mejor Solucion:  1 3 20 14 16 15 5 17 6 4 7 8 12 0 9 13 18 21 19 11 2 10
Coste: 8064

GENERACION: 161
Mejor Solucion:  1 3 20 14 16 15 5 17 6 4 7 8 12 0 9 13 18 21 19 11 2 10
Coste: 8064

GENERACION: 162
Mejor Solucion:  1 3 20 14 16 15 5 17 6 4 7 8 12 0 9 13 18 21 19 11 2 10
Coste: 8064

GENERACION: 163
Mejor Solucion:  1 3 20 14 16 15 5 17 6 4 7 8 12 0 9 13 18 21 19 11 2 10
Coste: 8064

GENERACION: 164
Mejor Solucion:  1 3 20 14 16 15 5 17 6 4 7 8 12 0 9 13 18 21 19 11 2 10
Coste: 8064

GENERACION: 165
Mejor Solucion:  1 3 20 14 16 15 5 17 6 4 7 8 12 0 9 13 18 21 19 11 2 10
Coste: 8064

GENERACION: 166
Mejor Solucion:  1 3 20 14 16 15 5 17 6 4 7 8 12 0 9 13 18 21 19 11 2 10
Coste: 8064

GENERACION: 167
Mejor Solucion:  1 3 20 14 16 15 5 17 6 4 7 8 12 0 9 13 18 21 19 11 2 10
Coste: 8064

GENERACION: 168
Mejor Solucion:  1 3 20 14 16 15 5 17 6 4 7 8 12 0 9 13 18 21 19 11 2 10
Coste: 8064

GENERACION: 169
Mejor Solucion:  1 3 20 14 16 15 5 17 6 4 7 8 12 0 9 13 18 21 19 11 2 10
Coste: 8064

GENERACION: 170
Mejor Solucion:  1 3 20 14 16 15 5 17 6 4 7 8 12 0 9 13 18 21 19 11 2 10
Coste: 8064

GENERACION: 171
Mejor Solucion:  1 3 20 14 16 15 5 17 6 4 7 8 12 0 9 13 18 21 19 11 2 10
Coste: 8064

GENERACION: 172
Mejor Solucion:  1 3 20 14 16 15 5 17 6 4 7 8 12 0 9 13 18 21 19 11 2 10
Coste: 8064

GENERACION: 173
Mejor Solucion:  1 3 20 14 16 15 5 17 6 4 7 8 12 0 9 13 18 21 19 11 2 10
Coste: 8064

GENERACION: 174
Mejor Solucion:  1 3 20 14 16 15 5 17 6 4 7 8 12 0 9 13 18 21 19 11 2 10
Coste: 8064

GENERACION: 175
Mejor Solucion:  1 3 20 14 16 15 5 17 6 4 7 8 12 0 9 13 18 21 19 11 2 10
Coste: 8064

GENERACION: 176
Mejor Solucion:  1 3 20 14 16 15 5 17 6 4 7 8 12 0 9 13 18 21 19 11 2 10
Coste: 8064

GENERACION: 177
Mejor Solucion:  1 3 20 14 16 15 5 17 6 4 7 8 12 0 9 13 18 21 19 11 2 10
Coste: 8064

GENERACION: 178
Mejor Solucion:  1 3 20 14 16 15 5 17 6 4 7 8 12 0 9 13 18 21 19 11 2 10
Coste: 8064

GENERACION: 179
Mejor Solucion:  1 3 20 14 16 15 5 17 6 4 7 8 12 0 9 13 18 21 19 11 2 10
Coste: 8064

GENERACION: 180
Mejor Solucion:  1 3 20 14 16 15 5 17 6 4 7 8 12 0 9 13 18 21 19 11 2 10
Coste: 8064

GENERACION: 181
Mejor Solucion:  1 3 20 14 16 15 5 17 6 4 7 8 12 0 9 13 18 21 19 11 2 10
Coste: 8064

GENERACION: 182
Mejor Solucion:  1 3 20 14 16 15 5 17 6 4 7 8 12 0 9 13 18 21 19 11 2 10
Coste: 8064

GENERACION: 183
Mejor Solucion:  1 3 20 14 16 15 5 17 6 4 7 8 12 0 9 13 18 21 19 11 2 10
Coste: 8064

GENERACION: 184
Mejor Solucion:  1 3 20 14 16 15 5 17 6 4 7 8 12 0 9 13 18 21 19 11 2 10
Coste: 8064

GENERACION: 185
Mejor Solucion:  1 3 20 14 16 15 5 17 6 4 7 8 12 0 9 13 18 21 19 11 2 10
Coste: 8064

GENERACION: 186
Mejor Solucion:  1 3 20 14 16 15 5 17 6 4 7 8 12 0 9 13 18 21 19 11 2 10
Coste: 8064

GENERACION: 187
Mejor Solucion:  1 3 20 14 16 15 5 17 6 4 7 8 12 0 9 13 18 21 19 11 2 10
Coste: 8064

GENERACION: 188
Mejor Solucion:  1 3 20 14 16 15 5 17 6 4 7 8 12 0 9 13 18 21 19 11 2 10
Coste: 8064

GENERACION: 189
Mejor Solucion:  1 3 20 14 16 15 5 17 6 4 7 8 12 0 9 13 18 21 19 11 2 10
Coste: 8064

GENERACION: 190
Mejor Solucion:  1 3 20 14 16 15 5 17 6 4 7 8 12 0 9 13 18 21 19 11 2 10
Coste: 8064

GENERACION: 191
Mejor Solucion:  1 3 20 14 16 15 5 17 6 4 7 8 12 0 9 13 18 21 19 11 2 10
Coste: 8064

GENERACION: 192
Mejor Solucion:  1 3 20 14 16 15 5 17 6 4 7 8 12 0 9 13 18 21 19 11 2 10
Coste: 8064

GENERACION: 193
Mejor Solucion:  1 3 20 14 16 15 5 17 6 4 7 8 12 0 9 13 18 21 19 11 2 10
Coste: 8064

GENERACION: 194
Mejor Solucion:  1 3 20 14 16 15 5 17 6 4 7 8 12 0 9 13 18 21 19 11 2 10
Coste: 8064

GENERACION: 195
Mejor Solucion:  1 3 20 14 16 15 5 17 6 4 7 8 12 0 9 13 18 21 19 11 2 10
Coste: 8064

GENERACION: 196
Mejor Solucion:  1 3 20 14 16 15 5 17 6 4 7 8 12 0 9 13 18 21 19 11 2 10
Coste: 8064

GENERACION: 197
Mejor Solucion:  1 3 20 14 16 15 5 17 6 4 7 8 12 0 9 13 18 21 19 11 2 10
Coste: 8064

GENERACION: 198
Mejor Solucion:  1 3 20 14 16 15 5 17 6 4 7 8 12 0 9 13 18 21 19 11 2 10
Coste: 8064

GENERACION: 199
Mejor Solucion:  1 3 20 14 16 15 5 17 6 4 7 8 12 0 9 13 18 21 19 11 2 10
Coste: 8064

GENERACION: 200
Mejor Solucion:  1 3 20 14 16 15 5 17 6 4 7 8 12 0 9 13 18 21 19 11 2 10
Coste: 8064

GENERACION: 201
Mejor Solucion:  1 3 20 14 16 15 5 17 6 4 7 8 12 0 9 13 18 21 19 11 2 10
Coste: 8064

GENERACION: 202
Mejor Solucion:  1 3 20 14 16 15 5 17 6 4 7 8 12 0 9 13 18 21 19 11 2 10
Coste: 8064

GENERACION: 203
Mejor Solucion:  1 3 20 14 16 15 5 17 6 4 7 8 12 0 9 13 18 21 19 11 2 10
Coste: 8064

GENERACION: 204
Mejor Solucion:  1 3 20 14 16 15 5 17 6 4 7 8 12 0 9 13 18 21 19 11 2 10
Coste: 8064

GENERACION: 205
Mejor Solucion:  1 3 20 14 16 15 5 17 6 4 7 8 12 0 9 13 18 21 19 11 2 10
Coste: 8064

GENERACION: 206
Mejor Solucion:  1 3 20 14 16 15 5 17 6 4 7 8 12 0 9 13 18 21 19 11 2 10
Coste: 8064

GENERACION: 207
Mejor Solucion:  1 3 20 14 16 15 5 17 6 4 7 8 12 0 9 13 18 21 19 11 2 10
Coste: 8064

GENERACION: 208
Mejor Solucion:  1 3 20 14 16 15 5 17 6 4 7 8 12 0 9 13 18 21 19 11 2 10
Coste: 8064

GENERACION: 209
Mejor Solucion:  1 3 20 14 16 15 5 17 6 4 7 8 12 0 9 13 18 21 19 11 2 10
Coste: 8064

GENERACION: 210
Mejor Solucion:  1 3 20 14 16 15 5 17 6 4 7 8 12 0 9 13 18 21 19 11 2 10
Coste: 8064

GENERACION: 211
Mejor Solucion:  1 3 20 8 16 15 5 17 6 4 7 14 12 0 9 13 18 21 19 11 2 10
Coste: 7900

GENERACION: 212
Mejor Solucion:  1 3 20 8 16 15 5 17 6 4 7 14 12 0 9 13 18 21 19 11 2 10
Coste: 7900

GENERACION: 213
Mejor Solucion:  1 3 20 8 16 15 5 17 6 4 7 14 12 0 9 13 18 21 19 11 2 10
Coste: 7900

GENERACION: 214
Mejor Solucion:  1 3 20 8 16 15 5 17 6 4 7 14 12 0 9 13 18 21 19 11 2 10
Coste: 7900

GENERACION: 215
Mejor Solucion:  1 3 20 8 16 15 5 17 6 4 7 14 12 0 9 13 18 21 19 11 2 10
Coste: 7900

GENERACION: 216
Mejor Solucion:  1 3 20 8 16 15 5 17 6 4 7 14 12 0 9 13 18 21 19 11 2 10
Coste: 7900

GENERACION: 217
Mejor Solucion:  1 3 20 8 16 15 5 17 6 4 7 14 12 0 9 13 18 21 19 11 2 10
Coste: 7900

GENERACION: 218
Mejor Solucion:  1 3 20 16 8 15 5 17 6 4 7 14 12 0 9 13 18 21 19 11 2 10
Coste: 7850

GENERACION: 219
Mejor Solucion:  1 3 20 16 8 15 5 17 6 4 7 14 12 0 9 13 18 21 19 11 2 10
Coste: 7850

GENERACION: 220
Mejor Solucion:  1 3 20 16 8 15 5 17 6 4 7 14 12 0 9 13 18 21 19 11 2 10
Coste: 7850

GENERACION: 221
Mejor Solucion:  1 3 20 16 8 15 5 17 6 4 7 14 12 0 9 13 18 21 19 11 2 10
Coste: 7800

GENERACION: 222
Mejor Solucion:  1 3 20 16 8 15 5 17 6 4 7 14 12 0 9 13 18 21 19 11 2 10
Coste: 7800

GENERACION: 223
Mejor Solucion:  1 3 20 16 8 15 5 17 6 4 7 14 12 0 9 13 18 21 19 11 2 10
Coste: 7800

GENERACION: 224
Mejor Solucion:  1 3 20 16 8 15 5 17 6 4 7 14 12 0 9 13 18 21 19 11 2 10
Coste: 7800

GENERACION: 225
Mejor Solucion:  1 3 20 16 8 15 5 17 6 4 7 14 12 0 9 13 18 21 19 11 2 10
Coste: 7800

GENERACION: 226
Mejor Solucion:  1 3 20 16 8 15 5 17 6 4 7 14 12 0 9 13 18 21 19 11 2 10
Coste: 7800

GENERACION: 227
Mejor Solucion:  1 3 20 16 8 15 5 17 6 4 7 14 12 0 9 13 18 21 19 11 2 10
Coste: 7800

GENERACION: 228
Mejor Solucion:  1 3 20 16 8 15 5 17 6 4 7 14 12 0 9 13 18 21 19 11 2 10
Coste: 7800

GENERACION: 229
Mejor Solucion:  1 3 20 16 8 15 5 17 6 4 7 14 12 0 9 13 18 21 19 11 2 10
Coste: 7800

GENERACION: 230
Mejor Solucion:  1 3 20 16 8 15 5 17 6 4 7 14 12 0 9 13 18 21 19 11 2 10
Coste: 7800

GENERACION: 231
Mejor Solucion:  1 3 20 16 8 15 5 17 6 4 7 14 12 0 9 13 18 21 19 11 2 10
Coste: 7800

GENERACION: 232
Mejor Solucion:  1 3 20 16 8 15 5 17 6 4 7 14 12 0 9 13 18 21 19 11 2 10
Coste: 7800

GENERACION: 233
Mejor Solucion:  1 3 20 16 8 15 5 17 6 4 7 14 12 0 9 13 18 21 19 11 2 10
Coste: 7800

GENERACION: 234
Mejor Solucion:  1 3 20 16 8 15 5 17 6 4 7 14 12 0 9 13 18 21 19 11 2 10
Coste: 7800

GENERACION: 235
Mejor Solucion:  1 3 20 16 8 15 5 17 6 4 7 14 12 0 9 13 18 21 19 11 2 10
Coste: 7800

GENERACION: 236
Mejor Solucion:  1 3 20 16 8 15 5 17 6 4 7 14 12 0 9 13 18 21 19 11 2 10
Coste: 7800

GENERACION: 237
Mejor Solucion:  1 3 20 16 8 15 5 17 6 4 7 14 12 0 9 13 18 21 19 11 2 10
Coste: 7800

GENERACION: 238
Mejor Solucion:  1 3 20 16 8 15 5 17 6 4 7 14 12 0 9 13 18 21 19 11 2 10
Coste: 7800

GENERACION: 239
Mejor Solucion:  1 3 20 16 8 15 5 17 6 4 7 14 12 0 9 13 18 21 19 11 2 10
Coste: 7800

GENERACION: 240
Mejor Solucion:  1 3 20 16 8 15 5 17 6 4 7 14 12 0 9 13 18 21 19 11 2 10
Coste: 7800

GENERACION: 241
Mejor Solucion:  1 3 20 16 8 15 5 17 6 4 7 14 12 0 9 13 18 21 19 11 2 10
Coste: 7800

GENERACION: 242
Mejor Solucion:  1 3 20 16 8 15 5 17 6 4 7 14 12 0 9 13 18 21 19 11 2 10
Coste: 7800

GENERACION: 243
Mejor Solucion:  1 3 20 16 8 15 5 17 6 4 7 14 12 0 9 13 18 21 19 11 2 10
Coste: 7800

GENERACION: 244
Mejor Solucion:  1 3 20 16 8 15 5 17 6 4 7 14 12 0 9 13 18 21 19 11 2 10
Coste: 7800

GENERACION: 245
Mejor Solucion:  1 3 20 16 8 15 5 17 6 4 7 14 12 0 9 13 18 21 19 11 2 10
Coste: 7800

GENERACION: 246
Mejor Solucion:  1 3 20 16 8 15 5 17 6 4 7 14 12 0 9 13 18 21 19 11 2 10
Coste: 7800

GENERACION: 247
Mejor Solucion:  1 3 20 16 8 15 5 17 6 4 7 14 12 0 9 13 18 21 19 11 2 10
Coste: 7800

GENERACION: 248
Mejor Solucion:  1 3 20 16 8 15 5 17 6 4 7 14 12 0 9 13 18 21 19 11 2 10
Coste: 7800

GENERACION: 249
Mejor Solucion:  1 3 20 16 8 15 5 17 6 4 7 14 12 0 9 13 18 21 19 11 2 10
Coste: 7800

GENERACION: 250
Mejor Solucion:  1 3 20 16 8 15 5 17 6 4 7 14 12 0 9 13 18 21 19 11 2 10
Coste: 7800

GENERACION: 251
Mejor Solucion:  1 3 20 16 8 15 5 17 6 4 7 14 12 0 9 13 18 21 19 11 2 10
Coste: 7800

GENERACION: 252
Mejor Solucion:  1 3 20 16 8 15 5 17 6 4 7 14 12 0 9 13 18 21 19 11 2 10
Coste: 7800

GENERACION: 253
Mejor Solucion:  1 3 20 16 8 15 5 17 6 4 7 14 12 0 9 13 18 21 19 11 2 10
Coste: 7800

GENERACION: 254
Mejor Solucion:  1 3 20 16 8 15 5 17 6 4 7 14 12 0 9 13 18 21 19 11 2 10
Coste: 7800

GENERACION: 255
Mejor Solucion:  1 3 20 16 8 15 5 17 6 4 7 14 12 0 9 13 18 21 19 11 2 10
Coste: 7800

GENERACION: 256
Mejor Solucion:  1 3 20 16 8 15 5 17 6 4 7 14 12 0 9 13 18 21 19 11 2 10
Coste: 7800

GENERACION: 257
Mejor Solucion:  1 3 20 16 8 15 5 17 6 4 7 14 12 0 9 13 18 21 19 11 2 10
Coste: 7800

GENERACION: 258
Mejor Solucion:  1 3 20 16 8 15 5 17 6 4 7 14 12 0 9 13 18 21 19 11 2 10
Coste: 7800

GENERACION: 259
Mejor Solucion:  1 3 6 5 8 15 16 17 20 4 7 14 12 0 9 13 18 21 19 11 2 10
Coste: 7783

GENERACION: 260
Mejor Solucion:  1 3 6 5 8 15 16 17 20 4 7 14 12 0 9 13 18 21 19 11 2 10
Coste: 7760

GENERACION: 261
Mejor Solucion:  1 3 6 5 8 15 16 17 20 4 7 14 12 0 9 13 18 21 19 11 2 10
Coste: 7760

GENERACION: 262
Mejor Solucion:  1 3 6 5 8 15 16 17 20 4 7 14 12 0 9 13 18 21 19 11 2 10
Coste: 7760

GENERACION: 263
Mejor Solucion:  1 3 6 5 8 15 16 17 20 4 7 14 12 0 9 13 18 21 19 11 2 10
Coste: 7760

GENERACION: 264
Mejor Solucion:  1 3 6 5 8 15 16 17 20 4 7 14 12 0 9 13 18 21 19 11 2 10
Coste: 7760

GENERACION: 265
Mejor Solucion:  1 3 6 5 8 15 16 17 20 4 7 14 12 0 9 13 18 21 19 11 2 10
Coste: 7760

GENERACION: 266
Mejor Solucion:  1 3 6 5 8 15 16 17 20 4 7 14 12 0 9 13 18 21 19 11 2 10
Coste: 7760

GENERACION: 267
Mejor Solucion:  1 3 6 5 8 15 16 17 20 4 7 14 12 0 9 13 18 21 19 11 2 10
Coste: 7760

GENERACION: 268
Mejor Solucion:  1 3 6 5 8 15 16 17 20 4 7 14 12 0 9 13 18 21 19 11 2 10
Coste: 7760

GENERACION: 269
Mejor Solucion:  1 3 6 5 8 15 16 17 20 4 7 14 12 0 9 13 18 21 19 11 2 10
Coste: 7760

GENERACION: 270
Mejor Solucion:  1 3 6 5 8 15 16 17 20 4 7 14 12 0 9 13 18 21 19 11 2 10
Coste: 7760

GENERACION: 271
Mejor Solucion:  1 3 6 5 8 15 16 17 20 4 7 14 12 0 9 13 18 21 19 11 2 10
Coste: 7760

GENERACION: 272
Mejor Solucion:  1 3 6 5 8 15 16 17 20 4 7 14 12 0 9 13 18 21 19 11 2 10
Coste: 7760

GENERACION: 273
Mejor Solucion:  1 3 6 5 8 15 16 17 20 4 7 14 12 0 9 13 18 21 19 11 2 10
Coste: 7760

GENERACION: 274
Mejor Solucion:  1 3 6 5 8 15 16 17 20 4 7 14 12 0 9 13 18 21 19 11 2 10
Coste: 7760

GENERACION: 275
Mejor Solucion:  1 3 6 5 8 15 16 17 20 4 7 14 12 0 9 13 18 21 19 11 2 10
Coste: 7760

GENERACION: 276
Mejor Solucion:  1 3 6 5 8 15 16 17 20 4 7 14 12 0 9 13 18 21 19 11 2 10
Coste: 7760

GENERACION: 277
Mejor Solucion:  1 3 6 5 8 15 16 17 20 4 7 14 12 0 9 13 18 21 19 11 2 10
Coste: 7760

GENERACION: 278
Mejor Solucion:  1 3 6 5 8 15 16 17 20 4 7 14 12 0 9 13 18 21 19 11 2 10
Coste: 7760

GENERACION: 279
Mejor Solucion:  1 3 6 5 8 15 16 17 20 4 7 14 12 0 9 13 18 21 19 11 2 10
Coste: 7760

GENERACION: 280
Mejor Solucion:  1 3 6 5 8 15 16 17 20 4 7 14 12 0 9 13 18 21 19 11 2 10
Coste: 7760

GENERACION: 281
Mejor Solucion:  1 3 6 5 8 15 16 17 20 4 7 14 12 0 9 13 18 21 19 11 2 10
Coste: 7760

GENERACION: 282
Mejor Solucion:  1 3 6 5 8 15 16 17 20 4 7 12 14 0 9 13 18 21 19 11 2 10
Coste: 7738

GENERACION: 283
Mejor Solucion:  1 3 6 5 8 15 16 17 20 4 7 12 14 0 9 13 18 21 19 11 2 10
Coste: 7738

GENERACION: 284
Mejor Solucion:  1 3 6 5 8 15 16 17 20 4 7 12 14 0 9 13 18 21 19 11 2 10
Coste: 7716

GENERACION: 285
Mejor Solucion:  1 3 6 5 8 15 16 17 20 4 7 12 14 0 9 13 18 21 19 11 2 10
Coste: 7716

GENERACION: 286
Mejor Solucion:  1 3 6 5 8 15 16 17 20 4 7 12 14 0 9 13 18 21 19 11 2 10
Coste: 7716

GENERACION: 287
Mejor Solucion:  1 3 6 5 8 15 16 17 20 4 7 12 14 0 9 13 18 21 19 11 2 10
Coste: 7716

GENERACION: 288
Mejor Solucion:  1 3 6 5 8 15 16 17 20 4 7 12 14 0 9 13 18 21 19 11 2 10
Coste: 7716

GENERACION: 289
Mejor Solucion:  1 3 6 5 8 15 16 17 20 4 7 12 14 0 9 13 18 21 19 11 2 10
Coste: 7716

GENERACION: 290
Mejor Solucion:  1 3 6 5 8 15 16 17 20 4 7 12 14 0 9 13 18 21 19 11 2 10
Coste: 7716

GENERACION: 291
Mejor Solucion:  1 3 6 5 8 15 16 17 20 4 7 12 14 0 9 13 18 21 19 11 2 10
Coste: 7716

GENERACION: 292
Mejor Solucion:  1 3 6 5 8 15 16 17 20 4 7 12 14 0 9 13 18 21 19 11 2 10
Coste: 7716

GENERACION: 293
Mejor Solucion:  1 3 6 5 8 15 16 17 20 4 7 12 14 0 9 13 18 21 19 11 2 10
Coste: 7716

GENERACION: 294
Mejor Solucion:  1 3 6 5 8 15 16 17 20 4 7 12 14 0 9 13 18 21 19 11 2 10
Coste: 7716

GENERACION: 295
Mejor Solucion:  1 3 6 5 8 15 16 17 20 4 7 12 14 0 9 13 18 21 19 11 2 10
Coste: 7716

GENERACION: 296
Mejor Solucion:  1 3 6 5 8 15 16 17 20 4 7 12 14 0 9 13 18 21 19 11 2 10
Coste: 7716

GENERACION: 297
Mejor Solucion:  1 3 6 5 8 15 16 17 20 4 7 12 14 0 9 13 18 21 19 11 2 10
Coste: 7716

GENERACION: 298
Mejor Solucion:  1 3 6 5 8 15 16 17 20 4 7 12 14 0 9 13 18 21 19 11 2 10
Coste: 7716

GENERACION: 299
Mejor Solucion:  1 3 6 5 8 15 16 17 20 4 7 12 14 0 9 13 18 21 19 11 2 10
Coste: 7716

GENERACION: 300
Mejor Solucion:  1 3 6 5 8 15 16 17 20 4 7 12 14 0 9 13 18 21 19 11 2 10
Coste: 7716

GENERACION: 301
Mejor Solucion:  1 3 6 5 8 15 16 17 20 4 7 12 14 0 9 13 18 21 19 11 2 10
Coste: 7716

GENERACION: 302
Mejor Solucion:  1 3 6 5 8 15 16 17 20 4 7 12 14 0 9 13 18 21 19 11 2 10
Coste: 7716

GENERACION: 303
Mejor Solucion:  1 3 6 5 8 15 16 17 20 4 7 12 14 0 9 13 18 21 19 11 2 10
Coste: 7716

GENERACION: 304
Mejor Solucion:  1 3 6 5 8 15 16 17 20 4 7 12 14 0 9 13 18 21 19 11 2 10
Coste: 7716

GENERACION: 305
Mejor Solucion:  1 3 6 5 8 15 16 17 20 4 7 12 14 0 9 13 18 21 19 11 2 10
Coste: 7716

GENERACION: 306
Mejor Solucion:  1 3 6 5 8 15 16 17 20 4 7 12 14 0 9 13 18 21 19 11 2 10
Coste: 7716

GENERACION: 307
Mejor Solucion:  1 3 6 5 8 15 16 17 20 4 7 12 14 0 19 13 18 21 9 11 2 10
Coste: 7616

GENERACION: 308
Mejor Solucion:  1 3 6 5 8 15 16 17 20 4 7 12 14 0 19 13 18 21 9 11 2 10
Coste: 7616

GENERACION: 309
Mejor Solucion:  1 3 6 5 8 15 16 17 20 4 7 12 14 0 19 13 18 21 9 11 2 10
Coste: 7616

GENERACION: 310
Mejor Solucion:  1 3 6 5 8 15 16 17 20 4 7 12 14 0 19 13 18 21 9 11 2 10
Coste: 7616

GENERACION: 311
Mejor Solucion:  1 3 6 5 8 15 16 17 20 4 7 12 14 0 19 13 18 21 9 11 2 10
Coste: 7616

GENERACION: 312
Mejor Solucion:  1 3 6 5 8 15 16 17 20 4 7 12 14 0 19 13 18 21 9 11 2 10
Coste: 7616

GENERACION: 313
Mejor Solucion:  1 3 6 5 8 15 16 17 20 4 7 12 14 0 19 13 18 21 9 11 2 10
Coste: 7616

GENERACION: 314
Mejor Solucion:  1 3 6 5 8 15 16 17 20 4 7 12 14 0 19 13 18 21 9 11 2 10
Coste: 7616

GENERACION: 315
Mejor Solucion:  1 3 6 5 8 15 16 17 20 4 7 12 14 0 19 13 18 21 9 11 2 10
Coste: 7616

GENERACION: 316
Mejor Solucion:  1 3 6 5 8 15 16 17 20 4 7 12 14 0 19 13 18 21 9 11 2 10
Coste: 7616

GENERACION: 317
Mejor Solucion:  1 3 6 5 8 15 16 17 20 4 7 12 14 0 19 13 18 21 9 11 2 10
Coste: 7616

GENERACION: 318
Mejor Solucion:  1 3 6 5 8 15 16 17 20 4 7 12 14 0 19 13 18 21 9 11 2 10
Coste: 7616

GENERACION: 319
Mejor Solucion:  1 3 6 5 8 15 16 17 20 4 7 12 14 0 19 13 18 21 9 11 2 10
Coste: 7616

GENERACION: 320
Mejor Solucion:  1 3 6 5 8 15 16 17 20 4 7 12 14 0 19 13 18 21 9 11 2 10
Coste: 7616

GENERACION: 321
Mejor Solucion:  1 3 6 5 8 15 16 17 20 4 7 12 14 0 19 13 18 21 9 11 2 10
Coste: 7616

GENERACION: 322
Mejor Solucion:  1 3 6 5 8 15 16 17 20 4 7 12 14 0 19 13 18 21 9 11 2 10
Coste: 7616

GENERACION: 323
Mejor Solucion:  1 3 6 5 8 15 16 17 20 4 7 12 14 0 19 13 18 21 9 11 2 10
Coste: 7616

GENERACION: 324
Mejor Solucion:  1 3 6 5 8 15 16 17 20 4 7 12 14 0 19 13 18 21 9 11 2 10
Coste: 7616

GENERACION: 325
Mejor Solucion:  1 3 6 5 8 15 16 17 20 4 7 12 14 0 19 13 18 21 9 11 2 10
Coste: 7616

GENERACION: 326
Mejor Solucion:  1 3 6 5 8 15 16 17 20 4 7 12 14 0 19 13 18 21 9 11 2 10
Coste: 7616

GENERACION: 327
Mejor Solucion:  1 3 6 5 8 15 16 17 20 4 7 12 14 0 19 13 18 21 9 11 2 10
Coste: 7616

GENERACION: 328
Mejor Solucion:  1 3 6 5 8 15 16 17 20 4 7 12 14 0 19 13 18 21 9 11 2 10
Coste: 7616

GENERACION: 329
Mejor Solucion:  1 3 6 5 8 15 16 17 20 4 7 12 14 0 19 13 18 21 9 11 2 10
Coste: 7616

GENERACION: 330
Mejor Solucion:  1 3 6 5 8 15 16 17 20 4 7 12 14 0 19 13 18 21 9 11 2 10
Coste: 7616

GENERACION: 331
Mejor Solucion:  1 3 6 5 8 15 16 17 20 4 7 12 14 0 19 13 18 21 9 11 2 10
Coste: 7616

GENERACION: 332
Mejor Solucion:  1 3 6 5 8 15 16 17 20 4 7 12 14 0 19 13 18 21 9 11 2 10
Coste: 7616

GENERACION: 333
Mejor Solucion:  1 3 6 5 8 15 16 17 20 4 7 12 14 0 19 13 18 21 9 11 2 10
Coste: 7616

GENERACION: 334
Mejor Solucion:  1 3 6 5 8 15 16 17 20 4 7 12 14 0 19 13 18 21 9 11 2 10
Coste: 7616

GENERACION: 335
Mejor Solucion:  1 3 6 5 8 15 16 17 20 4 7 12 14 0 19 13 18 21 9 11 2 10
Coste: 7616

GENERACION: 336
Mejor Solucion:  1 3 6 5 8 15 16 17 20 4 7 12 14 0 19 13 18 21 9 11 2 10
Coste: 7616

GENERACION: 337
Mejor Solucion:  1 3 6 5 8 15 16 17 20 4 7 12 14 0 19 13 18 21 9 11 2 10
Coste: 7616

GENERACION: 338
Mejor Solucion:  1 3 6 5 8 15 16 17 20 4 7 12 14 0 19 13 18 21 9 11 2 10
Coste: 7616

GENERACION: 339
Mejor Solucion:  1 3 6 5 8 15 16 17 20 4 7 12 14 0 19 13 18 21 9 11 2 10
Coste: 7616

GENERACION: 340
Mejor Solucion:  1 3 6 5 8 15 16 17 20 4 7 12 14 0 19 13 18 21 9 11 2 10
Coste: 7616

GENERACION: 341
Mejor Solucion:  1 3 6 5 8 15 16 17 20 4 7 12 14 0 19 13 18 21 9 11 2 10
Coste: 7616

GENERACION: 342
Mejor Solucion:  1 3 6 5 8 15 16 17 20 4 7 12 14 0 19 13 18 21 9 11 2 10
Coste: 7616

GENERACION: 343
Mejor Solucion:  1 3 6 5 8 15 16 17 20 4 7 12 14 0 19 13 18 21 9 11 2 10
Coste: 7616

GENERACION: 344
Mejor Solucion:  1 3 6 5 8 15 16 17 20 4 7 12 14 0 19 13 18 21 9 11 2 10
Coste: 7616

GENERACION: 345
Mejor Solucion:  1 3 6 5 8 15 16 17 20 4 7 12 14 0 19 13 18 21 9 11 2 10
Coste: 7616

GENERACION: 346
Mejor Solucion:  1 3 6 5 8 15 16 17 20 4 7 12 14 0 19 13 18 21 9 11 2 10
Coste: 7616

GENERACION: 347
Mejor Solucion:  1 3 6 5 8 15 16 17 20 4 7 12 14 0 19 13 18 21 9 11 2 10
Coste: 7616

GENERACION: 348
Mejor Solucion:  1 3 6 5 8 15 16 17 20 4 7 12 14 0 19 13 18 21 9 11 2 10
Coste: 7616

GENERACION: 349
Mejor Solucion:  1 3 6 5 8 15 16 17 20 4 7 12 14 0 19 13 18 21 9 11 2 10
Coste: 7616

GENERACION: 350
Mejor Solucion:  1 3 6 5 8 15 16 17 20 4 7 12 14 0 19 13 18 21 9 11 2 10
Coste: 7616

GENERACION: 351
Mejor Solucion:  1 3 6 5 8 15 16 17 20 4 7 12 14 0 19 13 18 21 9 11 2 10
Coste: 7616

GENERACION: 352
Mejor Solucion:  1 3 6 5 8 15 16 17 20 4 7 12 14 0 19 13 18 21 9 11 2 10
Coste: 7616

GENERACION: 353
Mejor Solucion:  1 3 6 5 8 15 16 17 20 4 7 12 14 0 19 13 18 21 9 11 2 10
Coste: 7616

GENERACION: 354
Mejor Solucion:  1 3 6 5 8 15 16 17 20 4 7 12 14 0 19 13 18 21 9 11 2 10
Coste: 7616

GENERACION: 355
Mejor Solucion:  1 3 6 5 8 15 16 17 20 4 7 12 14 0 19 13 18 21 9 11 2 10
Coste: 7616

GENERACION: 356
Mejor Solucion:  1 3 6 5 8 15 16 17 20 4 7 12 14 0 19 13 18 21 9 11 2 10
Coste: 7616

GENERACION: 357
Mejor Solucion:  1 3 6 5 8 15 16 17 20 4 7 12 14 0 19 13 18 21 9 11 2 10
Coste: 7616

GENERACION: 358
Mejor Solucion:  1 3 6 5 8 15 16 17 20 4 7 12 14 0 19 13 18 21 9 11 2 10
Coste: 7616

GENERACION: 359
Mejor Solucion:  1 3 6 5 8 15 16 17 20 4 7 12 14 0 19 13 18 21 9 11 2 10
Coste: 7616

GENERACION: 360
Mejor Solucion:  1 3 6 5 8 15 16 17 20 4 7 12 14 0 19 13 18 21 9 11 2 10
Coste: 7616

GENERACION: 361
Mejor Solucion:  1 3 6 5 8 15 16 17 20 4 7 12 14 0 19 13 18 21 9 11 2 10
Coste: 7616

GENERACION: 362
Mejor Solucion:  1 3 6 5 8 15 16 17 20 4 7 12 14 0 19 13 18 21 9 11 2 10
Coste: 7616

GENERACION: 363
Mejor Solucion:  1 3 6 5 8 15 16 17 20 4 7 12 14 0 19 13 18 21 9 11 2 10
Coste: 7616

GENERACION: 364
Mejor Solucion:  1 3 6 5 8 15 16 17 20 4 7 12 14 0 19 13 18 21 9 11 2 10
Coste: 7616

GENERACION: 365
Mejor Solucion:  1 3 6 5 8 15 16 17 20 4 7 12 14 0 19 13 18 21 9 11 2 10
Coste: 7616

GENERACION: 366
Mejor Solucion:  1 3 6 5 8 15 16 17 20 4 7 12 14 0 19 13 18 21 9 11 2 10
Coste: 7616

GENERACION: 367
Mejor Solucion:  1 3 6 5 8 15 16 17 20 4 7 12 14 0 19 13 18 21 9 11 2 10
Coste: 7616

GENERACION: 368
Mejor Solucion:  1 3 6 5 8 15 16 17 20 4 7 12 14 0 19 13 18 21 9 11 2 10
Coste: 7616

GENERACION: 369
Mejor Solucion:  1 3 6 5 8 15 16 17 20 4 7 12 14 0 19 13 18 21 9 11 2 10
Coste: 7616

GENERACION: 370
Mejor Solucion:  1 3 6 5 8 15 16 17 20 4 7 12 14 0 19 13 18 21 9 11 2 10
Coste: 7616

GENERACION: 371
Mejor Solucion:  1 3 6 5 8 15 16 17 20 4 7 12 14 0 19 13 18 21 9 11 2 10
Coste: 7616

GENERACION: 372
Mejor Solucion:  1 3 6 5 8 15 16 17 20 4 7 12 14 0 19 13 18 21 9 11 2 10
Coste: 7616

GENERACION: 373
Mejor Solucion:  1 3 6 5 8 15 16 17 20 4 7 12 14 0 19 13 18 21 9 11 2 10
Coste: 7616

GENERACION: 374
Mejor Solucion:  1 3 6 5 8 15 16 17 20 4 7 12 14 0 19 13 18 21 9 11 2 10
Coste: 7616

GENERACION: 375
Mejor Solucion:  1 3 6 5 8 15 16 17 20 4 7 12 14 0 19 13 18 21 9 11 2 10
Coste: 7616

GENERACION: 376
Mejor Solucion:  1 3 6 5 8 15 16 17 20 4 7 12 14 0 19 13 18 21 9 11 2 10
Coste: 7616

GENERACION: 377
Mejor Solucion:  1 3 6 5 8 15 16 17 20 4 7 12 14 0 19 13 18 21 9 11 2 10
Coste: 7616

GENERACION: 378
Mejor Solucion:  1 3 6 5 8 15 16 17 20 4 7 12 14 0 19 13 18 21 9 11 2 10
Coste: 7616

GENERACION: 379
Mejor Solucion:  1 3 6 5 8 15 16 17 20 4 7 12 14 0 19 13 18 21 9 11 2 10
Coste: 7616

GENERACION: 380
Mejor Solucion:  1 3 6 5 8 15 16 17 20 4 7 12 14 0 19 13 18 21 9 11 2 10
Coste: 7616

GENERACION: 381
Mejor Solucion:  1 3 6 5 8 15 16 17 20 4 7 12 14 0 19 13 18 21 9 11 2 10
Coste: 7616

GENERACION: 382
Mejor Solucion:  1 3 6 5 8 15 16 17 20 4 21 12 14 0 19 13 18 7 9 11 2 10
Coste: 7580

GENERACION: 383
Mejor Solucion:  1 3 6 5 8 15 16 17 20 4 21 12 14 0 19 13 18 7 9 11 2 10
Coste: 7580

GENERACION: 384
Mejor Solucion:  1 3 6 5 8 15 16 17 20 4 21 12 14 0 19 13 18 7 9 11 2 10
Coste: 7580

GENERACION: 385
Mejor Solucion:  1 3 6 5 8 15 16 17 20 4 21 12 14 0 19 13 18 7 9 11 2 10
Coste: 7580

GENERACION: 386
Mejor Solucion:  1 3 6 5 8 15 16 17 20 4 21 12 14 0 19 13 18 7 9 11 2 10
Coste: 7580

GENERACION: 387
Mejor Solucion:  1 3 6 5 8 15 16 17 20 4 21 12 14 0 19 13 18 7 9 11 2 10
Coste: 7580

GENERACION: 388
Mejor Solucion:  1 3 6 5 8 15 16 17 20 4 21 12 14 0 19 13 18 7 9 11 2 10
Coste: 7580

GENERACION: 389
Mejor Solucion:  1 3 6 5 8 15 16 17 20 4 21 12 14 0 19 13 18 7 9 11 2 10
Coste: 7580

GENERACION: 390
Mejor Solucion:  1 3 6 5 8 15 16 17 20 4 21 12 14 0 19 13 18 7 9 11 2 10
Coste: 7580

GENERACION: 391
Mejor Solucion:  1 3 6 5 8 15 16 17 20 4 21 12 14 0 19 13 18 7 9 11 2 10
Coste: 7580

GENERACION: 392
Mejor Solucion:  1 3 6 5 8 15 16 17 20 4 21 12 14 0 19 13 18 7 9 11 2 10
Coste: 7580

GENERACION: 393
Mejor Solucion:  1 3 6 5 8 15 16 17 20 4 21 12 14 0 19 13 18 7 9 11 2 10
Coste: 7580

GENERACION: 394
Mejor Solucion:  1 3 6 5 8 15 16 17 20 4 21 12 14 0 19 13 18 7 9 11 2 10
Coste: 7580

GENERACION: 395
Mejor Solucion:  1 3 6 5 8 15 16 17 20 4 21 12 14 0 19 13 18 7 9 11 2 10
Coste: 7580

GENERACION: 396
Mejor Solucion:  1 3 6 5 8 15 16 17 20 4 21 12 14 0 19 13 18 7 9 11 2 10
Coste: 7580

GENERACION: 397
Mejor Solucion:  1 3 6 5 8 15 16 17 20 4 21 12 14 0 19 13 18 7 9 11 2 10
Coste: 7580

GENERACION: 398
Mejor Solucion:  1 3 6 5 8 15 16 17 20 4 21 12 14 0 19 13 18 7 9 11 2 10
Coste: 7580

GENERACION: 399
Mejor Solucion:  1 3 6 5 8 15 16 17 20 4 21 12 14 0 19 13 18 7 9 11 2 10
Coste: 7580

GENERACION: 400
Mejor Solucion:  1 3 6 5 8 15 16 17 20 4 21 12 14 0 19 13 18 7 9 11 2 10
Coste: 7580

GENERACION: 401
Mejor Solucion:  1 3 6 5 8 15 16 17 20 4 21 12 14 0 19 13 18 7 9 11 2 10
Coste: 7580

GENERACION: 402
Mejor Solucion:  1 3 6 5 8 15 16 17 20 4 21 12 14 0 19 13 18 7 9 11 2 10
Coste: 7580

GENERACION: 403
Mejor Solucion:  1 3 6 5 8 15 16 17 20 4 21 12 14 0 19 13 18 7 9 11 2 10
Coste: 7580

GENERACION: 404
Mejor Solucion:  1 3 6 5 8 15 16 17 20 4 21 12 14 0 19 13 18 7 9 11 2 10
Coste: 7580

GENERACION: 405
Mejor Solucion:  1 3 6 5 8 15 16 17 20 4 21 12 14 0 19 13 18 7 9 11 2 10
Coste: 7580

GENERACION: 406
Mejor Solucion:  1 3 6 5 8 15 16 17 20 4 21 12 14 0 19 13 18 7 9 11 2 10
Coste: 7580

GENERACION: 407
Mejor Solucion:  1 3 6 5 8 15 16 17 20 4 21 12 14 0 19 13 18 7 9 11 2 10
Coste: 7580

GENERACION: 408
Mejor Solucion:  1 3 6 5 8 15 16 17 20 4 21 12 14 0 19 13 18 7 9 11 2 10
Coste: 7580

GENERACION: 409
Mejor Solucion:  1 3 6 5 8 15 16 17 20 4 21 12 14 0 19 13 18 7 9 11 2 10
Coste: 7580

GENERACION: 410
Mejor Solucion:  1 3 6 5 8 15 16 17 20 4 21 12 14 0 19 13 18 7 9 11 2 10
Coste: 7580

GENERACION: 411
Mejor Solucion:  1 3 6 5 8 15 16 17 20 4 21 12 14 0 19 13 18 7 9 11 2 10
Coste: 7580

GENERACION: 412
Mejor Solucion:  1 3 6 5 8 15 16 17 20 4 21 12 14 0 19 13 18 7 9 11 2 10
Coste: 7580

GENERACION: 413
Mejor Solucion:  1 3 6 5 8 15 16 17 20 4 21 12 14 0 19 13 18 7 9 11 2 10
Coste: 7580

GENERACION: 414
Mejor Solucion:  1 3 6 5 8 15 16 17 20 4 21 12 14 0 19 13 18 7 9 11 2 10
Coste: 7580

GENERACION: 415
Mejor Solucion:  1 3 6 5 8 15 16 17 20 4 21 12 14 0 19 13 18 7 9 11 2 10
Coste: 7580

GENERACION: 416
Mejor Solucion:  1 3 6 5 8 15 16 17 20 4 21 12 14 0 19 13 18 7 9 11 2 10
Coste: 7580

GENERACION: 417
Mejor Solucion:  1 3 6 5 8 15 16 17 20 4 21 12 14 0 19 13 18 7 9 11 2 10
Coste: 7580

GENERACION: 418
Mejor Solucion:  1 3 6 5 8 15 16 17 20 4 21 12 14 0 19 13 18 7 9 11 2 10
Coste: 7580

GENERACION: 419
Mejor Solucion:  1 3 6 5 8 15 16 17 20 4 21 12 14 0 19 13 18 7 9 11 2 10
Coste: 7580

GENERACION: 420
Mejor Solucion:  1 3 6 5 8 15 16 17 20 4 21 12 14 0 19 13 18 7 9 11 2 10
Coste: 7580

GENERACION: 421
Mejor Solucion:  1 3 6 5 8 15 16 17 20 4 21 12 14 0 19 13 18 7 9 11 2 10
Coste: 7580

GENERACION: 422
Mejor Solucion:  1 3 6 5 8 15 16 17 20 4 21 12 14 0 19 13 18 7 9 11 2 10
Coste: 7580

GENERACION: 423
Mejor Solucion:  1 3 6 5 8 15 16 17 20 4 21 12 14 0 19 13 18 7 9 11 2 10
Coste: 7580

GENERACION: 424
Mejor Solucion:  1 3 6 5 8 15 16 17 20 4 21 12 14 0 19 13 18 7 9 11 2 10
Coste: 7580

GENERACION: 425
Mejor Solucion:  1 3 6 5 8 15 16 17 20 4 21 12 14 0 19 13 18 7 9 11 2 10
Coste: 7580

GENERACION: 426
Mejor Solucion:  1 3 6 5 8 15 16 17 20 4 21 12 14 0 19 13 18 7 9 11 2 10
Coste: 7580

GENERACION: 427
Mejor Solucion:  1 3 6 5 8 15 16 17 20 4 21 12 14 0 19 13 18 7 9 11 2 10
Coste: 7580

GENERACION: 428
Mejor Solucion:  1 3 6 5 8 15 16 17 20 4 21 12 14 0 19 13 18 7 9 11 2 10
Coste: 7580

GENERACION: 429
Mejor Solucion:  1 3 6 5 8 15 16 17 20 4 21 12 14 0 19 13 18 7 9 11 2 10
Coste: 7580

GENERACION: 430
Mejor Solucion:  1 3 6 5 8 15 16 17 20 4 21 12 14 0 19 13 18 7 9 11 2 10
Coste: 7580

GENERACION: 431
Mejor Solucion:  1 3 6 5 8 15 16 17 20 4 21 12 14 0 19 13 18 7 9 11 2 10
Coste: 7580

GENERACION: 432
Mejor Solucion:  1 3 6 5 8 15 16 17 20 4 21 12 14 0 19 13 18 7 9 11 2 10
Coste: 7580

GENERACION: 433
Mejor Solucion:  1 3 6 5 8 15 16 17 20 4 21 12 14 0 19 13 18 7 9 11 2 10
Coste: 7580

GENERACION: 434
Mejor Solucion:  1 3 6 5 8 15 16 17 20 4 21 12 14 0 19 13 18 7 9 11 2 10
Coste: 7580

GENERACION: 435
Mejor Solucion:  1 3 6 5 8 15 16 17 20 4 21 12 14 0 19 13 18 7 9 11 2 10
Coste: 7580

GENERACION: 436
Mejor Solucion:  1 3 6 5 8 15 16 17 20 4 21 12 14 0 19 13 18 7 9 11 2 10
Coste: 7580

GENERACION: 437
Mejor Solucion:  1 3 6 5 8 15 16 17 20 4 21 12 14 0 19 13 18 7 9 11 2 10
Coste: 7580

GENERACION: 438
Mejor Solucion:  1 3 6 5 8 15 16 17 20 4 21 12 14 0 19 13 18 7 9 11 2 10
Coste: 7580

GENERACION: 439
Mejor Solucion:  1 3 6 5 8 15 16 17 20 4 21 12 14 0 19 13 18 7 9 11 2 10
Coste: 7580

GENERACION: 440
Mejor Solucion:  1 3 6 5 8 15 16 17 20 4 21 12 14 0 19 13 18 7 9 11 2 10
Coste: 7580

GENERACION: 441
Mejor Solucion:  1 3 6 5 8 15 16 17 20 4 21 12 14 0 19 13 18 7 9 11 2 10
Coste: 7580

GENERACION: 442
Mejor Solucion:  1 3 6 5 8 15 16 17 20 4 21 12 14 0 19 13 18 7 9 11 2 10
Coste: 7580

GENERACION: 443
Mejor Solucion:  1 3 6 5 8 15 16 17 20 4 21 12 14 0 19 13 18 7 9 11 2 10
Coste: 7580

GENERACION: 444
Mejor Solucion:  1 3 6 5 8 15 16 17 20 4 21 12 14 0 19 13 18 7 9 11 2 10
Coste: 7580

GENERACION: 445
Mejor Solucion:  1 3 6 5 8 15 16 17 20 4 21 12 14 0 19 13 18 7 9 11 2 10
Coste: 7580

GENERACION: 446
Mejor Solucion:  1 3 6 5 8 15 16 17 20 4 21 12 14 0 19 13 18 7 9 11 2 10
Coste: 7580

GENERACION: 447
Mejor Solucion:  1 3 6 5 8 15 16 17 20 4 21 12 14 0 19 13 18 7 9 11 2 10
Coste: 7580

GENERACION: 448
Mejor Solucion:  1 3 6 5 8 15 16 17 20 4 21 12 14 0 19 13 18 7 9 11 2 10
Coste: 7580

GENERACION: 449
Mejor Solucion:  1 3 6 5 8 15 16 17 20 4 21 12 14 0 19 13 18 7 9 11 2 10
Coste: 7580

GENERACION: 450
Mejor Solucion:  1 3 6 5 8 15 16 17 20 4 21 12 14 0 19 13 18 7 9 11 2 10
Coste: 7580

GENERACION: 451
Mejor Solucion:  1 3 6 5 8 15 16 17 20 4 21 12 14 0 19 13 18 7 9 11 2 10
Coste: 7580

GENERACION: 452
Mejor Solucion:  1 3 6 5 8 15 16 17 20 4 21 12 14 0 19 13 18 7 9 11 2 10
Coste: 7580

GENERACION: 453
Mejor Solucion:  1 3 6 5 8 15 16 17 20 4 21 12 14 0 19 13 18 7 9 11 2 10
Coste: 7580

GENERACION: 454
Mejor Solucion:  1 3 6 5 8 15 16 17 20 4 21 12 14 0 19 13 18 7 9 11 2 10
Coste: 7580

GENERACION: 455
Mejor Solucion:  1 3 6 5 8 15 16 17 20 4 21 12 14 0 19 13 18 7 9 11 2 10
Coste: 7580

GENERACION: 456
Mejor Solucion:  1 3 6 5 8 15 16 17 20 4 21 12 14 0 19 13 18 7 9 11 2 10
Coste: 7580

GENERACION: 457
Mejor Solucion:  1 3 6 5 8 15 16 17 20 4 21 12 14 0 19 13 18 7 9 11 2 10
Coste: 7580

GENERACION: 458
Mejor Solucion:  1 3 6 5 8 15 16 17 20 4 21 12 14 0 19 13 18 7 9 11 2 10
Coste: 7580

GENERACION: 459
Mejor Solucion:  1 3 6 5 8 15 16 17 20 4 21 12 14 0 19 13 18 7 9 11 2 10
Coste: 7580

GENERACION: 460
Mejor Solucion:  1 3 6 5 8 15 16 17 20 4 21 12 14 0 19 13 18 7 9 11 2 10
Coste: 7580

GENERACION: 461
Mejor Solucion:  1 3 6 5 8 15 16 17 20 4 21 12 14 0 19 13 18 7 9 11 2 10
Coste: 7580

GENERACION: 462
Mejor Solucion:  1 3 6 5 8 15 16 17 20 4 21 12 14 0 19 13 18 7 9 11 2 10
Coste: 7580

GENERACION: 463
Mejor Solucion:  1 3 6 5 8 15 16 17 20 4 21 12 14 0 19 13 18 7 9 11 2 10
Coste: 7580

GENERACION: 464
Mejor Solucion:  1 3 6 5 8 15 16 17 20 4 21 12 14 0 19 13 18 7 9 11 2 10
Coste: 7580

GENERACION: 465
Mejor Solucion:  1 3 6 5 8 15 16 17 20 4 21 12 14 0 19 13 18 7 9 11 2 10
Coste: 7580

GENERACION: 466
Mejor Solucion:  1 3 6 5 8 15 16 17 20 4 21 12 14 0 19 13 18 7 9 11 2 10
Coste: 7580

GENERACION: 467
Mejor Solucion:  1 3 6 5 8 15 16 17 20 4 21 12 14 0 19 13 18 7 9 11 2 10
Coste: 7580

GENERACION: 468
Mejor Solucion:  1 3 6 5 8 15 16 17 20 4 21 12 14 0 19 13 18 7 9 11 2 10
Coste: 7580

GENERACION: 469
Mejor Solucion:  1 3 6 5 8 15 16 17 20 4 21 12 14 0 19 13 18 7 9 11 2 10
Coste: 7580

GENERACION: 470
Mejor Solucion:  1 3 6 5 8 15 16 17 20 4 21 12 14 0 19 13 18 7 9 11 2 10
Coste: 7580

GENERACION: 471
Mejor Solucion:  1 3 6 5 8 15 16 17 20 4 21 12 14 0 19 13 18 7 9 11 2 10
Coste: 7580

GENERACION: 472
Mejor Solucion:  1 3 6 5 8 15 16 17 20 4 21 12 14 0 19 13 18 7 9 11 2 10
Coste: 7580

GENERACION: 473
Mejor Solucion:  1 3 6 5 8 15 16 17 20 4 21 12 14 0 19 13 18 7 9 11 2 10
Coste: 7580

GENERACION: 474
Mejor Solucion:  1 3 6 5 8 15 16 17 20 4 21 12 14 0 19 13 18 7 9 11 2 10
Coste: 7580

GENERACION: 475
Mejor Solucion:  1 3 6 5 8 15 16 17 20 4 21 12 14 0 19 13 18 7 9 11 2 10
Coste: 7580

GENERACION: 476
Mejor Solucion:  1 3 6 5 8 15 16 17 20 4 21 12 14 0 19 13 18 7 9 11 2 10
Coste: 7580

GENERACION: 477
Mejor Solucion:  1 3 6 5 8 15 16 17 20 4 21 12 14 0 19 13 18 7 9 11 2 10
Coste: 7580

GENERACION: 478
Mejor Solucion:  1 3 6 5 8 15 16 17 20 4 21 12 14 0 19 13 18 7 9 11 2 10
Coste: 7580

GENERACION: 479
Mejor Solucion:  1 3 6 5 8 15 16 17 20 4 21 12 14 0 19 13 18 7 9 11 2 10
Coste: 7580

GENERACION: 480
Mejor Solucion:  1 3 6 5 8 15 16 17 20 4 21 12 14 0 19 13 18 7 9 11 2 10
Coste: 7580

GENERACION: 481
Mejor Solucion:  1 3 6 5 8 15 16 17 20 4 21 12 14 0 19 13 18 7 9 11 2 10
Coste: 7580

GENERACION: 482
Mejor Solucion:  1 3 6 5 8 15 16 17 20 4 21 12 14 0 19 13 18 7 9 11 2 10
Coste: 7580

GENERACION: 483
Mejor Solucion:  1 3 6 5 8 15 16 17 20 4 21 12 14 0 19 13 18 7 9 11 2 10
Coste: 7580

GENERACION: 484
Mejor Solucion:  1 3 6 5 8 15 16 17 20 4 21 12 14 0 19 13 18 7 9 11 2 10
Coste: 7580

GENERACION: 485
Mejor Solucion:  1 3 6 5 8 15 16 17 20 4 21 12 14 0 19 13 18 7 9 11 2 10
Coste: 7580

GENERACION: 486
Mejor Solucion:  1 3 6 5 8 15 16 17 20 4 21 12 14 0 19 13 18 7 9 11 2 10
Coste: 7580

GENERACION: 487
Mejor Solucion:  1 3 6 5 8 15 16 17 20 4 21 12 14 0 19 13 18 7 9 11 2 10
Coste: 7580

GENERACION: 488
Mejor Solucion:  1 3 6 5 8 15 16 17 20 4 21 12 14 0 19 13 18 7 9 11 2 10
Coste: 7580

GENERACION: 489
Mejor Solucion:  1 3 6 5 8 15 16 17 20 4 21 12 14 0 19 13 18 7 9 11 2 10
Coste: 7580

GENERACION: 490
Mejor Solucion:  1 3 6 5 8 15 16 17 20 4 21 12 14 0 19 13 18 7 9 11 2 10
Coste: 7580

GENERACION: 491
Mejor Solucion:  1 3 6 5 8 15 16 17 20 4 21 12 14 0 19 13 18 7 9 11 2 10
Coste: 7580

GENERACION: 492
Mejor Solucion:  1 3 6 5 8 15 16 17 20 4 21 12 14 0 19 13 18 7 9 11 2 10
Coste: 7580

GENERACION: 493
Mejor Solucion:  1 3 6 5 8 15 16 17 20 4 21 12 14 0 19 13 18 7 9 11 2 10
Coste: 7580

GENERACION: 494
Mejor Solucion:  1 3 6 5 8 15 16 17 20 4 21 12 14 0 19 13 18 7 9 11 2 10
Coste: 7580

GENERACION: 495
Mejor Solucion:  1 3 6 5 8 15 16 17 20 4 21 12 14 0 19 13 18 7 9 11 2 10
Coste: 7580

GENERACION: 496
Mejor Solucion:  1 3 6 5 8 15 16 17 20 4 21 12 14 0 19 13 18 7 9 11 2 10
Coste: 7580

GENERACION: 497
Mejor Solucion:  1 3 6 5 8 15 16 17 20 4 21 12 14 0 19 13 18 7 9 11 2 10
Coste: 7580

GENERACION: 498
Mejor Solucion:  1 3 6 5 8 15 16 17 20 4 21 12 14 0 19 13 18 7 9 11 2 10
Coste: 7580

GENERACION: 499
Mejor Solucion:  1 3 6 5 8 15 16 17 20 4 21 12 14 0 19 13 18 7 9 11 2 10
Coste: 7580

GENERACION: 500
Mejor Solucion:  1 3 6 5 8 15 16 17 20 4 21 12 14 0 19 13 18 7 9 11 2 10
Coste: 7580

GENERACION: 501
Mejor Solucion:  1 3 6 5 8 15 16 17 20 4 21 12 14 0 19 13 18 7 9 11 2 10
Coste: 7580

GENERACION: 502
Mejor Solucion:  1 3 6 5 8 15 16 17 20 4 21 12 14 0 19 13 18 7 9 11 2 10
Coste: 7580

GENERACION: 503
Mejor Solucion:  1 3 6 5 8 15 16 17 20 4 21 12 14 0 19 13 18 7 9 11 2 10
Coste: 7580

GENERACION: 504
Mejor Solucion:  1 3 6 5 8 15 16 17 20 4 21 12 14 0 19 13 18 7 9 11 2 10
Coste: 7580

GENERACION: 505
Mejor Solucion:  1 3 6 5 8 15 16 17 20 4 21 12 14 0 19 13 18 7 9 11 2 10
Coste: 7580

GENERACION: 506
Mejor Solucion:  1 3 6 5 8 15 16 17 20 4 21 12 14 0 19 13 18 7 9 11 2 10
Coste: 7580

GENERACION: 507
Mejor Solucion:  1 3 6 5 8 15 16 17 20 4 21 12 14 0 19 13 18 7 9 11 2 10
Coste: 7580

GENERACION: 508
Mejor Solucion:  1 3 6 5 8 15 16 17 20 4 21 12 14 0 19 13 18 7 9 11 2 10
Coste: 7580

GENERACION: 509
Mejor Solucion:  1 3 6 5 8 15 16 17 20 4 21 12 14 0 19 13 18 7 9 11 2 10
Coste: 7580

GENERACION: 510
Mejor Solucion:  1 3 6 5 8 15 16 17 20 4 21 12 14 0 19 13 18 7 9 11 2 10
Coste: 7580

GENERACION: 511
Mejor Solucion:  1 3 6 5 8 15 16 17 20 4 21 12 14 0 19 13 18 7 9 11 2 10
Coste: 7580

GENERACION: 512
Mejor Solucion:  1 3 6 5 8 15 16 17 20 4 21 12 14 0 19 13 18 7 9 11 2 10
Coste: 7580

GENERACION: 513
Mejor Solucion:  1 3 6 5 8 15 16 17 20 4 21 12 14 0 19 13 18 7 9 11 2 10
Coste: 7580

GENERACION: 514
Mejor Solucion:  1 3 6 5 8 15 16 17 20 4 21 12 14 0 19 13 18 7 9 11 2 10
Coste: 7580

GENERACION: 515
Mejor Solucion:  1 3 6 5 8 15 16 17 20 4 21 12 14 0 19 13 18 7 9 11 2 10
Coste: 7580

GENERACION: 516
Mejor Solucion:  1 3 6 5 8 15 16 17 20 4 21 12 14 0 19 13 18 7 9 11 2 10
Coste: 7580

GENERACION: 517
Mejor Solucion:  1 3 6 5 8 15 16 17 20 4 21 12 14 0 19 13 18 7 9 11 2 10
Coste: 7580

GENERACION: 518
Mejor Solucion:  1 3 6 5 8 15 16 17 20 4 21 12 14 0 19 13 18 7 9 11 2 10
Coste: 7580

GENERACION: 519
Mejor Solucion:  1 3 6 5 8 15 16 17 20 4 21 12 14 0 19 13 18 7 9 11 2 10
Coste: 7580

GENERACION: 520
Mejor Solucion:  1 3 6 5 8 15 16 17 20 4 21 12 14 0 19 13 18 7 9 11 2 10
Coste: 7580

GENERACION: 521
Mejor Solucion:  1 3 6 5 8 15 16 17 20 4 21 12 14 0 19 13 18 7 9 11 2 10
Coste: 7580

GENERACION: 522
Mejor Solucion:  1 3 6 5 8 15 16 17 20 4 21 12 14 0 19 13 18 7 9 11 2 10
Coste: 7580

GENERACION: 523
Mejor Solucion:  1 3 6 5 8 15 16 17 20 4 21 12 14 0 19 13 18 7 9 11 2 10
Coste: 7580

GENERACION: 524
Mejor Solucion:  1 3 6 5 8 15 16 17 20 4 21 12 14 0 19 13 18 7 9 11 2 10
Coste: 7580

GENERACION: 525
Mejor Solucion:  1 3 6 5 8 15 16 17 20 4 21 12 14 0 19 13 18 7 9 11 2 10
Coste: 7580

GENERACION: 526
Mejor Solucion:  1 3 6 5 8 15 16 17 20 4 21 12 14 0 19 13 18 7 9 11 2 10
Coste: 7580

GENERACION: 527
Mejor Solucion:  1 3 6 5 8 15 16 17 20 4 21 12 14 0 19 13 18 7 9 11 2 10
Coste: 7580

GENERACION: 528
Mejor Solucion:  1 3 6 5 8 15 16 17 20 4 21 12 14 0 19 13 18 7 9 11 2 10
Coste: 7580

GENERACION: 529
Mejor Solucion:  1 3 6 5 8 15 16 17 20 4 21 12 14 0 19 13 18 7 9 11 2 10
Coste: 7580

GENERACION: 530
Mejor Solucion:  1 3 6 5 8 15 16 17 20 4 21 12 14 0 19 13 18 7 9 11 2 10
Coste: 7580

GENERACION: 531
Mejor Solucion:  1 3 6 5 8 15 16 17 20 4 21 12 14 0 19 13 18 7 9 11 2 10
Coste: 7580

GENERACION: 532
Mejor Solucion:  1 3 6 5 8 15 16 17 20 4 21 12 14 0 19 13 18 7 9 11 2 10
Coste: 7580

GENERACION: 533
Mejor Solucion:  1 3 6 5 8 15 16 17 20 4 21 12 14 0 19 13 18 7 9 11 2 10
Coste: 7580

GENERACION: 534
Mejor Solucion:  1 3 6 5 8 15 16 17 20 4 21 12 14 0 19 13 18 7 9 11 2 10
Coste: 7580

GENERACION: 535
Mejor Solucion:  1 3 6 5 8 15 16 17 20 4 21 12 14 0 19 13 18 7 9 11 2 10
Coste: 7580

GENERACION: 536
Mejor Solucion:  1 3 6 5 8 15 16 17 20 4 21 12 14 0 19 13 18 7 9 11 2 10
Coste: 7580

GENERACION: 537
Mejor Solucion:  1 3 6 5 8 15 16 17 20 4 21 12 14 0 19 13 18 7 9 11 2 10
Coste: 7580

GENERACION: 538
Mejor Solucion:  1 3 6 5 8 15 16 17 20 4 21 12 14 0 19 13 18 7 9 11 2 10
Coste: 7580

GENERACION: 539
Mejor Solucion:  1 3 6 5 8 15 16 17 20 4 21 12 14 0 19 13 18 7 9 11 2 10
Coste: 7580

GENERACION: 540
Mejor Solucion:  1 3 6 5 8 15 16 17 20 4 21 12 14 0 19 13 18 7 9 11 2 10
Coste: 7580

GENERACION: 541
Mejor Solucion:  1 3 6 5 8 15 16 17 20 4 21 12 14 0 19 13 18 7 9 11 2 10
Coste: 7580

GENERACION: 542
Mejor Solucion:  1 3 6 5 8 15 16 17 20 4 21 12 14 0 19 13 18 7 9 11 2 10
Coste: 7580

GENERACION: 543
Mejor Solucion:  1 3 6 5 8 15 16 17 20 4 21 12 14 0 19 13 18 7 9 11 2 10
Coste: 7580

GENERACION: 544
Mejor Solucion:  1 3 6 5 8 15 16 17 20 4 21 12 14 0 19 13 18 7 9 11 2 10
Coste: 7580

GENERACION: 545
Mejor Solucion:  1 3 6 5 8 15 16 17 20 4 21 12 14 0 19 13 18 7 9 11 2 10
Coste: 7580

GENERACION: 546
Mejor Solucion:  1 3 6 5 8 15 16 17 20 4 21 12 14 0 19 13 18 7 9 11 2 10
Coste: 7580

GENERACION: 547
Mejor Solucion:  1 3 6 5 8 15 16 17 20 4 21 12 14 0 19 13 18 7 9 11 2 10
Coste: 7580

GENERACION: 548
Mejor Solucion:  1 3 6 5 8 15 16 17 20 4 21 12 14 0 19 13 18 7 9 11 2 10
Coste: 7580

GENERACION: 549
Mejor Solucion:  1 3 6 5 8 15 16 17 20 4 21 12 14 0 19 13 18 7 9 11 2 10
Coste: 7580

GENERACION: 550
Mejor Solucion:  1 3 6 5 8 15 16 17 20 4 21 12 14 0 19 13 18 7 9 11 2 10
Coste: 7580

GENERACION: 551
Mejor Solucion:  1 3 6 5 8 15 16 17 20 4 21 12 14 0 19 13 18 7 9 11 2 10
Coste: 7580

GENERACION: 552
Mejor Solucion:  1 3 6 5 8 15 16 17 20 4 21 12 14 0 19 13 18 7 9 11 2 10
Coste: 7580

GENERACION: 553
Mejor Solucion:  1 3 6 5 8 15 16 17 20 4 21 12 14 0 19 13 18 7 9 11 2 10
Coste: 7580

GENERACION: 554
Mejor Solucion:  1 3 6 5 8 15 16 17 20 4 21 12 14 0 19 13 18 7 9 11 2 10
Coste: 7580

GENERACION: 555
Mejor Solucion:  1 3 6 5 8 15 16 17 20 4 21 12 14 0 19 13 18 7 9 11 2 10
Coste: 7580

GENERACION: 556
Mejor Solucion:  1 3 6 5 8 15 16 17 20 4 21 12 14 0 19 13 18 7 9 11 2 10
Coste: 7580

GENERACION: 557
Mejor Solucion:  1 3 6 5 8 15 16 17 20 4 21 12 14 0 19 13 18 7 9 11 2 10
Coste: 7580

GENERACION: 558
Mejor Solucion:  1 3 6 5 8 15 16 17 20 4 21 12 14 0 19 13 18 7 9 11 2 10
Coste: 7580

GENERACION: 559
Mejor Solucion:  1 3 6 5 8 15 16 17 20 4 21 12 14 0 19 13 18 7 9 11 2 10
Coste: 7580

GENERACION: 560
Mejor Solucion:  1 3 6 5 8 15 16 17 20 4 21 12 14 0 19 13 18 7 9 11 2 10
Coste: 7580

GENERACION: 561
Mejor Solucion:  1 3 6 5 8 15 16 17 20 4 21 12 14 0 19 13 18 7 9 11 2 10
Coste: 7580

GENERACION: 562
Mejor Solucion:  1 3 6 5 8 15 16 17 20 4 21 12 14 0 19 13 18 7 9 11 2 10
Coste: 7580

GENERACION: 563
Mejor Solucion:  1 3 6 5 8 15 16 17 20 4 21 12 14 0 19 13 18 7 9 11 2 10
Coste: 7580

GENERACION: 564
Mejor Solucion:  1 3 6 5 8 15 16 17 20 4 21 12 14 0 19 13 18 7 9 11 2 10
Coste: 7580

GENERACION: 565
Mejor Solucion:  1 3 6 5 8 15 16 17 20 4 21 12 14 0 19 13 18 7 9 11 2 10
Coste: 7580

GENERACION: 566
Mejor Solucion:  1 3 6 5 8 15 16 17 20 4 21 12 14 0 19 13 18 7 9 11 2 10
Coste: 7580

GENERACION: 567
Mejor Solucion:  1 3 6 5 8 15 16 17 20 4 21 12 14 0 19 13 18 7 9 11 2 10
Coste: 7580

GENERACION: 568
Mejor Solucion:  1 3 6 5 8 15 16 17 20 4 21 12 14 0 19 13 18 7 9 11 2 10
Coste: 7580

GENERACION: 569
Mejor Solucion:  1 3 6 5 8 15 16 17 20 4 21 12 14 0 19 13 18 7 9 11 2 10
Coste: 7580

GENERACION: 570
Mejor Solucion:  1 3 6 5 8 15 16 17 20 4 21 12 14 0 19 13 18 7 9 11 2 10
Coste: 7580

GENERACION: 571
Mejor Solucion:  1 3 6 5 8 15 16 17 20 4 21 12 14 0 19 13 18 7 9 11 2 10
Coste: 7580

GENERACION: 572
Mejor Solucion:  1 3 6 5 8 15 16 17 20 4 21 12 14 0 19 13 18 7 9 11 2 10
Coste: 7580

GENERACION: 573
Mejor Solucion:  1 3 6 5 8 15 16 17 20 4 21 12 14 0 19 13 18 7 9 11 2 10
Coste: 7580

GENERACION: 574
Mejor Solucion:  1 3 6 5 8 15 16 17 20 4 21 12 14 0 19 13 18 7 9 11 2 10
Coste: 7580

GENERACION: 575
Mejor Solucion:  1 3 6 5 8 15 16 17 20 4 21 12 14 0 19 13 18 7 9 11 2 10
Coste: 7580

GENERACION: 576
Mejor Solucion:  1 3 6 5 8 15 16 17 20 4 21 12 14 0 19 13 18 7 9 11 2 10
Coste: 7580

GENERACION: 577
Mejor Solucion:  1 3 6 5 8 15 16 17 20 4 21 12 14 0 19 13 18 7 9 11 2 10
Coste: 7580

GENERACION: 578
Mejor Solucion:  1 3 6 5 8 15 16 17 20 4 21 12 14 0 19 13 18 7 9 11 2 10
Coste: 7580

GENERACION: 579
Mejor Solucion:  1 3 6 5 8 15 16 17 20 4 21 12 14 0 19 13 18 7 9 11 2 10
Coste: 7580

GENERACION: 580
Mejor Solucion:  1 3 6 5 8 15 16 17 20 4 21 12 14 0 19 13 18 7 9 11 2 10
Coste: 7580

GENERACION: 581
Mejor Solucion:  1 3 6 5 8 15 16 17 20 4 21 12 14 0 19 13 18 7 9 11 2 10
Coste: 7580

GENERACION: 582
Mejor Solucion:  1 3 6 5 8 15 16 17 20 4 21 12 14 0 19 13 18 7 9 11 2 10
Coste: 7580

GENERACION: 583
Mejor Solucion:  1 3 6 5 8 15 16 17 20 4 21 12 14 0 19 13 18 7 9 11 2 10
Coste: 7580

GENERACION: 584
Mejor Solucion:  1 3 6 5 8 15 16 17 20 4 21 12 14 0 19 13 18 7 9 11 2 10
Coste: 7580

GENERACION: 585
Mejor Solucion:  1 3 6 5 8 15 16 17 20 4 21 12 14 0 19 13 18 7 9 11 2 10
Coste: 7580

GENERACION: 586
Mejor Solucion:  1 3 6 5 8 15 16 17 20 4 21 12 14 0 19 13 18 7 9 11 2 10
Coste: 7580

GENERACION: 587
Mejor Solucion:  1 3 6 5 8 15 16 17 20 4 21 12 14 0 19 13 18 7 9 11 2 10
Coste: 7580

GENERACION: 588
Mejor Solucion:  1 3 6 5 8 15 16 17 20 4 21 12 14 0 19 13 18 7 9 11 2 10
Coste: 7580

GENERACION: 589
Mejor Solucion:  1 3 6 5 8 15 16 17 20 4 21 12 14 0 19 13 18 7 9 11 2 10
Coste: 7580

GENERACION: 590
Mejor Solucion:  1 3 6 5 8 15 16 17 20 4 21 12 14 0 19 13 18 7 9 11 2 10
Coste: 7580

GENERACION: 591
Mejor Solucion:  1 3 6 5 8 15 16 17 20 4 21 12 14 0 19 13 18 7 9 11 2 10
Coste: 7580

GENERACION: 592
Mejor Solucion:  1 3 6 5 8 15 16 17 20 4 21 12 14 0 19 13 18 7 9 11 2 10
Coste: 7580

GENERACION: 593
Mejor Solucion:  1 3 6 5 8 15 16 17 20 4 21 12 14 0 19 13 18 7 9 11 2 10
Coste: 7580

GENERACION: 594
Mejor Solucion:  1 3 6 5 8 15 16 17 20 4 21 12 14 0 19 13 18 7 9 11 2 10
Coste: 7580

GENERACION: 595
Mejor Solucion:  1 3 6 5 8 15 16 17 20 4 21 12 14 0 19 13 18 7 9 11 2 10
Coste: 7580

GENERACION: 596
Mejor Solucion:  1 3 6 5 8 15 16 17 20 4 21 12 14 0 19 13 18 7 9 11 2 10
Coste: 7580

GENERACION: 597
Mejor Solucion:  1 3 6 5 8 15 16 17 20 4 21 12 14 0 19 13 18 7 9 11 2 10
Coste: 7580

GENERACION: 598
Mejor Solucion:  1 3 6 5 8 15 16 17 20 4 21 12 14 0 19 13 18 7 9 11 2 10
Coste: 7580

GENERACION: 599
Mejor Solucion:  1 3 6 5 8 15 16 17 20 4 21 12 14 0 19 13 18 7 9 11 2 10
Coste: 7580

GENERACION: 600
Mejor Solucion:  1 3 6 5 8 15 16 17 20 4 21 12 14 0 19 13 18 7 9 11 2 10
Coste: 7580

GENERACION: 601
Mejor Solucion:  1 3 6 5 8 15 16 17 20 4 21 12 14 0 19 13 18 7 9 11 2 10
Coste: 7580

GENERACION: 602
Mejor Solucion:  1 3 6 5 8 15 16 17 20 4 21 12 14 0 19 13 18 7 9 11 2 10
Coste: 7580

GENERACION: 603
Mejor Solucion:  1 3 6 5 8 15 16 17 20 4 21 12 14 0 19 13 18 7 9 11 2 10
Coste: 7580

GENERACION: 604
Mejor Solucion:  1 3 6 5 8 15 16 17 20 4 21 12 14 0 19 13 18 7 9 11 2 10
Coste: 7580

GENERACION: 605
Mejor Solucion:  1 3 6 5 8 15 16 17 20 4 21 12 14 0 19 13 18 7 9 11 2 10
Coste: 7580

GENERACION: 606
Mejor Solucion:  1 3 6 5 8 15 16 17 20 4 21 12 14 0 19 13 18 7 9 11 2 10
Coste: 7580

GENERACION: 607
Mejor Solucion:  1 3 6 5 8 15 16 17 20 4 21 12 14 0 19 13 18 7 9 11 2 10
Coste: 7580

GENERACION: 608
Mejor Solucion:  1 3 6 5 8 15 16 17 20 4 21 12 14 0 19 13 18 7 9 11 2 10
Coste: 7580

GENERACION: 609
Mejor Solucion:  1 3 6 5 8 15 16 17 20 4 21 12 14 0 19 13 18 7 9 11 2 10
Coste: 7580

GENERACION: 610
Mejor Solucion:  1 3 6 5 8 15 16 17 20 4 21 12 14 0 19 13 18 7 9 11 2 10
Coste: 7580

GENERACION: 611
Mejor Solucion:  1 3 6 5 8 15 16 17 20 4 21 12 14 0 19 13 18 7 9 11 2 10
Coste: 7580

GENERACION: 612
Mejor Solucion:  1 3 6 5 8 15 16 17 20 4 21 12 14 0 19 13 18 7 9 11 2 10
Coste: 7580

GENERACION: 613
Mejor Solucion:  1 3 6 5 8 15 16 17 20 4 21 12 14 0 19 13 18 7 9 11 2 10
Coste: 7580

GENERACION: 614
Mejor Solucion:  1 3 6 5 8 15 16 17 20 4 21 12 14 0 19 13 18 7 9 11 2 10
Coste: 7580

GENERACION: 615
Mejor Solucion:  1 3 6 5 8 15 16 17 20 4 21 12 14 0 19 13 18 7 9 11 2 10
Coste: 7580

GENERACION: 616
Mejor Solucion:  1 3 6 5 8 15 16 17 20 4 21 12 14 0 19 13 18 7 9 11 2 10
Coste: 7580

GENERACION: 617
Mejor Solucion:  1 3 6 5 8 15 16 17 20 4 21 12 14 0 19 13 18 7 9 11 2 10
Coste: 7580

GENERACION: 618
Mejor Solucion:  1 3 6 5 8 15 16 17 20 4 21 12 14 0 19 13 18 7 9 11 2 10
Coste: 7580

GENERACION: 619
Mejor Solucion:  1 3 6 5 8 15 16 17 20 4 21 12 14 0 19 13 18 7 9 11 2 10
Coste: 7580

GENERACION: 620
Mejor Solucion:  1 3 6 5 8 15 16 17 20 4 21 12 14 0 19 13 18 7 9 11 2 10
Coste: 7580

GENERACION: 621
Mejor Solucion:  1 3 6 5 8 15 16 17 20 4 21 12 14 0 19 13 18 7 9 11 2 10
Coste: 7580

GENERACION: 622
Mejor Solucion:  1 3 6 5 8 15 16 17 20 4 21 12 14 0 19 13 18 7 9 11 2 10
Coste: 7580

GENERACION: 623
Mejor Solucion:  1 3 6 5 8 15 16 17 20 4 21 12 14 0 19 13 18 7 9 11 2 10
Coste: 7580

GENERACION: 624
Mejor Solucion:  1 3 6 5 8 15 16 17 20 4 21 12 14 0 19 13 18 7 9 11 2 10
Coste: 7580

GENERACION: 625
Mejor Solucion:  1 3 6 5 8 15 16 17 20 4 21 12 14 0 19 13 18 7 9 11 2 10
Coste: 7580

GENERACION: 626
Mejor Solucion:  1 3 6 5 8 15 16 17 20 4 21 12 14 0 19 13 18 7 9 11 2 10
Coste: 7580

GENERACION: 627
Mejor Solucion:  1 3 6 5 8 15 16 17 20 4 21 12 14 0 19 13 18 7 9 11 2 10
Coste: 7580

GENERACION: 628
Mejor Solucion:  1 3 6 5 8 15 16 17 20 4 21 12 14 0 19 13 18 7 9 11 2 10
Coste: 7580

GENERACION: 629
Mejor Solucion:  1 3 6 5 8 15 16 17 20 4 21 12 14 0 19 13 18 7 9 11 2 10
Coste: 7580

GENERACION: 630
Mejor Solucion:  1 3 6 5 8 15 16 17 20 4 21 12 14 0 19 13 18 7 9 11 2 10
Coste: 7580

GENERACION: 631
Mejor Solucion:  1 3 6 5 8 15 16 17 20 4 21 12 14 0 19 13 18 7 9 11 2 10
Coste: 7580

GENERACION: 632
Mejor Solucion:  1 3 6 5 8 15 16 17 20 4 21 12 14 0 19 13 18 7 9 11 2 10
Coste: 7580

GENERACION: 633
Mejor Solucion:  1 3 6 5 8 15 16 17 20 4 21 12 14 0 19 13 18 7 9 11 2 10
Coste: 7580

GENERACION: 634
Mejor Solucion:  1 3 6 5 8 15 16 17 20 4 21 12 14 0 19 13 18 7 9 11 2 10
Coste: 7580

GENERACION: 635
Mejor Solucion:  1 3 6 5 8 15 16 17 20 4 21 12 14 0 19 13 18 7 9 11 2 10
Coste: 7580

GENERACION: 636
Mejor Solucion:  1 3 6 5 8 15 16 17 20 4 21 12 14 0 19 13 18 7 9 11 2 10
Coste: 7580

GENERACION: 637
Mejor Solucion:  1 3 6 5 8 15 16 17 20 4 21 12 14 0 19 13 18 7 9 11 2 10
Coste: 7580

GENERACION: 638
Mejor Solucion:  1 3 6 5 8 15 16 17 20 4 21 12 14 0 19 13 18 7 9 11 2 10
Coste: 7580

GENERACION: 639
Mejor Solucion:  1 3 6 5 8 15 16 17 20 4 21 12 14 0 19 13 18 7 9 11 2 10
Coste: 7580

GENERACION: 640
Mejor Solucion:  1 3 6 5 8 15 16 17 20 4 21 12 14 0 19 13 18 7 9 11 2 10
Coste: 7580

GENERACION: 641
Mejor Solucion:  1 3 6 5 8 15 16 17 20 4 21 12 14 0 19 13 18 7 9 11 2 10
Coste: 7580

GENERACION: 642
Mejor Solucion:  1 3 6 5 8 15 16 17 20 4 21 12 14 0 19 13 18 7 9 11 2 10
Coste: 7580

GENERACION: 643
Mejor Solucion:  1 3 6 5 8 15 16 17 20 4 21 12 14 0 19 13 18 7 9 11 2 10
Coste: 7580

GENERACION: 644
Mejor Solucion:  1 3 6 5 8 15 16 17 20 4 21 12 14 0 19 13 18 7 9 11 2 10
Coste: 7580

GENERACION: 645
Mejor Solucion:  1 3 6 5 8 15 16 17 20 4 21 12 14 0 19 13 18 7 9 11 2 10
Coste: 7580

GENERACION: 646
Mejor Solucion:  1 3 6 5 8 15 16 17 20 4 21 12 14 0 19 13 18 7 9 11 2 10
Coste: 7580

GENERACION: 647
Mejor Solucion:  1 3 6 5 8 15 16 17 20 4 21 12 14 0 19 13 18 7 9 11 2 10
Coste: 7580

GENERACION: 648
Mejor Solucion:  1 3 6 5 8 15 16 17 20 4 21 12 14 0 19 13 18 7 9 11 2 10
Coste: 7580

GENERACION: 649
Mejor Solucion:  1 3 6 5 8 15 16 17 20 4 21 12 14 0 19 13 18 7 9 11 2 10
Coste: 7580

GENERACION: 650
Mejor Solucion:  1 3 6 5 8 15 16 17 20 4 21 12 14 0 19 13 18 7 9 11 2 10
Coste: 7580

GENERACION: 651
Mejor Solucion:  1 3 6 5 8 15 16 17 20 4 21 12 14 0 19 13 18 7 9 11 2 10
Coste: 7580

GENERACION: 652
Mejor Solucion:  1 3 6 5 8 15 16 17 20 4 21 12 14 0 19 13 18 7 9 11 2 10
Coste: 7580

GENERACION: 653
Mejor Solucion:  1 3 6 5 8 15 16 17 20 4 21 12 14 0 19 13 18 7 9 11 2 10
Coste: 7580

GENERACION: 654
Mejor Solucion:  1 3 6 5 8 15 16 17 20 4 21 12 14 0 19 13 18 7 9 11 2 10
Coste: 7580

GENERACION: 655
Mejor Solucion:  1 3 6 5 8 15 16 17 20 4 21 12 14 0 19 13 18 7 9 11 2 10
Coste: 7580

GENERACION: 656
Mejor Solucion:  1 3 6 5 8 15 16 17 20 4 21 12 14 0 19 13 18 7 9 11 2 10
Coste: 7580

GENERACION: 657
Mejor Solucion:  1 3 6 5 8 15 16 17 20 4 21 12 14 0 19 13 18 7 9 11 2 10
Coste: 7580

GENERACION: 658
Mejor Solucion:  1 3 6 5 8 15 16 17 20 4 21 12 14 0 19 13 18 7 9 11 2 10
Coste: 7580

GENERACION: 659
Mejor Solucion:  1 3 6 5 8 15 16 17 20 4 21 12 14 0 19 13 18 7 9 11 2 10
Coste: 7580

GENERACION: 660
Mejor Solucion:  1 3 6 5 8 15 16 17 20 4 21 12 14 0 19 13 18 7 9 11 2 10
Coste: 7580

GENERACION: 661
Mejor Solucion:  1 3 6 5 8 15 16 17 20 4 21 12 14 0 19 13 18 7 9 11 2 10
Coste: 7580

GENERACION: 662
Mejor Solucion:  1 3 6 5 8 15 16 17 20 4 21 12 14 0 19 13 18 7 9 11 2 10
Coste: 7580

GENERACION: 663
Mejor Solucion:  1 3 6 5 8 15 16 17 20 4 21 12 14 0 19 13 18 7 9 11 2 10
Coste: 7580

GENERACION: 664
Mejor Solucion:  1 3 6 5 8 15 16 17 20 4 21 12 14 0 19 13 18 7 9 11 2 10
Coste: 7580

GENERACION: 665
Mejor Solucion:  1 3 6 5 8 15 16 17 20 4 21 12 14 0 19 13 18 7 9 11 2 10
Coste: 7580

GENERACION: 666
Mejor Solucion:  1 3 6 5 8 15 16 17 20 4 21 12 14 0 19 13 18 7 9 11 2 10
Coste: 7580

GENERACION: 667
Mejor Solucion:  1 3 6 5 8 15 16 17 20 4 21 12 14 0 19 13 18 7 9 11 2 10
Coste: 7580

GENERACION: 668
Mejor Solucion:  1 3 6 5 8 15 16 17 20 4 21 12 14 0 19 13 18 7 9 11 2 10
Coste: 7580

GENERACION: 669
Mejor Solucion:  1 3 6 5 8 15 16 17 20 4 21 12 14 0 19 13 18 7 9 11 2 10
Coste: 7580

GENERACION: 670
Mejor Solucion:  1 3 6 5 8 15 16 17 20 4 21 12 14 0 19 13 18 7 9 11 2 10
Coste: 7580

GENERACION: 671
Mejor Solucion:  1 3 6 5 8 15 16 17 20 4 21 12 14 0 19 13 18 7 9 11 2 10
Coste: 7580

GENERACION: 672
Mejor Solucion:  1 3 6 5 8 15 16 17 20 4 21 12 14 0 19 13 18 7 9 11 2 10
Coste: 7580

GENERACION: 673
Mejor Solucion:  1 3 6 5 8 15 16 17 20 4 21 12 14 0 19 13 18 7 9 11 2 10
Coste: 7580

GENERACION: 674
Mejor Solucion:  1 3 6 5 8 15 16 17 20 4 21 12 14 0 19 13 18 7 9 11 2 10
Coste: 7580

GENERACION: 675
Mejor Solucion:  1 3 6 5 8 15 16 17 20 4 21 12 14 0 19 13 18 7 9 11 2 10
Coste: 7580

GENERACION: 676
Mejor Solucion:  1 3 6 5 8 15 16 17 20 4 21 12 14 0 19 13 18 7 9 11 2 10
Coste: 7580

GENERACION: 677
Mejor Solucion:  1 3 6 5 8 15 16 17 20 4 21 12 14 0 19 13 18 7 9 11 2 10
Coste: 7580

GENERACION: 678
Mejor Solucion:  1 3 6 5 8 15 16 17 20 4 21 12 14 0 19 13 18 7 9 11 2 10
Coste: 7580

GENERACION: 679
Mejor Solucion:  1 3 6 5 8 15 16 17 20 4 21 12 14 0 19 13 18 7 9 11 2 10
Coste: 7580

GENERACION: 680
Mejor Solucion:  1 3 6 5 8 15 16 17 20 4 21 12 14 0 19 13 18 7 9 11 2 10
Coste: 7580

GENERACION: 681
Mejor Solucion:  1 3 6 5 8 15 16 17 20 4 21 12 14 0 19 13 18 7 9 11 2 10
Coste: 7580

GENERACION: 682
Mejor Solucion:  1 3 6 5 8 15 16 17 20 4 21 12 14 0 19 13 18 7 9 11 2 10
Coste: 7580

GENERACION: 683
Mejor Solucion:  1 3 6 5 8 15 16 17 20 4 21 12 14 0 19 13 18 7 9 11 2 10
Coste: 7580

GENERACION: 684
Mejor Solucion:  1 3 6 5 8 15 16 17 20 4 21 12 14 0 19 13 18 7 9 11 2 10
Coste: 7580

GENERACION: 685
Mejor Solucion:  1 3 6 5 8 15 16 17 20 4 21 12 14 0 19 13 18 7 9 11 2 10
Coste: 7580

GENERACION: 686
Mejor Solucion:  1 3 6 5 8 15 16 17 20 4 21 12 14 0 19 13 18 7 9 11 2 10
Coste: 7580

GENERACION: 687
Mejor Solucion:  1 3 6 5 8 15 16 17 20 4 21 12 14 0 19 13 18 7 9 11 2 10
Coste: 7580

GENERACION: 688
Mejor Solucion:  1 3 6 5 8 15 16 17 20 4 21 12 14 0 19 13 18 7 9 11 2 10
Coste: 7580

GENERACION: 689
Mejor Solucion:  1 3 6 5 8 15 16 17 20 4 21 12 14 0 19 13 18 7 9 11 2 10
Coste: 7580

GENERACION: 690
Mejor Solucion:  1 3 6 5 8 15 16 17 20 4 21 12 14 0 19 13 18 7 9 11 2 10
Coste: 7580

GENERACION: 691
Mejor Solucion:  1 3 6 5 8 15 16 17 20 4 21 12 14 0 19 13 18 7 9 11 2 10
Coste: 7580

GENERACION: 692
Mejor Solucion:  1 3 6 5 8 15 16 17 20 4 21 12 14 0 19 13 18 7 9 11 2 10
Coste: 7580

GENERACION: 693
Mejor Solucion:  1 3 6 5 8 15 16 17 20 4 21 12 14 0 19 13 18 7 9 11 2 10
Coste: 7580

GENERACION: 694
Mejor Solucion:  1 3 6 5 8 15 16 17 20 4 21 12 14 0 19 13 18 7 9 11 2 10
Coste: 7580

GENERACION: 695
Mejor Solucion:  1 3 6 5 8 15 16 17 20 4 21 12 14 0 19 13 18 7 9 11 2 10
Coste: 7580

GENERACION: 696
Mejor Solucion:  1 3 6 5 8 15 16 17 20 4 21 12 14 0 19 13 18 7 9 11 2 10
Coste: 7580

GENERACION: 697
Mejor Solucion:  1 3 6 5 8 15 16 17 20 4 21 12 14 0 19 13 18 7 9 11 2 10
Coste: 7580

GENERACION: 698
Mejor Solucion:  1 3 6 5 8 15 16 17 20 4 21 12 14 0 19 13 18 7 9 11 2 10
Coste: 7580

GENERACION: 699
Mejor Solucion:  1 3 6 5 8 15 16 17 20 4 21 12 14 0 19 13 18 7 9 11 2 10
Coste: 7580

GENERACION: 700
Mejor Solucion:  1 3 6 5 8 15 16 17 20 4 21 12 14 0 19 13 18 7 9 11 2 10
Coste: 7580

GENERACION: 701
Mejor Solucion:  1 3 6 5 8 15 16 17 20 4 21 12 14 0 19 13 18 7 9 11 2 10
Coste: 7580

GENERACION: 702
Mejor Solucion:  1 3 6 5 8 15 16 17 20 4 21 12 14 0 19 13 18 7 9 11 2 10
Coste: 7580

GENERACION: 703
Mejor Solucion:  1 3 6 5 8 15 16 17 20 4 21 12 14 0 19 13 18 7 9 11 2 10
Coste: 7580

GENERACION: 704
Mejor Solucion:  1 3 6 5 8 15 16 17 20 4 21 12 14 0 19 13 18 7 9 11 2 10
Coste: 7580

GENERACION: 705
Mejor Solucion:  1 3 6 5 8 15 16 17 20 4 21 12 14 0 19 13 18 7 9 11 2 10
Coste: 7580

GENERACION: 706
Mejor Solucion:  1 3 6 5 8 15 16 17 20 4 21 12 14 0 19 13 18 7 9 11 2 10
Coste: 7580

GENERACION: 707
Mejor Solucion:  1 3 6 5 8 15 16 17 20 4 21 12 14 0 19 13 18 7 9 11 2 10
Coste: 7580

GENERACION: 708
Mejor Solucion:  1 3 6 5 8 15 16 17 20 4 21 12 14 0 19 13 18 7 9 11 2 10
Coste: 7580

GENERACION: 709
Mejor Solucion:  1 3 6 5 8 15 16 17 20 4 21 12 14 0 19 13 18 7 9 11 2 10
Coste: 7580

GENERACION: 710
Mejor Solucion:  1 3 6 5 8 15 16 17 20 4 21 12 14 0 19 13 18 7 9 11 2 10
Coste: 7580

GENERACION: 711
Mejor Solucion:  1 3 6 5 8 15 16 17 20 4 21 12 14 0 19 13 18 7 9 11 2 10
Coste: 7580

GENERACION: 712
Mejor Solucion:  1 3 6 5 8 15 16 17 20 4 21 12 14 0 19 13 18 7 9 11 2 10
Coste: 7580

GENERACION: 713
Mejor Solucion:  1 3 6 5 8 15 16 17 20 4 21 12 14 0 19 13 18 7 9 11 2 10
Coste: 7580

GENERACION: 714
Mejor Solucion:  1 3 6 5 8 15 16 17 20 4 21 12 14 0 19 13 18 7 9 11 2 10
Coste: 7580

GENERACION: 715
Mejor Solucion:  1 3 6 5 8 15 16 17 20 4 21 12 14 0 19 13 18 7 9 11 2 10
Coste: 7580

GENERACION: 716
Mejor Solucion:  1 3 6 5 8 15 16 17 20 4 21 12 14 0 19 13 18 7 9 11 2 10
Coste: 7580

GENERACION: 717
Mejor Solucion:  1 3 6 5 8 15 16 17 20 4 21 12 14 0 19 13 18 7 9 11 2 10
Coste: 7580

GENERACION: 718
Mejor Solucion:  1 3 6 5 8 15 16 17 20 4 21 12 14 0 19 13 18 7 9 11 2 10
Coste: 7580

GENERACION: 719
Mejor Solucion:  1 3 6 5 8 15 16 17 20 4 21 12 14 0 19 13 18 7 9 11 2 10
Coste: 7580

GENERACION: 720
Mejor Solucion:  1 3 6 5 8 15 16 17 20 4 21 12 14 0 19 13 18 7 9 11 2 10
Coste: 7580

GENERACION: 721
Mejor Solucion:  1 3 6 5 8 15 16 17 20 4 21 12 14 0 19 13 18 7 9 11 2 10
Coste: 7580

GENERACION: 722
Mejor Solucion:  1 3 6 5 8 15 16 17 20 4 21 12 14 0 19 13 18 7 9 11 2 10
Coste: 7580

GENERACION: 723
Mejor Solucion:  1 3 6 5 8 15 16 17 20 4 21 12 14 0 19 13 18 7 9 11 2 10
Coste: 7580

GENERACION: 724
Mejor Solucion:  1 3 6 5 8 15 16 17 20 4 21 12 14 0 19 13 18 7 9 11 2 10
Coste: 7580

GENERACION: 725
Mejor Solucion:  1 3 6 5 8 15 16 17 20 4 21 12 14 0 19 13 18 7 9 11 2 10
Coste: 7580

GENERACION: 726
Mejor Solucion:  1 3 6 5 8 15 16 17 20 4 21 12 14 0 19 13 18 7 9 11 2 10
Coste: 7580

GENERACION: 727
Mejor Solucion:  1 3 6 5 8 15 16 17 20 4 21 12 14 0 19 13 18 7 9 11 2 10
Coste: 7580

GENERACION: 728
Mejor Solucion:  1 3 6 5 8 15 16 17 20 4 21 12 14 0 19 13 18 7 9 11 2 10
Coste: 7580

GENERACION: 729
Mejor Solucion:  1 3 6 5 8 15 16 17 20 4 21 12 14 0 19 13 18 7 9 11 2 10
Coste: 7580

GENERACION: 730
Mejor Solucion:  1 3 6 5 8 15 16 17 20 4 21 12 14 0 19 13 18 7 9 11 2 10
Coste: 7580

GENERACION: 731
Mejor Solucion:  1 3 6 5 8 15 16 17 20 4 21 12 14 0 19 13 18 7 9 11 2 10
Coste: 7580

GENERACION: 732
Mejor Solucion:  1 3 6 5 8 15 16 17 20 4 21 12 14 0 19 13 18 7 9 11 2 10
Coste: 7580

GENERACION: 733
Mejor Solucion:  1 3 6 5 8 15 16 17 20 4 21 12 14 0 19 13 18 7 9 11 2 10
Coste: 7580

GENERACION: 734
Mejor Solucion:  1 3 6 5 8 15 16 17 20 4 21 12 14 0 19 13 18 7 9 11 2 10
Coste: 7580

GENERACION: 735
Mejor Solucion:  1 3 6 5 8 15 16 17 20 4 21 12 14 0 19 13 18 7 9 11 2 10
Coste: 7580

GENERACION: 736
Mejor Solucion:  1 3 6 5 8 15 16 17 20 4 21 12 14 0 19 13 18 7 9 11 2 10
Coste: 7580

GENERACION: 737
Mejor Solucion:  1 3 6 5 8 15 16 17 20 4 21 12 14 0 19 13 18 7 9 11 2 10
Coste: 7580

GENERACION: 738
Mejor Solucion:  1 3 6 5 8 15 16 17 20 4 21 12 14 0 19 13 18 7 9 11 2 10
Coste: 7580

GENERACION: 739
Mejor Solucion:  1 3 6 5 8 15 16 17 20 4 21 12 14 0 19 13 18 7 9 11 2 10
Coste: 7580

GENERACION: 740
Mejor Solucion:  1 3 6 5 8 15 16 17 20 4 21 12 14 0 19 13 18 7 9 11 2 10
Coste: 7580

GENERACION: 741
Mejor Solucion:  1 3 6 5 8 15 16 17 20 4 21 12 14 0 19 13 18 7 9 11 2 10
Coste: 7580

GENERACION: 742
Mejor Solucion:  1 3 6 5 8 15 16 17 20 4 21 12 14 0 19 13 18 7 9 11 2 10
Coste: 7580

GENERACION: 743
Mejor Solucion:  1 3 6 5 8 15 16 17 20 4 21 12 14 0 19 13 18 7 9 11 2 10
Coste: 7580

GENERACION: 744
Mejor Solucion:  1 3 6 5 8 15 16 17 20 4 21 12 14 0 19 13 18 7 9 11 2 10
Coste: 7580

GENERACION: 745
Mejor Solucion:  1 3 6 5 8 15 16 17 20 4 21 12 14 0 19 13 18 7 9 11 2 10
Coste: 7580

GENERACION: 746
Mejor Solucion:  1 3 6 5 8 15 16 17 20 4 21 12 14 0 19 13 18 7 9 11 2 10
Coste: 7580

GENERACION: 747
Mejor Solucion:  1 3 6 5 8 15 16 17 20 4 21 12 14 0 19 13 18 7 9 11 2 10
Coste: 7580

GENERACION: 748
Mejor Solucion:  1 3 6 5 8 15 16 17 20 4 21 12 14 0 19 13 18 7 9 11 2 10
Coste: 7580

GENERACION: 749
Mejor Solucion:  1 3 6 5 8 15 16 17 20 4 21 12 14 0 19 13 18 7 9 11 2 10
Coste: 7580

GENERACION: 750
Mejor Solucion:  1 3 6 5 8 15 16 17 20 4 21 12 14 0 19 13 18 7 9 11 2 10
Coste: 7580

GENERACION: 751
Mejor Solucion:  1 3 6 5 8 15 16 17 20 4 21 12 14 0 19 13 18 7 9 11 2 10
Coste: 7580

GENERACION: 752
Mejor Solucion:  1 3 6 5 8 15 16 17 20 4 21 12 14 0 19 13 18 7 9 11 2 10
Coste: 7580

GENERACION: 753
Mejor Solucion:  1 3 6 5 8 15 16 17 20 4 21 12 14 0 19 13 18 7 9 11 2 10
Coste: 7580

GENERACION: 754
Mejor Solucion:  1 3 6 5 8 15 16 17 20 4 21 12 14 0 19 13 18 7 9 11 2 10
Coste: 7580

GENERACION: 755
Mejor Solucion:  1 3 6 5 8 15 16 17 20 4 21 12 14 0 19 13 18 7 9 11 2 10
Coste: 7580

GENERACION: 756
Mejor Solucion:  1 3 6 5 8 15 16 17 20 4 21 12 14 0 19 13 18 7 9 11 2 10
Coste: 7580

GENERACION: 757
Mejor Solucion:  1 3 6 5 8 15 16 17 20 4 21 12 14 0 19 13 18 7 9 11 2 10
Coste: 7580

GENERACION: 758
Mejor Solucion:  1 3 6 5 8 15 16 17 20 4 21 12 14 0 19 13 18 7 9 11 2 10
Coste: 7580

GENERACION: 759
Mejor Solucion:  1 3 6 5 8 15 16 17 20 4 21 12 14 0 19 13 18 7 9 11 2 10
Coste: 7580

GENERACION: 760
Mejor Solucion:  1 3 6 5 8 15 16 17 20 4 21 12 14 0 19 13 18 7 9 11 2 10
Coste: 7580

GENERACION: 761
Mejor Solucion:  1 3 6 5 8 15 16 17 20 4 21 12 14 0 19 13 18 7 9 11 2 10
Coste: 7580

GENERACION: 762
Mejor Solucion:  1 3 6 5 8 15 16 17 20 4 21 12 14 0 19 13 18 7 9 11 2 10
Coste: 7580

GENERACION: 763
Mejor Solucion:  1 3 6 5 8 15 16 17 20 4 21 12 14 0 19 13 18 7 9 11 2 10
Coste: 7580

GENERACION: 764
Mejor Solucion:  1 3 6 5 8 15 16 17 20 4 21 12 14 0 19 13 18 7 9 11 2 10
Coste: 7580

GENERACION: 765
Mejor Solucion:  1 3 6 5 8 15 16 17 20 4 21 12 14 0 19 13 18 7 9 11 2 10
Coste: 7580

GENERACION: 766
Mejor Solucion:  1 3 6 5 8 15 16 17 20 4 21 12 14 0 19 13 18 7 9 11 2 10
Coste: 7580

GENERACION: 767
Mejor Solucion:  1 3 6 5 8 15 16 17 20 4 21 12 14 0 19 13 18 7 9 11 2 10
Coste: 7580

GENERACION: 768
Mejor Solucion:  1 3 6 5 8 15 16 17 20 4 21 12 14 0 19 13 18 7 9 11 2 10
Coste: 7580

GENERACION: 769
Mejor Solucion:  1 3 6 5 8 15 16 17 20 4 21 12 14 0 19 13 18 7 9 11 2 10
Coste: 7580

GENERACION: 770
Mejor Solucion:  1 3 6 5 8 15 16 17 20 4 21 12 14 0 19 13 18 7 9 11 2 10
Coste: 7580

GENERACION: 771
Mejor Solucion:  1 3 6 5 8 15 16 17 20 4 21 12 14 0 19 13 18 7 9 11 2 10
Coste: 7580

GENERACION: 772
Mejor Solucion:  1 3 6 5 8 15 16 17 20 4 21 12 14 0 19 13 18 7 9 11 2 10
Coste: 7580

GENERACION: 773
Mejor Solucion:  1 3 6 5 8 15 16 17 20 4 21 12 14 0 19 13 18 7 9 11 2 10
Coste: 7580

GENERACION: 774
Mejor Solucion:  1 3 6 5 8 15 16 17 20 4 21 12 14 0 19 13 18 7 9 11 2 10
Coste: 7580

GENERACION: 775
Mejor Solucion:  1 3 6 5 8 15 16 17 20 4 21 12 14 0 19 13 18 7 9 11 2 10
Coste: 7580

GENERACION: 776
Mejor Solucion:  1 3 6 5 8 15 16 17 20 4 21 12 14 0 19 13 18 7 9 11 2 10
Coste: 7580

GENERACION: 777
Mejor Solucion:  1 3 6 5 8 15 16 17 20 4 21 12 14 0 19 13 18 7 9 11 2 10
Coste: 7580

GENERACION: 778
Mejor Solucion:  1 3 6 5 8 15 16 17 20 4 21 12 14 0 19 13 18 7 9 11 2 10
Coste: 7580

GENERACION: 779
Mejor Solucion:  1 3 6 5 8 15 16 17 20 4 21 12 14 0 19 13 18 7 9 11 2 10
Coste: 7580

GENERACION: 780
Mejor Solucion:  1 3 6 5 8 15 16 17 20 4 21 12 14 0 19 13 18 7 9 11 2 10
Coste: 7580

GENERACION: 781
Mejor Solucion:  1 3 6 5 8 15 16 17 20 4 21 12 14 0 19 13 18 7 9 11 2 10
Coste: 7580

GENERACION: 782
Mejor Solucion:  1 3 6 5 8 15 16 17 20 4 21 12 14 0 19 13 18 7 9 11 2 10
Coste: 7580

GENERACION: 783
Mejor Solucion:  1 3 6 5 8 15 16 17 20 4 21 12 14 0 19 13 18 7 9 11 2 10
Coste: 7580

GENERACION: 784
Mejor Solucion:  1 3 6 5 8 15 16 17 20 4 21 12 14 0 19 13 18 7 9 11 2 10
Coste: 7580

GENERACION: 785
Mejor Solucion:  1 3 6 5 8 15 16 17 20 4 21 12 14 0 19 13 18 7 9 11 2 10
Coste: 7580

GENERACION: 786
Mejor Solucion:  1 3 6 5 8 15 16 17 20 4 21 12 14 0 19 13 18 7 9 11 2 10
Coste: 7580

GENERACION: 787
Mejor Solucion:  1 3 6 5 8 15 16 17 20 4 21 12 14 0 19 13 18 7 9 11 2 10
Coste: 7580

GENERACION: 788
Mejor Solucion:  1 3 6 5 8 15 16 17 20 4 21 12 14 0 19 13 18 7 9 11 2 10
Coste: 7580

GENERACION: 789
Mejor Solucion:  1 3 6 5 8 15 16 17 20 4 21 12 14 0 19 13 18 7 9 11 2 10
Coste: 7580

GENERACION: 790
Mejor Solucion:  1 3 6 5 8 15 16 17 20 4 21 12 14 0 19 13 18 7 9 11 2 10
Coste: 7580

GENERACION: 791
Mejor Solucion:  1 3 6 5 8 15 16 17 20 4 21 12 14 0 19 13 18 7 9 11 2 10
Coste: 7580

GENERACION: 792
Mejor Solucion:  1 3 6 5 8 15 16 17 20 4 21 12 14 0 19 13 18 7 9 11 2 10
Coste: 7580

GENERACION: 793
Mejor Solucion:  1 3 6 5 8 15 16 17 20 4 21 12 14 0 19 13 18 7 9 11 2 10
Coste: 7580

GENERACION: 794
Mejor Solucion:  1 3 6 5 8 15 16 17 20 4 21 12 14 0 19 13 18 7 9 11 2 10
Coste: 7580

GENERACION: 795
Mejor Solucion:  1 3 6 5 8 15 16 17 20 4 21 12 14 0 19 13 18 7 9 11 2 10
Coste: 7580

GENERACION: 796
Mejor Solucion:  1 3 6 5 8 15 16 17 20 4 21 12 14 0 19 13 18 7 9 11 2 10
Coste: 7580

GENERACION: 797
Mejor Solucion:  1 3 6 5 8 15 16 17 20 4 21 12 14 0 19 13 18 7 9 11 2 10
Coste: 7580

GENERACION: 798
Mejor Solucion:  1 3 6 5 8 15 16 17 20 4 21 12 14 0 19 13 18 7 9 11 2 10
Coste: 7580

GENERACION: 799
Mejor Solucion:  1 3 6 5 8 15 16 17 20 4 21 12 14 0 19 13 18 7 9 11 2 10
Coste: 7580

GENERACION: 800
Mejor Solucion:  1 3 6 5 8 15 16 17 20 4 21 12 14 0 19 13 18 7 9 11 2 10
Coste: 7580

GENERACION: 801
Mejor Solucion:  1 3 6 5 8 15 16 17 20 4 21 12 14 0 19 13 18 7 9 11 2 10
Coste: 7580

GENERACION: 802
Mejor Solucion:  1 3 6 5 8 15 16 17 20 4 21 12 14 0 19 13 18 7 9 11 2 10
Coste: 7580

GENERACION: 803
Mejor Solucion:  1 3 6 5 8 15 16 17 20 4 21 12 14 0 19 13 18 7 9 11 2 10
Coste: 7580

GENERACION: 804
Mejor Solucion:  1 3 6 5 8 15 16 17 20 4 21 12 14 0 19 13 18 7 9 11 2 10
Coste: 7580

GENERACION: 805
Mejor Solucion:  1 3 6 5 8 15 16 17 20 4 21 12 14 0 19 13 18 7 9 11 2 10
Coste: 7580

GENERACION: 806
Mejor Solucion:  1 3 6 5 8 15 16 17 20 4 21 12 14 0 19 13 18 7 9 11 2 10
Coste: 7580

GENERACION: 807
Mejor Solucion:  1 3 6 5 8 15 16 17 20 4 21 12 14 0 19 13 18 7 9 11 2 10
Coste: 7580

GENERACION: 808
Mejor Solucion:  1 3 6 5 8 15 16 17 20 4 21 12 14 0 19 13 18 7 9 11 2 10
Coste: 7580

GENERACION: 809
Mejor Solucion:  1 3 6 5 8 15 16 17 20 4 21 12 14 0 19 13 18 7 9 11 2 10
Coste: 7580

GENERACION: 810
Mejor Solucion:  1 3 6 5 8 15 16 17 20 4 21 12 14 0 19 13 18 7 9 11 2 10
Coste: 7580

GENERACION: 811
Mejor Solucion:  1 3 6 5 8 15 16 17 20 4 21 12 14 0 19 13 18 7 9 11 2 10
Coste: 7580

GENERACION: 812
Mejor Solucion:  1 3 6 5 8 15 16 17 20 4 21 12 14 0 19 13 18 7 9 11 2 10
Coste: 7580

GENERACION: 813
Mejor Solucion:  1 3 6 5 8 15 16 17 20 4 21 12 14 0 19 13 18 7 9 11 2 10
Coste: 7580

GENERACION: 814
Mejor Solucion:  1 3 6 5 8 15 16 17 20 4 21 12 14 0 19 13 18 7 9 11 2 10
Coste: 7580

GENERACION: 815
Mejor Solucion:  1 3 6 5 8 15 16 17 20 4 21 12 14 0 19 13 18 7 9 11 2 10
Coste: 7580

GENERACION: 816
Mejor Solucion:  1 3 6 5 8 15 16 17 20 4 21 12 14 0 19 13 18 7 9 11 2 10
Coste: 7580

GENERACION: 817
Mejor Solucion:  1 3 6 5 8 15 16 17 20 4 21 12 14 0 19 13 18 7 9 11 2 10
Coste: 7580

GENERACION: 818
Mejor Solucion:  1 3 6 5 8 15 16 17 20 4 21 12 14 0 19 13 18 7 9 11 2 10
Coste: 7580

GENERACION: 819
Mejor Solucion:  1 3 6 5 8 15 16 17 20 4 21 12 14 0 19 13 18 7 9 11 2 10
Coste: 7580

GENERACION: 820
Mejor Solucion:  1 3 6 5 8 15 16 17 20 4 21 12 14 0 19 13 18 7 9 11 2 10
Coste: 7580

GENERACION: 821
Mejor Solucion:  1 3 6 5 8 15 16 17 20 4 21 12 14 0 19 13 18 7 9 11 2 10
Coste: 7580

GENERACION: 822
Mejor Solucion:  1 3 6 5 8 15 16 17 20 4 21 12 14 0 19 13 18 7 9 11 2 10
Coste: 7580

GENERACION: 823
Mejor Solucion:  1 3 6 5 8 15 16 17 20 4 21 12 14 0 19 13 18 7 9 11 2 10
Coste: 7580

GENERACION: 824
Mejor Solucion:  1 3 6 5 8 15 16 17 20 4 21 12 14 0 19 13 18 7 9 11 2 10
Coste: 7580

GENERACION: 825
Mejor Solucion:  1 3 6 5 8 15 16 17 20 4 21 12 14 0 19 13 18 7 9 11 2 10
Coste: 7580

GENERACION: 826
Mejor Solucion:  1 3 6 5 8 15 16 17 20 4 21 12 14 0 19 13 18 7 9 11 2 10
Coste: 7580

GENERACION: 827
Mejor Solucion:  1 3 6 5 8 15 16 17 20 4 21 12 14 0 19 13 18 7 9 11 2 10
Coste: 7580

GENERACION: 828
Mejor Solucion:  1 3 6 5 8 15 16 17 20 4 21 12 14 0 19 13 18 7 9 11 2 10
Coste: 7580

GENERACION: 829
Mejor Solucion:  1 3 6 5 8 15 16 17 20 4 21 12 14 0 19 13 18 7 9 11 2 10
Coste: 7580

GENERACION: 830
Mejor Solucion:  1 3 6 5 8 15 16 17 20 4 21 12 14 0 19 13 18 7 9 11 2 10
Coste: 7580

GENERACION: 831
Mejor Solucion:  1 3 6 5 8 15 16 17 20 4 21 12 14 0 19 13 18 7 9 11 2 10
Coste: 7580

GENERACION: 832
Mejor Solucion:  1 3 6 5 8 15 16 17 20 4 21 12 14 0 19 13 18 7 9 11 2 10
Coste: 7580

GENERACION: 833
Mejor Solucion:  1 3 6 5 8 15 16 17 20 4 21 12 14 0 19 13 18 7 9 11 2 10
Coste: 7580

GENERACION: 834
Mejor Solucion:  1 3 6 5 8 15 16 17 20 4 21 12 14 0 19 13 18 7 9 11 2 10
Coste: 7580

GENERACION: 835
Mejor Solucion:  1 3 6 5 8 15 16 17 20 4 21 12 14 0 19 13 18 7 9 11 2 10
Coste: 7580

GENERACION: 836
Mejor Solucion:  1 3 6 5 8 15 16 17 20 4 21 12 14 0 19 13 18 7 9 11 2 10
Coste: 7580

GENERACION: 837
Mejor Solucion:  1 3 6 5 8 15 16 17 20 4 21 12 14 0 19 13 18 7 9 11 2 10
Coste: 7580

GENERACION: 838
Mejor Solucion:  1 3 6 5 8 15 16 17 20 4 21 12 14 0 19 13 18 7 9 11 2 10
Coste: 7580

GENERACION: 839
Mejor Solucion:  1 3 6 5 8 15 16 17 20 4 21 12 14 0 19 13 18 7 9 11 2 10
Coste: 7580

GENERACION: 840
Mejor Solucion:  1 3 6 5 8 15 16 17 20 4 21 12 14 0 19 13 18 7 9 11 2 10
Coste: 7580

GENERACION: 841
Mejor Solucion:  1 3 6 5 8 15 16 17 20 4 21 12 14 0 19 13 18 7 9 11 2 10
Coste: 7580

GENERACION: 842
Mejor Solucion:  1 3 6 5 8 15 16 17 20 4 21 12 14 0 19 13 18 7 9 11 2 10
Coste: 7580

GENERACION: 843
Mejor Solucion:  1 3 6 5 8 15 16 17 20 4 21 12 14 0 19 13 18 7 9 11 2 10
Coste: 7580

GENERACION: 844
Mejor Solucion:  1 3 6 5 8 15 16 17 20 4 21 12 14 0 19 13 18 7 9 11 2 10
Coste: 7580

GENERACION: 845
Mejor Solucion:  1 3 6 5 8 15 16 17 20 4 21 12 14 0 19 13 18 7 9 11 2 10
Coste: 7580

GENERACION: 846
Mejor Solucion:  1 3 6 5 8 15 16 17 20 4 21 12 14 0 19 13 18 7 9 11 2 10
Coste: 7580

GENERACION: 847
Mejor Solucion:  1 3 6 5 8 15 16 17 20 4 21 12 14 0 19 13 18 7 9 11 2 10
Coste: 7580

GENERACION: 848
Mejor Solucion:  1 3 6 5 8 15 16 17 20 4 21 12 14 0 19 13 18 7 9 11 2 10
Coste: 7580

GENERACION: 849
Mejor Solucion:  1 3 6 5 8 15 16 17 20 4 21 12 14 0 19 13 18 7 9 11 2 10
Coste: 7580

GENERACION: 850
Mejor Solucion:  1 3 6 5 8 15 16 17 20 4 21 12 14 0 19 13 18 7 9 11 2 10
Coste: 7580

GENERACION: 851
Mejor Solucion:  1 3 6 5 8 15 16 17 20 4 21 12 14 0 19 13 18 7 9 11 2 10
Coste: 7580

GENERACION: 852
Mejor Solucion:  1 3 6 5 8 15 16 17 20 4 21 12 14 0 19 13 18 7 9 11 2 10
Coste: 7580

GENERACION: 853
Mejor Solucion:  1 3 6 5 8 15 16 17 20 4 21 12 14 0 19 13 18 7 9 11 2 10
Coste: 7580

GENERACION: 854
Mejor Solucion:  1 3 6 5 8 15 16 17 20 4 21 12 14 0 19 13 18 7 9 11 2 10
Coste: 7580

GENERACION: 855
Mejor Solucion:  1 3 6 5 8 15 16 17 20 4 21 12 14 0 19 13 18 7 9 11 2 10
Coste: 7580

GENERACION: 856
Mejor Solucion:  1 3 6 5 8 15 16 17 20 4 21 12 14 0 19 13 18 7 9 11 2 10
Coste: 7580

GENERACION: 857
Mejor Solucion:  1 3 6 5 8 15 16 17 20 4 21 12 14 0 19 13 18 7 9 11 2 10
Coste: 7580

GENERACION: 858
Mejor Solucion:  1 3 6 5 8 15 16 17 20 4 21 12 14 0 19 13 18 7 9 11 2 10
Coste: 7580

GENERACION: 859
Mejor Solucion:  1 3 6 5 8 15 16 17 20 4 21 12 14 0 19 13 18 7 9 11 2 10
Coste: 7580

GENERACION: 860
Mejor Solucion:  1 3 6 5 8 15 16 17 20 4 21 12 14 0 19 13 18 7 9 11 2 10
Coste: 7580

GENERACION: 861
Mejor Solucion:  1 3 6 5 8 15 16 17 20 4 21 12 14 0 19 13 18 7 9 11 2 10
Coste: 7580

GENERACION: 862
Mejor Solucion:  1 3 6 5 8 15 16 17 20 4 21 12 14 0 19 13 18 7 9 11 2 10
Coste: 7580

GENERACION: 863
Mejor Solucion:  1 3 6 5 8 15 16 17 20 4 21 12 14 0 19 13 18 7 9 11 2 10
Coste: 7580

GENERACION: 864
Mejor Solucion:  1 3 6 5 8 15 16 17 20 4 21 12 14 0 19 13 18 7 9 11 2 10
Coste: 7580

GENERACION: 865
Mejor Solucion:  1 3 6 5 8 15 16 17 20 4 21 12 14 0 19 13 18 7 9 11 2 10
Coste: 7580

GENERACION: 866
Mejor Solucion:  1 3 6 5 8 15 16 17 20 4 21 12 14 0 19 13 18 7 9 11 2 10
Coste: 7580

GENERACION: 867
Mejor Solucion:  1 3 6 5 8 15 16 17 20 4 21 12 14 0 19 13 18 7 9 11 2 10
Coste: 7580

GENERACION: 868
Mejor Solucion:  1 3 6 5 8 15 16 17 20 4 21 12 14 0 19 13 18 7 9 11 2 10
Coste: 7580

GENERACION: 869
Mejor Solucion:  1 3 6 5 8 15 16 17 20 4 21 12 14 0 19 13 18 7 9 11 2 10
Coste: 7580

GENERACION: 870
Mejor Solucion:  1 3 6 5 8 15 16 17 20 4 21 12 14 0 19 13 18 7 9 11 2 10
Coste: 7580

GENERACION: 871
Mejor Solucion:  1 3 6 5 8 15 16 17 20 4 21 12 14 0 19 13 18 7 9 11 2 10
Coste: 7580

GENERACION: 872
Mejor Solucion:  1 3 6 5 8 15 16 17 20 4 21 12 14 0 19 13 18 7 9 11 2 10
Coste: 7580

GENERACION: 873
Mejor Solucion:  1 3 6 5 8 15 16 17 20 4 21 12 14 0 19 13 18 7 9 11 2 10
Coste: 7580

GENERACION: 874
Mejor Solucion:  1 3 6 5 8 15 16 17 20 4 21 12 14 0 19 13 18 7 9 11 2 10
Coste: 7580

GENERACION: 875
Mejor Solucion:  1 3 6 5 8 15 16 17 20 4 21 12 14 0 19 13 18 7 9 11 2 10
Coste: 7580

GENERACION: 876
Mejor Solucion:  1 3 6 5 8 15 16 17 20 4 21 12 14 0 19 13 18 7 9 11 2 10
Coste: 7580

GENERACION: 877
Mejor Solucion:  1 3 6 5 8 15 16 17 20 4 21 12 14 0 19 13 18 7 9 11 2 10
Coste: 7580

GENERACION: 878
Mejor Solucion:  1 3 6 5 8 15 16 17 20 4 21 12 14 0 19 13 18 7 9 11 2 10
Coste: 7580

GENERACION: 879
Mejor Solucion:  1 3 6 5 8 15 16 17 20 4 21 12 14 0 19 13 18 7 9 11 2 10
Coste: 7580

GENERACION: 880
Mejor Solucion:  1 3 6 5 8 15 16 17 20 4 21 12 14 0 19 13 18 7 9 11 2 10
Coste: 7580

GENERACION: 881
Mejor Solucion:  1 3 6 5 8 15 16 17 20 4 21 12 14 0 19 13 18 7 9 11 2 10
Coste: 7580

GENERACION: 882
Mejor Solucion:  1 3 6 5 8 15 16 17 20 4 21 12 14 0 19 13 18 7 9 11 2 10
Coste: 7580

GENERACION: 883
Mejor Solucion:  1 3 6 5 8 15 16 17 20 4 21 12 14 0 19 13 18 7 9 11 2 10
Coste: 7580

GENERACION: 884
Mejor Solucion:  1 3 6 5 8 15 16 17 20 4 21 12 14 0 19 13 18 7 9 11 2 10
Coste: 7580

GENERACION: 885
Mejor Solucion:  1 3 6 5 8 15 16 17 20 4 21 12 14 0 19 13 18 7 9 11 2 10
Coste: 7580

GENERACION: 886
Mejor Solucion:  1 3 6 5 8 15 16 17 20 4 21 12 14 0 19 13 18 7 9 11 2 10
Coste: 7580

GENERACION: 887
Mejor Solucion:  1 3 6 5 8 15 16 17 20 4 21 12 14 0 19 13 18 7 9 11 2 10
Coste: 7580

GENERACION: 888
Mejor Solucion:  1 3 6 5 8 15 16 17 20 4 21 12 14 0 19 13 18 7 9 11 2 10
Coste: 7580

GENERACION: 889
Mejor Solucion:  1 3 6 5 8 15 16 17 20 4 21 12 14 0 19 13 18 7 9 11 2 10
Coste: 7580

GENERACION: 890
Mejor Solucion:  1 3 6 5 8 15 16 17 20 4 21 12 14 0 19 13 18 7 9 11 2 10
Coste: 7580

GENERACION: 891
Mejor Solucion:  1 3 6 5 8 15 16 17 20 4 21 12 14 0 19 13 18 7 9 11 2 10
Coste: 7580

GENERACION: 892
Mejor Solucion:  1 3 6 5 8 15 16 17 20 4 21 12 14 0 19 13 18 7 9 11 2 10
Coste: 7580

GENERACION: 893
Mejor Solucion:  1 3 6 5 8 15 16 17 20 4 21 12 14 0 19 13 18 7 9 11 2 10
Coste: 7580

GENERACION: 894
Mejor Solucion:  1 3 6 5 8 15 16 17 20 4 21 12 14 0 19 13 18 7 9 11 2 10
Coste: 7580

GENERACION: 895
Mejor Solucion:  1 3 6 5 8 15 16 17 20 4 21 12 14 0 19 13 18 7 9 11 2 10
Coste: 7580

GENERACION: 896
Mejor Solucion:  1 3 6 5 8 15 16 17 20 4 21 12 14 0 19 13 18 7 9 11 2 10
Coste: 7580

GENERACION: 897
Mejor Solucion:  1 3 6 5 8 15 16 17 20 4 21 12 14 0 19 13 18 7 9 11 2 10
Coste: 7580

GENERACION: 898
Mejor Solucion:  1 3 6 5 8 15 16 17 20 4 21 12 14 0 19 13 18 7 9 11 2 10
Coste: 7580

GENERACION: 899
Mejor Solucion:  1 3 6 5 8 15 16 17 20 4 21 12 14 0 19 13 18 7 9 11 2 10
Coste: 7580

GENERACION: 900
Mejor Solucion:  1 3 6 5 8 15 16 17 20 4 21 12 14 0 19 13 18 7 9 11 2 10
Coste: 7580

GENERACION: 901
Mejor Solucion:  1 3 6 5 8 15 16 17 20 4 21 12 14 0 19 13 18 7 9 11 2 10
Coste: 7580

GENERACION: 902
Mejor Solucion:  1 3 6 5 8 15 16 17 20 4 21 12 14 0 19 13 18 7 9 11 2 10
Coste: 7580

GENERACION: 903
Mejor Solucion:  1 3 6 5 8 15 16 17 20 4 21 12 14 0 19 13 18 7 9 11 2 10
Coste: 7580

GENERACION: 904
Mejor Solucion:  1 3 6 5 8 15 16 17 20 4 21 12 14 0 19 13 18 7 9 11 2 10
Coste: 7580

GENERACION: 905
Mejor Solucion:  1 3 6 5 8 15 16 17 20 4 21 12 14 0 19 13 18 7 9 11 2 10
Coste: 7580

GENERACION: 906
Mejor Solucion:  1 3 6 5 8 15 16 17 20 4 21 12 14 0 19 13 18 7 9 11 2 10
Coste: 7580

GENERACION: 907
Mejor Solucion:  1 3 6 5 8 15 16 17 20 4 21 12 14 0 19 13 18 7 9 11 2 10
Coste: 7580

GENERACION: 908
Mejor Solucion:  1 3 6 5 8 15 16 17 20 4 21 12 14 0 19 13 18 7 9 11 2 10
Coste: 7580

GENERACION: 909
Mejor Solucion:  1 3 6 5 8 15 16 17 20 4 21 12 14 0 19 13 18 7 9 11 2 10
Coste: 7580

GENERACION: 910
Mejor Solucion:  1 3 6 5 8 15 16 17 20 4 21 12 14 0 19 13 18 7 9 11 2 10
Coste: 7580

GENERACION: 911
Mejor Solucion:  1 3 6 5 8 15 16 17 20 4 21 12 14 0 19 13 18 7 9 11 2 10
Coste: 7580

GENERACION: 912
Mejor Solucion:  1 3 6 5 8 15 16 17 20 4 21 12 14 0 19 13 18 7 9 11 2 10
Coste: 7580

GENERACION: 913
Mejor Solucion:  1 3 6 5 8 15 16 17 20 4 21 12 14 0 19 13 18 7 9 11 2 10
Coste: 7580

GENERACION: 914
Mejor Solucion:  1 3 6 5 8 15 16 17 20 4 21 12 14 0 19 13 18 7 9 11 2 10
Coste: 7580

GENERACION: 915
Mejor Solucion:  1 3 6 5 8 15 16 17 20 4 21 12 14 0 19 13 18 7 9 11 2 10
Coste: 7580

GENERACION: 916
Mejor Solucion:  1 3 6 5 8 15 16 17 20 4 21 12 14 0 19 13 18 7 9 11 2 10
Coste: 7580

GENERACION: 917
Mejor Solucion:  1 3 6 5 8 15 16 17 20 4 21 12 14 0 19 13 18 7 9 11 2 10
Coste: 7580

GENERACION: 918
Mejor Solucion:  1 3 6 5 8 15 16 17 20 4 21 12 14 0 19 13 18 7 9 11 2 10
Coste: 7580

GENERACION: 919
Mejor Solucion:  1 3 6 5 8 15 16 17 20 4 21 12 14 0 19 13 18 7 9 11 2 10
Coste: 7580

GENERACION: 920
Mejor Solucion:  1 3 6 5 8 15 16 17 20 4 21 12 14 0 19 13 18 7 9 11 2 10
Coste: 7580

GENERACION: 921
Mejor Solucion:  1 3 6 5 8 15 16 17 20 4 21 12 14 0 19 13 18 7 9 11 2 10
Coste: 7580

GENERACION: 922
Mejor Solucion:  1 3 6 5 8 15 16 17 20 4 21 12 14 0 19 13 18 7 9 11 2 10
Coste: 7580

GENERACION: 923
Mejor Solucion:  1 3 6 5 8 15 16 17 20 4 21 12 14 0 19 13 18 7 9 11 2 10
Coste: 7580

GENERACION: 924
Mejor Solucion:  1 3 6 5 8 15 16 17 20 4 21 12 14 0 19 13 18 7 9 11 2 10
Coste: 7580

GENERACION: 925
Mejor Solucion:  1 3 6 5 8 15 16 17 20 4 21 12 14 0 19 13 18 7 9 11 2 10
Coste: 7580

GENERACION: 926
Mejor Solucion:  1 3 6 5 8 15 16 17 20 4 21 12 14 0 19 13 18 7 9 11 2 10
Coste: 7580

GENERACION: 927
Mejor Solucion:  1 3 6 5 8 15 16 17 20 4 21 12 14 0 19 13 18 7 9 11 2 10
Coste: 7580

GENERACION: 928
Mejor Solucion:  1 3 6 5 8 15 16 17 20 4 21 12 14 0 19 13 18 7 9 11 2 10
Coste: 7580

GENERACION: 929
Mejor Solucion:  1 3 6 5 8 15 16 17 20 4 21 12 14 0 19 13 18 7 9 11 2 10
Coste: 7580

GENERACION: 930
Mejor Solucion:  1 3 6 5 8 15 16 17 20 4 21 12 14 0 19 13 18 7 9 11 2 10
Coste: 7580

GENERACION: 931
Mejor Solucion:  1 3 6 5 8 15 16 17 20 4 21 12 14 0 19 13 18 7 9 11 2 10
Coste: 7580

GENERACION: 932
Mejor Solucion:  1 3 6 5 8 15 16 17 20 4 21 12 14 0 19 13 18 7 9 11 2 10
Coste: 7580

GENERACION: 933
Mejor Solucion:  1 3 6 5 8 15 16 17 20 4 21 12 14 0 19 13 18 7 9 11 2 10
Coste: 7580

GENERACION: 934
Mejor Solucion:  1 3 6 5 8 15 16 17 20 4 21 12 14 0 19 13 18 7 9 11 2 10
Coste: 7580

GENERACION: 935
Mejor Solucion:  1 3 6 5 8 15 16 17 20 4 21 12 14 0 19 13 18 7 9 11 2 10
Coste: 7580

GENERACION: 936
Mejor Solucion:  1 3 6 5 8 15 16 17 20 4 21 12 14 0 19 13 18 7 9 11 2 10
Coste: 7580

GENERACION: 937
Mejor Solucion:  1 3 6 5 8 15 16 17 20 4 21 12 14 0 19 13 18 7 9 11 2 10
Coste: 7580

GENERACION: 938
Mejor Solucion:  1 3 6 5 8 15 16 17 20 4 21 12 14 0 19 13 18 7 9 11 2 10
Coste: 7580

GENERACION: 939
Mejor Solucion:  1 3 6 5 8 15 16 17 20 4 21 12 14 0 19 13 18 7 9 11 2 10
Coste: 7580

GENERACION: 940
Mejor Solucion:  1 3 6 5 8 15 16 17 20 4 21 12 14 0 19 13 18 7 9 11 2 10
Coste: 7580

GENERACION: 941
Mejor Solucion:  1 3 6 5 8 15 16 17 20 4 21 12 14 0 19 13 18 7 9 11 2 10
Coste: 7580

GENERACION: 942
Mejor Solucion:  1 3 6 5 8 15 16 17 20 4 21 12 14 0 19 13 18 7 9 11 2 10
Coste: 7580

GENERACION: 943
Mejor Solucion:  1 3 6 5 8 15 16 17 20 4 21 12 14 0 19 13 18 7 9 11 2 10
Coste: 7580

GENERACION: 944
Mejor Solucion:  1 3 6 5 8 15 16 17 20 4 21 12 14 0 19 13 18 7 9 11 2 10
Coste: 7580

GENERACION: 945
Mejor Solucion:  1 3 6 5 8 15 16 17 20 4 21 12 14 0 19 13 18 7 9 11 2 10
Coste: 7580

GENERACION: 946
Mejor Solucion:  1 3 6 5 8 15 16 17 20 4 21 12 14 0 19 13 18 7 9 11 2 10
Coste: 7580

GENERACION: 947
Mejor Solucion:  1 3 6 5 8 15 16 17 20 4 21 12 14 0 19 13 18 7 9 11 2 10
Coste: 7580

GENERACION: 948
Mejor Solucion:  1 3 6 5 8 15 16 17 20 4 21 12 14 0 19 13 18 7 9 11 2 10
Coste: 7580

GENERACION: 949
Mejor Solucion:  1 3 6 5 8 15 16 17 20 4 21 12 14 0 19 13 18 7 9 11 2 10
Coste: 7580

GENERACION: 950
Mejor Solucion:  1 3 6 5 8 15 16 17 20 4 21 12 14 0 19 13 18 7 9 11 2 10
Coste: 7580

GENERACION: 951
Mejor Solucion:  1 3 6 5 8 15 16 17 20 4 21 12 14 0 19 13 18 7 9 11 2 10
Coste: 7580

GENERACION: 952
Mejor Solucion:  1 3 6 5 8 15 16 17 20 4 21 12 14 0 19 13 18 7 9 11 2 10
Coste: 7580

GENERACION: 953
Mejor Solucion:  1 3 6 5 8 15 16 17 20 4 21 12 14 0 19 13 18 7 9 11 2 10
Coste: 7580

GENERACION: 954
Mejor Solucion:  1 3 6 5 8 15 16 17 20 4 21 12 14 0 19 13 18 7 9 11 2 10
Coste: 7580

GENERACION: 955
Mejor Solucion:  1 3 6 5 8 15 16 17 20 4 21 12 14 0 19 13 18 7 9 11 2 10
Coste: 7580

GENERACION: 956
Mejor Solucion:  1 3 6 5 8 15 16 17 20 4 21 12 14 0 19 13 18 7 9 11 2 10
Coste: 7580

GENERACION: 957
Mejor Solucion:  1 3 6 5 8 15 16 17 20 4 21 12 14 0 19 13 18 7 9 11 2 10
Coste: 7580

GENERACION: 958
Mejor Solucion:  1 3 6 5 8 15 16 17 20 4 21 12 14 0 19 13 18 7 9 11 2 10
Coste: 7580

GENERACION: 959
Mejor Solucion:  1 3 6 5 8 15 16 17 20 4 21 12 14 0 19 13 18 7 9 11 2 10
Coste: 7580

GENERACION: 960
Mejor Solucion:  1 3 6 5 8 15 16 17 20 4 21 12 14 0 19 13 18 7 9 11 2 10
Coste: 7580

GENERACION: 961
Mejor Solucion:  1 3 6 5 8 15 16 17 20 4 21 12 14 0 19 13 18 7 9 11 2 10
Coste: 7580

GENERACION: 962
Mejor Solucion:  1 3 6 5 8 15 16 17 20 4 21 12 14 0 19 13 18 7 9 11 2 10
Coste: 7580

GENERACION: 963
Mejor Solucion:  1 3 6 5 8 15 16 17 20 4 21 12 14 0 19 13 18 7 9 11 2 10
Coste: 7580

GENERACION: 964
Mejor Solucion:  1 3 6 5 8 15 16 17 20 4 21 12 14 0 19 13 18 7 9 11 2 10
Coste: 7580

GENERACION: 965
Mejor Solucion:  1 3 6 5 8 15 16 17 20 4 21 12 14 0 19 13 18 7 9 11 2 10
Coste: 7580

